leto	mesec	dan	Ttla2cm	Ttla5cm	Ttla10cm	Ttla20cm	Ttla30cm	Ttla50cm	Ttla100cm
1961	4	1	7.4	7.3	7.3	7.3	7.1	7.1	
1961	4	2	9.5	9.2	9.0	9.5	7.3	7.1	
1961	4	3	11.8	11.1	10.4	9.4	8.4	7.6	
1961	4	4	12.1	11.7	11.4	9.8	8.8	8.3	
1961	4	5	12.4	12.7	11.6	10.1	9.2	8.7	
1961	4	6	12.4	12.5	11.9	10.5	9.7	9.1	
1961	4	7	13.2	12.8	12.2	9.9	9.9	9.5	
1961	4	8	14.8	14.3	13.1	11.5	10.3	9.8	
1961	4	9	13.7	13.2	13.1	11.7	10.8	10.0	
1961	4	10	15.1	14.6	13.5	12.2	11.0	10.3	
1961	4	11	12.8	12.5	12.7	11.7	10.6	10.6	
1961	4	12	12.9	12.7	12.8	12.0	11.0	10.6	
1961	4	13	14.6	14.0	13.3	11.9	11.1	10.7	
1961	4	14	14.5	14.3	13.3	12.1	11.3	10.8	
1961	4	15	12.6	12.5	12.7	12.1	11.4	10.9	
1961	4	16	13.2	13.1	13.1	12.3	11.6	11.0	
1961	4	17	11.7	12.9	12.5	11.5	11.4	11.1	
1961	4	18	15.0	14.4	13.6	12.5	11.7	11.2	
1961	4	19	13.2	12.9	12.8	12.1	11.6	11.3	
1961	4	20	16.6	15.8	14.7	12.6	11.9	11.4	
1961	4	21	17.4	16.8	15.8	13.9	12.8	11.9	
1961	4	22	15.0	14.8	14.4	13.5	13.1	12.2	
1961	4	23	13.0	13.4	13.5	13.0	12.6	12.1	
1961	4	24	12.4	12.3	12.5	12.3	12.1	11.9	
1961	4	25	13.4	13.3	13.0	12.3	11.7	11.6	
1961	4	26	14.7	14.5	14.0	12.3	12.0	11.8	
1961	4	27	16.1	15.4	14.8	13.3	12.5	12.0	
1961	4	28	15.9	15.6	15.0	13.6	13.1	12.2	
1961	4	29	13.8	13.8	13.7	13.3	12.7	12.4	
1961	4	30	13.4	13.3	13.6	12.4	12.5	12.3	
1961	5	1	13.9	13.5	13.3	12.5	12.3	12.3	
1961	5	2	14.2	14.1	13.8	13.3	12.3	12.0	
1961	5	3	16.7	15.9	15.0	13.9	12.7	12.1	
1961	5	4	16.1	16.8	16.2	14.4	13.2	12.6	
1961	5	5	17.6	16.9	16.1	14.5	13.6	12.7	
1961	5	6	18.4	17.7	16.7	14.9	13.9	13.2	
1961	5	7	19.4	18.8	17.8	15.8	14.7	13.8	
1961	5	8	14.5	14.6	14.9	14.7	14.5	14.0	
1961	5	9	16.3	15.9	15.0	14.0	13.7	13.2	
1961	5	10	15.3	15.0	14.8	14.0	13.5	13.3	
1961	5	11	13.5	13.2	13.0	13.2	13.1	13.1	
1961	5	12	13.0	12.9	12.6	12.8	12.8	12.8	
1961	5	13	15.3	14.9	14.4	13.3	12.8	12.7	
1961	5	14	17.1	16.4	15.6	14.2	13.3	12.9	
1961	5	15	13.5	13.7	14.2	14.0	13.6	13.3	
1961	5	16	13.7	13.1	13.3	13.1	12.5	13.0	
1961	5	17	14.7	14.5	14.0	13.4	12.8	12.7	
1961	5	18	13.1	12.8	13.3	13.0	12.8	12.8	
1961	5	19	14.5	14.5	14.5	13.5	13.0	13.1	
1961	5	20	13.5	13.5	13.6	13.4	13.8	13.0	
1961	5	21	13.8	13.8	14.2	13.9	13.2	12.7	
1961	5	22	14.6	14.6	14.4	14.2	13.4	13.2	
1961	5	23	16.4	15.9	15.1	14.3	13.7	13.5	
1961	5	24	16.9	16.5	15.0	14.6	14.1	13.5	
1961	5	25	19.2	18.6	17.6	15.5	14.5	13.7	
1961	5	26	19.1	18.4	17.9	16.0	15.0	13.8	
1961	5	27	16.9	16.9	16.8	16.1	15.4	14.6	
1961	5	28	16.0	15.8	15.7	15.4	15.1	14.6	
1961	5	29	16.5	16.3	16.0	15.4	14.9	14.5	
1961	5	30	16.6	15.9	15.8	15.2	14.8	14.3	
1961	5	31	16.3	16.2	15.7	15.2	14.4	14.3	
1961	6	1	18.3	17.7	17.2	15.8	15.1	14.5	
1961	6	2	17.3	16.9	16.7	15.7	15.2	14.6	
1961	6	3	15.6	15.3	15.5	15.2	15.0	14.7	
1961	6	4	18.0	17.5	16.7	15.6	15.1	14.7	
1961	6	5	17.1	19.6	18.5	16.6	15.5	14.7	
1961	6	6	21.3	20.4	19.2	17.4	16.3	15.3	
1961	6	7	18.1	17.9	17.9	17.0	16.2	15.6	
1961	6	8	16.9	17.1	16.9	16.6	16.3	15.6	
1961	6	9	21.1	20.6	19.6	17.4	16.5	15.6	
1961	6	10	19.4	19.0	18.6	17.4	16.7	15.8	
1961	6	11	18.8	18.5	18.0	17.4	16.6	15.2	
1961	6	12	18.3	18.3	18.1	17.2	16.6	15.9	
1961	6	13	17.7	17.5	17.1	16.8	16.5	16.0	
1961	6	14	17.6	17.3	17.1	16.7	15.8	15.9	
1961	6	15	19.0	18.5	17.6	16.8	16.3	15.8	
1961	6	16	20.2	19.4	18.7	17.4	16.7	16.0	
1961	6	17	19.3	19.3	18.3	17.9	17.2	16.4	
1961	6	18	20.5	20.2	19.1	18.0	17.3	16.6	
1961	6	19	21.9	21.2	20.2	18.5	17.8	16.8	
1961	6	20	21.5	21.0	20.5	19.2	18.4	17.3	
1961	6	21	22.6	22.0	21.2	19.6	18.7	17.6	
1961	6	22	22.5	22.0	21.4	19.9	19.0	17.9	
1961	6	23	23.4	22.7	21.9	20.3	19.3	18.2	
1961	6	24	23.7	23.1	22.2	20.6	19.6	18.6	
1961	6	25	23.9	23.4	22.6	21.0	19.3	18.8	
1961	6	26	23.7	23.3	22.6	21.2	20.2	19.0	
1961	6	27	23.5	23.3	22.6	21.7	20.5	19.3	
1961	6	28	19.5	19.1	20.4	20.6	20.3	19.5	
1961	6	29	20.3	20.2	19.9	19.5	19.3	18.9	
1961	6	30	18.6	18.4	19.7	19.1	18.5	18.5	
1961	7	1	20.8	20.5	20.1	19.3	18.8	18.4	
1961	7	2	21.5	21.5	20.6	19.4	18.9	18.4	
1961	7	3	22.0	21.8	21.1	19.9	19.2	18.6	
1961	7	4	21.9	21.7	21.7	20.3	19.5	18.7	
1961	7	5	16.5	16.7	17.1	18.1	18.8	18.5	
1961	7	6	18.2	18.2	18.3	17.9	17.8	17.7	
1961	7	7	18.3	18.4	18.2	17.9	17.9	17.6	
1961	7	8	18.8	18.8	18.7	18.2	18.1	17.7	
1961	7	9	19.2	19.0	18.6	18.1	18.0	17.8	
1961	7	10	20.7	20.4	19.8	19.0	18.2	17.9	
1961	7	11	22.1	21.5	20.8	19.5	18.8	18.3	
1961	7	12	21.4	21.6	21.1	19.7	19.3	18.7	
1961	7	13	19.8	20.0	20.2	19.6	19.6	19.0	
1961	7	14	20.2	20.3	19.9	19.5	19.2	19.0	
1961	7	15	20.8	20.6	20.3	19.6	19.3	18.9	
1961	7	16	18.4	20.1	20.3	19.8	19.3	19.1	
1961	7	17	19.3	20.8	20.4	19.6	19.4	19.0	
1961	7	18	19.7	19.8	19.7	19.1	19.3	19.0	
1961	7	19	20.1	19.9	19.6	19.2	19.1	18.8	
1961	7	20	20.1	19.8	19.4	19.2	19.2	18.9	
1961	7	21	22.3	21.8	21.1	19.8	19.3	18.8	
1961	7	22	21.3	20.7	20.1	19.8	19.7	19.0	
1961	7	23	18.0	18.2	18.5	19.1	19.1	19.0	
1961	7	24	18.7	20.6	20.0	19.0	18.8	19.0	
1961	7	25	21.2	20.8	20.3	19.2	18.9	18.9	
1961	7	26	21.4	21.0	20.1	19.4	18.7	18.6	
1961	7	27	21.8	21.5	20.9	20.1	19.3	19.0	
1961	7	28	21.7	21.4	20.9	20.0	19.5	19.0	
1961	7	29	16.4	16.9	17.8	18.8	19.1	18.6	
1961	7	30	17.5	17.7	17.7	18.5	18.2	18.2	
1961	7	31	19.1	18.9	18.3	17.8	17.9	17.8	
1961	8	1	19.3	19.4	18.8	18.2	18.0	17.7	
1961	8	2	20.9	19.9	19.7	18.7	18.4	18.0	
1961	8	3	19.8	19.9	19.7	19.0	18.7	18.3	
1961	8	4	20.0	20.0	19.5	19.0	18.5	18.2	
1961	8	5	20.7	20.5	19.8	18.8	18.5	18.1	
1961	8	6	21.2	21.1	20.3	19.1	18.7	17.9	
1961	8	7	22.3	21.9	21.3	19.5	19.0	18.2	
1961	8	8	22.4	22.0	21.6	19.8	19.2	18.4	
1961	8	9	22.8	22.9	22.0	20.4	19.6	18.8	
1961	8	10	23.9	23.7	22.9	21.1	20.1	19.2	
1961	8	11	23.3	22.6	22.3	21.0	20.2	19.4	
1961	8	12	23.0	22.3	21.7	20.6	20.1	19.5	
1961	8	13	20.1	20.3	20.4	20.0	19.8	19.5	
1961	8	14	19.6	19.7	19.3	19.0	19.1	19.1	
1961	8	15	18.9	18.6	18.4	18.4	18.6	18.5	
1961	8	16	16.9	16.6	17.2	17.4	18.0	18.1	
1961	8	17	17.4	17.1	17.1	16.9	17.4	17.6	
1961	8	18	17.5	17.3	17.0	16.9	17.2	17.3	
1961	8	19	16.9	17.2	17.0	17.0	17.1	17.1	
1961	8	20	15.4	15.7	16.1	16.7	17.1	17.0	
1961	8	21	17.8	17.7	17.2	16.5	16.6	16.6	
1961	8	22	19.3	18.7	17.9	17.2	16.8	16.8	
1961	8	23	19.6	19.0	18.9	17.7	17.2	17.0	
1961	8	24	18.7	18.8	18.6	17.7	17.3	17.1	
1961	8	25	18.5	18.7	18.2	17.5	17.5	17.1	
1961	8	26	18.5	18.6	17.8	17.0	17.2	17.1	
1961	8	27	19.8	19.7	18.9	17.7	17.5	17.1	
1961	8	28	19.9	19.7	19.4	18.2	17.7	17.2	
1961	8	29	20.1	20.0	19.6	18.0	17.6	17.6	
1961	8	30	19.5	19.5	18.9	18.0	17.9	17.7	
1961	8	31	19.9	19.7	19.2	18.1	17.9	17.6	
1961	9	1	18.6	18.5	18.3	17.2	17.7	17.5	
1961	9	2	18.4	18.2	17.9	17.4	17.4	17.2	
1961	9	3	18.4	18.3	17.9	17.2	17.2	17.0	
1961	9	4	18.4	18.4	17.9	17.3	17.2	16.9	
1961	9	5	18.4	18.3	18.0	17.2	17.1	16.9	
1961	9	6	16.7	16.8	17.2	17.2	17.4	16.9	
1961	9	7	18.3	18.2	18.0	17.2	16.9	16.8	
1961	9	8	15.4	15.6	16.2	16.8	17.1	16.6	
1961	9	9	16.6	16.2	16.3	16.1	16.4	16.4	
1961	9	10	18.0	17.7	17.2	16.4	16.4	16.2	
1961	9	11	17.8	17.6	17.2	16.2	16.6	16.3	
1961	9	12	16.9	16.8	16.6	16.4	16.5	16.3	
1961	9	13	17.7	17.4	17.0	16.3	16.2	16.1	
1961	9	14	17.7	17.7	17.3	16.5	16.3	16.1	
1961	9	15	18.9	18.8	18.3	17.2	16.7	16.3	
1961	9	16	18.1	18.0	19.3	17.8	17.2	16.7	
1961	9	17	17.5	17.3	18.8	17.5	17.2	16.8	
1961	9	18	18.8	17.1	18.7	17.5	17.2	16.8	
1961	9	19	19.7	17.4	18.7	17.6	17.2	16.7	
1961	9	20	17.2	17.2	18.8	17.5	17.1	16.7	
1961	9	21	19.0	19.0	18.7	17.6	17.2	16.6	
1961	9	22	17.8	17.9	18.0	17.1	17.1	16.6	
1961	9	23	16.0	16.4	16.7	16.8	16.5	16.4	
1961	9	24	15.1	15.3	15.8	14.4	15.9	16.1	
1961	9	25	15.3	15.4	15.4	15.5	15.6	15.6	
1961	9	26	16.0	16.0	16.1	14.6	15.4	15.5	
1961	9	27	16.2	16.2	16.4	15.7	15.5	14.7	
1961	9	28	16.4	17.7	16.3	10.4	15.4	15.3	
1961	9	29	17.2	17.1	16.9	15.9	15.6	15.4	
1961	9	30	16.4	16.1	16.0	15.8	15.7	15.5	
1961	10	1	16.4	16.3	15.5	15.7	15.6	15.5	
1961	10	2	15.1	15.2	15.4	15.5	15.6	15.5	
1961	10	3	14.5	14.6	14.9	15.1	15.3	15.3	
1961	10	4	15.8	15.7	15.6	15.2	15.1	15.2	
1961	10	5	15.9	15.8	15.7	15.4	15.3	15.1	
1961	10	6	16.4	16.3	16.1	15.7	15.4	15.3	
1961	10	7	14.5	14.8	15.0	15.3	15.5	15.2	
1961	10	8	14.6	14.6	14.8	15.0	15.1	15.3	
1961	10	9	14.3	14.4	14.8	14.9	14.9	15.1	
1961	10	10	13.1	13.5	13.8	13.8	14.5	14.9	
1961	10	11	13.1	13.3	13.9	13.7	14.0	14.5	
1961	10	12	13.3	13.3	13.4	13.5	13.8	14.1	
1961	10	13	13.3	13.2	13.1	13.2	13.6	13.9	
1961	10	14	13.2	13.3	13.6	13.6	13.7	13.8	
1961	10	15	11.7	11.7	12.0	12.8	13.3	13.8	
1961	10	16	11.7	11.6	11.9	12.2	12.6	13.2	
1961	10	17	11.6	11.6	11.8	12.2	12.6	13.0	
1961	10	18	12.5	12.6	12.7	12.7	12.8	12.9	
1961	10	19	11.0	11.3	11.9	13.0	12.8	13.0	
1961	10	20	10.1	10.0	10.7	11.6	12.3	12.8	
1961	10	21	11.0	11.0	11.0	11.4	11.8	12.5	
1961	10	22	10.5	10.8	10.8	11.3	11.7	12.2	
1961	10	23	11.3	11.2	11.8	11.5	11.9	12.1	
1961	10	24	10.9	10.9	11.3	11.6	11.9	12.4	
1961	10	25	11.8	11.7	11.8	11.9	12.3	12.0	
1961	10	26	11.6	11.6	11.5	11.7	12.3	12.1	
1961	10	27	12.5	12.8	12.5	12.2	12.9	12.2	
1961	10	28	11.8	11.9	12.3	12.4	12.7	12.6	
1961	10	29	12.3	12.3	12.4	12.7	12.8	12.5	
1961	10	30	11.3	11.3	11.9	12.2	12.8	12.6	
1961	10	31	10.5	10.6	11.1	12.0	12.5	12.4	
1961	11	1	9.7	9.8	10.4	10.8	12.1	12.0	
1961	11	2	8.9	9.1	9.5	10.2	11.5	11.6	
1961	11	3	9.3	9.5	9.6	10.2	11.1	11.2	
1961	11	4	7.2	7.5	8.6	9.7	10.8	11.0	
1961	11	5	6.3	6.7	7.2	8.0	9.7	10.4	
1961	11	6	6.1	6.2	6.8	8.0	9.5	9.8	
1961	11	7	7.0	7.1	7.4	8.2	9.3	9.5	
1961	11	8	7.3	7.4	7.7	8.4	9.5	9.3	
1961	11	9	7.9	7.9	8.1	8.5	9.5	9.3	
1961	11	10	9.2	9.0	8.8	8.9	9.9	9.7	
1961	11	11	7.6	7.8	8.4	9.0	9.5	9.3	
1961	11	12	7.5	8.2	7.9	8.5	9.6	9.6	
1961	11	13	9.0	8.9	8.9	9.0	9.6	9.5	
1961	11	14	7.7	8.0	8.4	8.9	9.7	9.6	
1961	11	15	8.5	8.6	8.7	8.7	9.6	9.6	
1961	11	16	8.8	8.7	9.0	8.6	10.0	9.7	
1961	11	17	8.3	8.3	8.6	9.0	9.9	9.6	
1961	11	18	5.7	6.2	6.8	7.9	9.4	9.5	
1961	11	19	5.4	5.6	6.5	7.5	8.7	9.1	
1961	11	20	3.8	4.2	5.2	6.5	7.5	7.9	
1961	11	21	1.7	2.3	3.3	5.2	7.2	7.4	
1961	11	22	0.4	0.9	2.1	4.1	6.2	6.3	
1961	11	23	0.5	1.2	2.0	3.6	5.3	5.4	
1961	11	24	4.5	4.4	4.2	4.5	5.5	5.3	
1961	11	25	6.9	6.7	6.4	5.9	6.7	5.9	
1961	11	26	7.4	7.3	7.0	6.7	7.4	6.5	
1961	11	27	9.1	8.9	9.3	8.2	8.2	7.4	
1961	11	28	8.8	8.7	8.7	8.3	8.9	7.8	
1961	11	29	6.9	7.0	7.1	7.6	8.5	7.9	
1961	11	30	8.6	7.9	7.9	7.9	8.5	7.9	
1962	4	1	6.6	6.7	6.4	6.2	5.9	4.9	
1962	4	2	3.2	3.5	4.4	4.7	4.9	5.2	
1962	4	3	6.4	5.9	5.6	4.7	4.7	4.8	
1962	4	4	4.7	4.6	4.6	4.7	4.8	4.9	
1962	4	5	5.5	5.4	5.5	5.1	5.0	4.9	
1962	4	6	6.9	6.7	6.6	5.6	5.5	4.9	
1962	4	7	7.9	7.5	6.9	6.0	5.9	5.3	
1962	4	8	8.1	7.9	7.6	6.6	6.4	5.5	
1962	4	9	6.3	6.0	6.1	6.2	6.1	5.8	
1962	4	10	4.1	4.3	4.8	5.1		5.7	
1962	4	11	5.9	5.6	5.5	5.1		5.2	
1962	4	12	7.0	6.6	6.4	5.7		5.2	
1962	4	13	10.1	9.6	8.6	7.1		5.9	
1962	4	14	5.1	5.5	6.2	6.5		6.1	
1962	4	15	8.2	7.6	7.1	6.4		6.2	
1962	4	16	9.7	9.3	9.0	7.8		6.3	
1962	4	17	8.3	8.0	8.0	7.8		7.0	
1962	4	18	10.1	9.5	8.8	8.1		7.1	
1962	4	19	12.4	11.6	10.6	9.1		7.5	
1962	4	20	10.9	12.4	11.7	10.2		7.9	
1962	4	21	14.0	13.5	12.7	11.1		8.6	
1962	4	22	13.2	13.3	12.7	11.7		9.2	
1962	4	23	13.6	13.0	13.0	11.9		9.6	
1962	4	24	13.7	11.7	11.4	10.4		10.0	
1962	4	25	15.2	14.5	13.9	12.3		10.2	
1962	4	26	14.7	13.7	14.2	13.1		10.7	
1962	4	27	11.6	12.0	12.7	12.5		10.9	
1962	4	28	13.4	12.9	12.6	12.0		10.7	
1962	4	29	10.5	10.4	11.0	11.3		10.6	
1962	4	30	9.6	9.6	10.0	10.3	-0.9	10.3	
1962	5	1	8.1	8.6	9.3	9.7		10.1	
1962	5	2	9.3	9.2	9.5	9.3	-0.9	9.7	
1962	5	3	13.1	13.6	11.2	10.6		9.8	
1962	5	4	11.8	11.9	11.8	11.2		10.1	
1962	5	5	11.4	11.4	11.7	11.2		10.2	
1962	5	6	14.1	13.6	12.6	11.7		10.3	
1962	5	7	17.0	16.5	15.3	13.4		10.8	
1962	5	8	18.7	18.0	16.4	14.4	13.4	11.4	
1962	5	9	18.8	18.2	16.7	15.0	14.1	11.9	
1962	5	10	16.6	16.3	16.1	15.7	14.3	12.4	
1962	5	11	16.9	16.3	15.7	14.4	13.8	12.5	
1962	5	12	15.6	15.0	14.7	14.2	14.1	12.5	
1962	5	13	12.7	12.8	13.0	13.1	13.2	12.5	
1962	5	14	14.2	14.3	14.2	13.7	13.0	12.3	
1962	5	15	13.6	13.5	13.0	12.8	12.7	12.3	
1962	5	16	14.0	13.8	13.2	12.7	12.4	12.1	
1962	5	17	14.8	14.5	13.9	13.0	12.7	12.0	
1962	5	18	17.5	16.7	15.2	14.3	13.3	12.1	
1962	5	19	15.8	15.2	14.6	14.1	13.2	12.4	
1962	5	20	11.8	12.1	12.7	13.0	12.9	12.3	
1962	5	21	14.8	15.9	14.7	13.2	12.7	12.1	
1962	5	22	16.7	16.2	15.1	13.9	13.3	12.4	
1962	5	23	17.8	17.5	16.5	14.9	14.2	12.7	
1962	5	24	17.2	17.1	16.4	15.2	15.4	13.2	
1962	5	25	12.9	13.0	13.5	14.2	14.2	13.4	
1962	5	26	16.0	15.5	14.5	13.7	13.4	13.1	
1962	5	27	14.5	14.4	14.2	14.1	14.1	13.1	
1962	5	28	18.5	18.0	16.7	14.9	14.3	13.1	
1962	5	29	16.7	16.1	15.5	14.9	14.5	13.5	
1962	5	30	14.0	14.0	14.2	14.4	14.4	13.6	
1962	5	31	18.6	18.1	16.8	14.9	14.4	13.3	
1962	6	1	15.5	15.4	15.6	15.4	15.1	13.8	
1962	6	2	11.9	12.0	12.9	13.6	13.8	13.8	
1962	6	3	13.6	13.5	13.6	13.2	13.3	13.2	
1962	6	4	14.0	13.8	13.6	13.3	13.2	13.1	
1962	6	5	14.0	13.7	13.5	13.8	13.2	13.1	
1962	6	6	16.5	16.0	15.1	14.1	13.8	13.2	
1962	6	7	13.3	13.2	13.5	13.6	13.5	13.2	
1962	6	8	13.0	11.8	13.6	13.5	13.6	13.3	
1962	6	9	13.5	13.3	13.1	13.2	13.1	13.1	
1962	6	10	15.1	14.8	14.2	13.5	13.2	13.0	
1962	6	11	17.2	17.0	15.5	14.3	13.9	13.1	
1962	6	12	14.8	14.8	14.8	13.8	14.1	13.4	
1962	6	13	18.6	17.6	16.7	15.0	14.5	13.4	
1962	6	14	19.6	19.0	17.6	16.1	15.4	13.9	
1962	6	15	22.1	20.6	19.4	17.1	16.2	14.3	
1962	6	16	22.4	21.5	20.0	18.3	17.2	15.1	
1962	6	17	22.0	21.4	20.1	18.3	17.4	15.5	
1962	6	18	23.1	22.5	21.2	19.2	18.2	15.8	
1962	6	19	22.1	22.3	21.3	19.3	18.5	16.2	
1962	6	20	22.5	22.6	21.5	19.6	18.8	16.6	
1962	6	21	23.3	22.7	21.8	19.9	19.0	16.9	
1962	6	22	24.0	23.5	22.0	20.0	19.1	17.1	
1962	6	23	24.4	24.0	22.6	20.4	19.2	17.3	
1962	6	24	26.3	25.4	23.6	21.1	20.0	17.6	
1962	6	25	25.1	24.3	23.0	21.1	20.4	18.1	
1962	6	26	17.5	17.7	18.5	18.9	19.0	18.0	
1962	6	27	15.3	15.6	16.1	17.1	17.4	17.3	
1962	6	28	18.1	17.7	16.9	15.9	15.9	16.1	
1962	6	29	18.0	18.0	17.5	16.9	16.8	16.0	
1962	6	30	17.3	17.1	16.7	16.7	16.8	16.2	
1962	7	1	17.9	17.7	17.1	16.5	16.5	16.2	
1962	7	2	18.5	17.8	17.6	16.8	16.8	16.2	
1962	7	3	18.2	18.3	17.8	17.2	17.1	16.4	
1962	7	4	14.2	14.5	15.2	16.0	16.5	16.4	
1962	7	5	12.2	12.6	13.4	14.4	15.1	15.7	
1962	7	6	17.7	17.3	16.4	15.1	14.7	15.1	
1962	7	7	20.1	19.6	18.4	16.8	16.0	15.4	
1962	7	8	21.1	18.9	19.9	17.4	17.2	15.9	
1962	7	9	21.8	20.0	20.4	18.6	18.0	16.5	
1962	7	10	22.7	22.2	21.1	18.7	18.8	17.0	
1962	7	11	23.2	22.6	21.5	19.8	19.0	17.4	
1962	7	12	20.6	20.2	19.9	19.4	19.2	17.8	
1962	7	13	19.3	19.3	19.0	18.8	18.6	17.6	
1962	7	14	21.1	20.4	20.1	18.9	18.6	17.6	
1962	7	15	20.1	20.0	20.0	19.1	18.8	17.8	
1962	7	16	22.5	22.2	21.2	19.6	19.0	17.8	
1962	7	17	20.5	18.8	19.9	19.2	19.2	18.0	
1962	7	18	21.3	21.3	20.5	19.3	19.0	17.9	
1962	7	19	20.3	19.2	20.3	19.2	19.0	18.0	
1962	7	20	22.0	21.6	20.5	18.9	18.8	18.1	
1962	7	21	22.9	22.3	21.3	19.8	19.4	18.1	
1962	7	22	23.4	23.0	21.9	20.2	19.4	18.2	
1962	7	23	22.6	19.5	23.4	20.4	19.8	18.3	
1962	7	24	22.9	22.5	21.6	20.3	19.4	18.4	
1962	7	25	23.7	23.0	22.0	20.4	19.9	18.6	
1962	7	26	24.6	24.1	22.5	20.9	19.8	18.5	
1962	7	27	25.9	25.4	23.0	21.7	20.8	18.6	
1962	7	28	23.0	22.9	22.0	21.2	20.6	19.0	
1962	7	29	18.5	18.7	19.2	19.7	19.8	19.0	
1962	7	30	17.4	17.6	18.4	18.4	18.5	18.4	
1962	7	31	19.7	18.2	19.1	18.3	17.9	17.7	
1962	8	1	21.5	20.4	19.8	18.8	18.6	17.9	
1962	8	2	23.2	22.6	21.5	19.5	19.0	18.0	
1962	8	3	23.8	23.5	22.1	20.3	19.7	18.5	
1962	8	4	24.7	24.2	23.5	20.9	20.2	18.4	
1962	8	5	24.5	23.9	23.0	21.4	20.7	18.9	
1962	8	6	25.2	24.5	23.2	21.3	20.8	19.3	
1962	8	7	25.3	24.7	23.5	21.3	21.0	19.5	
1962	8	8	24.0	23.4	23.0	21.8	21.2	19.7	
1962	8	9	23.8	21.8	21.5	21.1	20.6	19.5	
1962	8	10	19.9	22.5	22.2	21.7	20.4	19.3	
1962	8	11	22.7	23.1	22.6	20.8	20.2	19.4	
1962	8	12	22.7	22.9	21.8	20.5	20.2	19.3	
1962	8	13	23.3	22.9	21.9	21.0	20.5	19.3	
1962	8	14	24.1	24.1	22.1	21.4	20.8	19.5	
1962	8	15	24.8	24.4	23.0	22.1	20.9	19.7	
1962	8	16	23.3	22.5	21.7	21.6	21.1	19.9	
1962	8	17	24.4	24.2	22.6	21.7	21.0	19.5	
1962	8	18	20.8	20.8	20.5	20.6	20.6	19.8	
1962	8	19	21.6	21.7	21.4	20.5	20.2	19.5	
1962	8	20	18.2	18.5	20.9	20.1	19.9	19.3	
1962	8	21	21.5	21.4	21.1	19.9	20.0	19.3	
1962	8	22	18.0	18.4	19.2	19.5	19.6	19.2	
1962	8	23	20.4	20.3	19.9	19.7	19.0	18.5	
1962	8	24	20.5	20.2	19.7	19.1	19.0	18.9	
1962	8	25	21.5	21.6	21.1	19.5	19.2	18.5	
1962	8	26	20.5	20.2	20.2	19.5	19.4	18.6	
1962	8	27	21.4	21.4	20.8	19.6	19.4	17.9	
1962	8	28	21.5	21.1	20.8	19.7	19.5	18.9	
1962	8	29	21.8	21.8	21.1	20.1	19.6	18.5	
1962	8	30	21.5	21.3	21.4	20.2	19.8	18.7	
1962	8	31	20.8	20.9	20.4	19.5	19.3	18.7	
1962	9	1	20.4	20.4	20.1	19.3	19.2	18.4	
1962	9	2	19.5	19.7	19.8	19.1	19.1	18.4	
1962	9	3	19.8	19.8	19.6	18.7	18.7	18.5	
1962	9	4	20.6	20.5	20.0	19.0	18.8	18.2	
1962	9	5	18.7	18.7	18.8	18.6	18.7	18.2	
1962	9	6	20.7	20.9	20.5	19.1	18.9	18.0	
1962	9	7	20.8	20.8	20.0	19.1	18.9	18.2	
1962	9	8	15.5	15.7	16.7	17.6	18.0	18.2	
1962	9	9	16.9	17.0	17.0	16.7	17.2	17.4	
1962	9	10	17.0	17.0	17.3	17.0	17.1	17.2	
1962	9	11	18.2	18.1	18.0	17.1	17.2	17.0	
1962	9	12	19.5	19.8	19.0	18.0	17.8	17.1	
1962	9	13	17.5	17.5	17.9	17.9	17.9	17.1	
1962	9	14	15.2	15.4	16.2	16.9	17.2	17.2	
1962	9	15	14.7	14.9	15.5	15.8	16.0	16.6	
1962	9	16	16.1	16.1	16.1	15.8	16.0	16.3	
1962	9	17	15.2	15.3	15.8	16.0	16.2	16.4	
1962	9	18	14.8	14.8	15.2	15.5	15.7	16.1	
1962	9	19	12.2	12.3	13.4	14.5	15.0	15.8	
1962	9	20	12.0	12.1	12.8	13.6	14.2	15.3	
1962	9	21	12.1	12.1	13.0	15.1	14.0	14.9	
1962	9	22	11.9	12.1	12.5	13.2	13.7	14.6	
1962	9	23	12.0	12.2	12.5	12.9	13.2	14.1	
1962	9	24	11.6	11.8	13.1	13.5	13.7	14.3	
1962	9	25	10.6	10.6	11.2	12.2	12.8	14.0	
1962	9	26	12.8	12.7	12.8	12.9	13.1	13.7	
1962	9	27	14.9	14.8	14.3	13.6	13.6	13.8	
1962	9	28	14.2	14.3	14.4	14.1	14.0	14.0	
1962	9	29	15.5	15.5	15.4	15.4	14.5	14.3	
1962	9	30	15.1	15.1	15.1	14.8	14.7	14.5	
1962	10	1	14.6	14.4	14.3	13.8	14.2	14.4	
1962	10	2	15.0	14.7	14.5	14.2	14.2	14.2	
1962	10	3	15.5	15.3	14.9	14.4	14.4	14.2	
1962	10	4	15.4	15.3	14.7	14.5	14.6	14.4	
1962	10	5	15.4	15.3	15.0	14.5	14.6	14.3	
1962	10	6	14.7	14.7	14.6	14.4	14.6	14.4	
1962	10	7	13.2	13.2	13.6	13.8	14.2	14.3	
1962	10	8	13.7	13.8	14.0	13.9	14.0	14.2	
1962	10	9	13.1	13.1	13.4	13.7	14.0	14.1	
1962	10	10	11.1	11.7	12.1	12.4	13.0	13.9	
1962	10	11	12.0	11.9	12.1	12.4	12.6	13.5	
1962	10	12	11.8	11.8	11.9	12.2	12.5	13.3	
1962	10	13	12.5	12.2	12.2	12.5	12.4	13.1	
1962	10	14	14.7	14.6	14.0	13.5	13.2	13.1	
1962	10	15	11.1	11.2	12.0	12.6	12.9	13.2	
1962	10	16	10.6	10.7	11.6	11.8	12.3	13.0	
1962	10	17	9.0	9.0	9.3	11.1	11.6	12.8	
1962	10	18	8.5	8.6	9.1	10.0	10.7	12.3	
1962	10	19	8.8	8.8	9.0	9.7	10.4	11.9	
1962	10	20	9.1	9.1	9.2	9.6	10.2	11.5	
1962	10	21	8.6	9.0	9.8	10.3	10.6	11.4	
1962	10	22	7.6	7.7	8.1	9.2	10.1	11.3	
1962	10	23	9.9	9.8	9.8	9.8	10.1	11.2	
1962	10	24	7.9	8.2	8.9	9.7	10.2	11.1	
1962	10	25	8.1	8.1	8.6	9.1	9.6	10.9	
1962	10	26	7.8	7.9	8.6	9.5	9.9	10.9	
1962	10	27	6.5	6.7	7.4	8.5	9.2	10.7	
1962	10	28	9.1	9.0	9.0	9.2	9.4	10.4	
1962	10	29	7.5	7.7	8.3	9.2	9.6	10.3	
1962	10	30	8.3	8.3	8.6	9.0	9.4	10.4	
1962	10	31	8.0	8.1	8.5	9.0	9.4	10.3	
1962	11	1	7.4	7.6	8.2	8.9	9.5	10.2	
1962	11	2	8.3	8.3	7.8	8.9	9.1	9.8	
1962	11	3	7.5	7.7	8.4	9.0	9.5	10.2	
1962	11	4	7.2	7.2	7.6	8.2	8.7	10.1	
1962	11	5	6.9	7.0	7.6	8.3	8.6	10.0	
1962	11	6	8.3	8.2	8.2	8.5	8.7	9.8	
1962	11	7	10.1	10.0	9.7	9.3	9.3	9.9	
1962	11	8	9.8	9.8	10.0	10.0	9.9	10.1	
1962	11	9	10.6	10.4	10.1	10.3	10.3	10.3	
1962	11	10	10.0	10.0	10.2	10.3	10.4	10.3	
1962	11	11	7.9	7.8	8.5	9.3	9.6	10.4	
1962	11	12	8.8	8.8	8.9	9.2	9.6	10.2	
1962	11	13	8.3	8.3	8.7	9.2	9.5	10.2	
1962	11	14	9.0	9.0	9.1	9.3	9.6	10.2	
1962	11	15	8.4	8.4	8.6	9.1	9.5	10.0	
1962	11	16	5.1	5.2	6.5	7.9	8.4	9.8	
1962	11	17	4.3	3.8	5.1	6.3	7.3	9.2	
1962	11	18	1.6	1.9	3.6	5.8	6.6	8.7	
1962	11	19	1.4	1.5	3.0	4.6	5.6	8.2	
1962	11	20	1.2	1.2	2.7	4.0	5.0	7.5	
1962	11	21	2.5	2.5	3.1	4.0	4.8	6.9	
1962	11	22	1.4	1.6	2.4	3.4	4.2	6.7	
1962	11	23	1.3	1.5	2.4	3.4	4.1	6.3	
1962	11	24	1.0	1.2	2.1	3.2	4.0	6.1	
1962	11	25	1.5	1.9	2.4	3.3	3.9	6.0	
1962	11	26	2.5	2.1	3.3	3.5	4.1	5.9	
1962	11	27	1.7	1.9	2.6	3.2	3.8	5.7	
1962	11	28	1.4	1.6	2.3	3.0	3.5	5.5	
1962	11	29	1.9	2.0	2.5	3.5	3.7	5.5	
1962	11	30	1.4	1.5	2.2	2.9	3.6	5.3	
1963	4	1	7.9	7.5	7.1	6.3	5.6	5.0	
1963	4	2	7.2	6.7	6.4	5.8	5.8	5.0	
1963	4	3	5.6	5.5	5.7	5.6	5.6	5.1	
1963	4	4	5.9	5.5	5.7	5.5	5.3	5.1	
1963	4	5	7.7	7.3	6.8	5.7	5.3	4.9	
1963	4	6	8.1	7.9	8.1	6.8	6.1	5.3	
1963	4	7	7.0	6.9	7.1	6.8	6.6	5.6	
1963	4	8	9.9	8.9	8.6	7.2	6.7	5.5	
1963	4	9	7.8	8.0	7.8	7.2	6.5	6.0	
1963	4	10	9.4	9.0	8.7	7.8	7.3	6.5	
1963	4	11	10.1	9.2	8.4	7.7	7.4	6.4	
1963	4	12	12.5	10.9	9.8	8.4	7.8	6.8	
1963	4	13	9.4	8.8	8.5	8.4	8.2	7.0	
1963	4	14	11.0	10.5	10.0	9.1	8.6	7.3	
1963	4	15	12.5	11.0	10.3	8.9	8.4	7.6	
1963	4	16	13.8	12.2	11.3	9.8	9.0	8.0	
1963	4	17	14.3	12.9	12.4	10.9	10.0	8.3	
1963	4	18	14.7	12.9	11.8	10.7	9.9	8.8	
1963	4	19	15.9	14.4	13.5	11.8	10.8	9.1	
1963	4	20	12.0	11.5	11.7	11.3	10.8	9.2	
1963	4	21	16.1	14.2	13.1	11.7	10.9	9.6	
1963	4	22	15.8	15.0	14.0	12.3	11.4	9.8	
1963	4	23	15.1	15.1	14.4	13.1	11.8	10.1	
1963	4	24	16.3	15.1	14.3	12.9	11.9	10.5	
1963	4	25	15.4	14.8	14.1	13.3	12.1	10.6	
1963	4	26	14.8	14.3	13.7	12.8	13.4	10.8	
1963	4	27	15.8	14.9	14.2	13.3	11.7	10.9	
1963	4	28	16.3	15.5	14.7	13.4	12.7	11.1	
1963	4	29	15.8	15.4	14.0	13.1	12.4	11.2	
1963	4	30	16.4	15.6	15.9	14.2	13.1	11.3	
1963	5	1	12.8	12.9	13.2	12.9	12.5	11.2	
1963	5	2	16.0	14.9	14.0	11.9	12.4	11.1	
1963	5	3	11.6	11.8	12.2	12.3	11.9	11.1	
1963	5	4	11.5	11.1	11.3	11.3	11.3	11.0	
1963	5	5	12.2	12.0	12.0	11.0	11.3	10.7	
1963	5	6	15.0	13.9	12.9	10.9	11.4	10.7	
1963	5	7	13.6	13.0	12.5	11.4	11.8	10.7	
1963	5	8	12.7	12.7	12.7	11.6	11.8	10.8	
1963	5	9	15.5	14.5	13.6	11.6	12.2	11.0	
1963	5	10	16.5	15.6	14.6	12.2	12.9	11.2	
1963	5	11	16.8	15.6	14.9	13.1	13.0	11.2	
1963	5	12	15.0	14.6	14.5	13.3	13.5	11.6	
1963	5	13	17.3	17.1	15.8	13.5	14.0	11.9	
1963	5	14	16.8	15.9	15.2	13.5	14.0	12.2	
1963	5	15	16.4	15.9	15.4	13.8	14.1	12.3	
1963	5	16	17.4	16.3	15.4	13.9	14.2	12.7	
1963	5	17	17.1	16.6	16.0	14.2	14.4	12.9	
1963	5	18	17.3	16.4	15.8	14.4	14.6	13.1	
1963	5	19	18.2	17.7	16.8	14.8	14.9	13.3	
1963	5	20	13.5	13.7	14.2	14.7	14.6	13.6	
1963	5	21	15.9	15.3	14.7	13.3	13.8	13.2	
1963	5	22	17.3	16.3	15.4	13.7	14.1	13.3	
1963	5	23	18.7	17.9	16.8	14.6	15.2	13.6	
1963	5	24	17.4	16.7	16.2	15.2	15.1	13.9	
1963	5	25	17.0	17.1	16.6	15.0	15.0	14.1	
1963	5	26	19.6	18.4	17.7	15.1	15.4	14.0	
1963	5	27	19.6	19.1	18.2	15.9	15.6	14.3	
1963	5	28	17.7	17.7	17.6	16.0	16.0	14.7	
1963	5	29	15.9	16.0	16.0	15.6	15.2	14.8	
1963	5	30	17.5	16.9	16.3	15.1	15.2	14.4	
1963	5	31	18.4	17.6	16.9	15.3	15.5	14.5	
1963	6	1	14.0	15.0	15.7	15.5	15.6	14.6	
1963	6	2	17.8	16.8	16.0	15.3	15.0	15.1	
1963	6	3	18.7	17.7	16.8	15.8	15.2	14.4	
1963	6	4	18.3	17.7	17.0	15.9	15.4	16.2	
1963	6	5	17.1	16.9	17.3	16.3	15.5	14.6	
1963	6	6	20.5	19.5	18.2	16.6	15.6	14.8	
1963	6	7	21.0	20.4	19.1	17.5	16.0	15.1	
1963	6	8	21.3	20.0	19.0	17.5	16.7	15.3	
1963	6	9	21.8	20.8	19.7	18.1	17.3	15.5	
1963	6	10	19.1	20.2	19.3	18.0	17.3	15.9	
1963	6	11	19.9	19.1	18.4	17.7	17.2	16.0	
1963	6	12	17.9	18.3	18.4	17.6	16.7	15.9	
1963	6	13	21.1	20.5	19.4	17.9	16.9	16.3	
1963	6	14	17.3	17.1	17.2	17.5	16.9	15.8	
1963	6	15	18.6	17.9	17.5	16.8	16.6	15.8	
1963	6	16	17.1	16.7	16.4	16.2	16.3	15.6	
1963	6	17	18.9	18.0	17.3	16.5	16.0	15.3	
1963	6	18	19.6	19.0	18.1	16.9	16.4	15.3	
1963	6	19	15.5	15.7	16.1	16.3	16.2	15.5	
1963	6	20	16.0	15.8	15.7	15.5	15.4	15.2	
1963	6	21	22.3	20.7	19.0	16.7	15.9	15.2	
1963	6	22	23.7	22.3	20.7	18.5	17.4	15.6	
1963	6	23	24.7	23.0	21.6	19.8	17.7	16.0	
1963	6	24	21.7	21.0	20.2	19.1	18.4	16.6	
1963	6	25	22.1	21.6	20.6	19.3	18.4	16.7	
1963	6	26	22.8	22.4	21.4	19.6	18.7	16.9	
1963	6	27	24.2	23.1	21.8	19.9	18.9	17.1	
1963	6	28	24.5	22.7	22.0	20.3	19.4	17.3	
1963	6	29	24.8	23.8	22.7	21.1	19.8	17.7	
1963	6	30	25.7	24.8	23.3	21.6	20.6	18.3	
1963	7	1	27.1	25.5	24.2	22.3	20.9	18.7	
1963	7	2	25.1	24.1	23.9	22.3	21.3	19.2	
1963	7	3	24.0	23.3	22.8	21.7	20.9	19.1	
1963	7	4	23.4	22.4	22.1	21.3	20.7	19.2	
1963	7	5	23.7	22.6	21.9	21.0	20.4	19.1	
1963	7	6	24.5	23.8	22.8	21.4	20.7	19.1	
1963	7	7	25.5	24.1	23.1	21.7	20.9	19.2	
1963	7	8	20.5	20.7	21.2	20.9	20.5	19.3	
1963	7	9	23.1	22.3	21.7	20.6	20.0	19.0	
1963	7	10	21.5	20.5	20.5	20.2	19.8	18.9	
1963	7	11	23.0	22.4	21.9	20.6	19.9	18.7	
1963	7	12	19.3	19.3	20.1	19.7	19.6	18.8	
1963	7	13	23.0	21.9	21.1	19.9	19.4	18.5	
1963	7	14	18.2	18.5	19.3	19.1	19.1	18.5	
1963	7	15	22.7	21.6	20.8	19.5	18.7	18.2	
1963	7	16	23.9	22.7	21.5	20.1	19.4	18.3	
1963	7	17	24.2	23.2	22.3	21.2	20.0	18.5	
1963	7	18	24.1	23.1	22.2	21.0	20.3	18.8	
1963	7	19	25.9	24.3	23.1	21.3	20.5	19.2	
1963	7	20	26.3	24.6	23.5	21.9	21.0	19.1	
1963	7	21	26.4	24.8	23.3	22.2	21.1	19.4	
1963	7	22	26.3	24.8	23.8	22.3	21.3	19.5	
1963	7	23	27.1	25.3	24.0	21.6	21.8	19.5	
1963	7	24	25.1	24.6	23.5	22.5	21.3	19.6	
1963	7	25	26.7	24.9	23.7	22.2	21.2	19.6	
1963	7	26	26.1	24.1	23.2	21.9	21.2	19.6	
1963	7	27	23.1	22.6	22.7	21.6	20.9	19.5	
1963	7	28	21.6	21.8	21.5	20.7	20.2	19.3	
1963	7	29	21.8	20.6	20.3	20.0	19.5	18.9	
1963	7	30	23.3	21.2	20.6	19.6	19.3	18.5	
1963	7	31	24.6	22.3	21.5	20.2	19.2	18.4	
1963	8	1	23.7	22.8	21.8	20.3	20.0	18.3	
1963	8	2	24.7	23.7	22.5	20.9	20.5	18.4	
1963	8	3	24.6	23.8	22.5	21.2	20.9	18.6	
1963	8	4	25.5	24.8	22.8	21.5	21.2	18.7	
1963	8	5	24.6	24.2	23.0	21.5	21.3	19.0	
1963	8	6	25.0	24.7	23.4	22.1	21.4	19.1	
1963	8	7	21.1	21.0	21.5	21.1	21.0	19.2	
1963	8	8	22.7	21.1	21.1	20.6	20.6	19.0	
1963	8	9	19.9	19.9	19.6	19.3	19.8	18.8	
1963	8	10	21.8	21.8	21.1	20.1	19.8	18.5	
1963	8	11	21.1	21.2	21.1	19.8	19.8	18.5	
1963	8	12	20.6	20.7	20.3	19.6	19.8	18.4	
1963	8	13	21.6	21.6	21.2	20.0	19.9	18.3	
1963	8	14	22.9	22.6	21.9	20.5	20.3	18.5	
1963	8	15	22.7	22.8	22.2	21.0	20.8	18.9	
1963	8	16	20.2	20.3	20.2	19.9	20.2	19.0	
1963	8	17	19.6	19.6	19.7	19.2	19.6	18.6	
1963	8	18	20.4	20.5	20.0	19.3	19.6	18.4	
1963	8	19	19.5	19.5	19.2	18.7	19.2	18.3	
1963	8	20	19.9	19.9	19.4	18.7	19.0	18.0	
1963	8	21	17.9	17.8	18.2	18.2	18.8	18.0	
1963	8	22	18.2	18.2	18.5	17.7	18.3	17.7	
1963	8	23	18.0	18.0	17.6	17.7	18.2	17.6	
1963	8	24	19.9	19.8	19.4	18.4	18.5	17.5	
1963	8	25	20.7	20.7	20.1	19.3	19.2	17.8	
1963	8	26	22.9	23.0	21.8	20.7	20.3	18.3	
1963	8	27	22.4	22.4	21.8	20.8	20.7	18.8	
1963	8	28	20.5	20.6	20.7	20.2	20.5	19.1	
1963	8	29	16.5	16.6	17.5	18.4	19.4	18.9	
1963	8	30	16.5	16.5	16.9	17.3	18.2	18.0	
1963	8	31	17.7	17.7	17.7	17.3	18.0	17.6	
1963	9	1	19.2	19.2	19.0	18.1	18.3	17.6	
1963	9	2	19.6	19.7	19.5	18.7	18.4	17.8	
1963	9	3	20.7	20.7	20.2	19.2	18.9	18.0	
1963	9	4	20.3	20.2	20.0	19.5	19.1	18.2	
1963	9	5	19.8	19.3	19.3	19.1	19.2	18.2	
1963	9	6	19.5	19.5	19.2	18.9	18.9	18.3	
1963	9	7	17.7	17.7	18.0	18.3	18.4	18.3	
1963	9	8	16.1	16.2	16.8	17.4	17.7	18.0	
1963	9	9	17.6	17.5	17.4	17.2	17.3	17.4	
1963	9	10	17.8	18.1	18.0	17.5	17.1	17.3	
1963	9	11	18.0	17.9	17.7	17.4	17.5	17.3	
1963	9	12	19.3	19.2	18.7	17.9	17.7	17.3	
1963	9	13	19.2	18.8	18.4	18.1	18.0	17.5	
1963	9	14	19.6	19.7	19.2	18.8	18.2	17.6	
1963	9	15	18.9	18.9	19.0	18.2	18.2	17.6	
1963	9	16	19.0	19.1	18.8	18.1	18.0	17.6	
1963	9	17	19.3	19.3	18.9	18.2	18.0	17.5	
1963	9	18	19.9	19.9	19.4	18.7	18.4	17.6	
1963	9	19	20.1	20.1	19.7	18.8	18.6	17.8	
1963	9	20	19.1	19.1	18.8	18.6	18.5	17.9	
1963	9	21	18.8	18.8	18.5	18.2	18.2	17.8	
1963	9	22	17.6	17.5	17.6	17.6	17.8	17.6	
1963	9	23	18.4	18.3	18.1	17.8	17.7	17.4	
1963	9	24	17.9	17.9	17.4	17.5	17.5	17.4	
1963	9	25	16.7	16.7	17.0	17.2	17.4	17.2	
1963	9	26	16.2	16.2	16.5	16.6	16.8	17.0	
1963	9	27	15.8	15.7	15.7	15.8	16.2	16.6	
1963	9	28	13.4	13.4	14.4	15.3	15.8	16.4	
1963	9	29	13.8	13.8	14.3	14.8	15.1	16.0	
1963	9	30	14.1	14.0	14.3	14.6	14.9	15.5	
1963	10	1	13.6	13.5	13.8	14.2	14.6	15.3	
1963	10	2	14.7	14.8	14.8	14.6	14.9	15.3	
1963	10	3	15.2	15.1	14.9	15.1	15.0	15.3	
1963	10	4	15.2	15.1	15.1	15.1	15.1	15.3	
1963	10	5	13.8	13.8	14.3	14.8	15.0	15.2	
1963	10	6	13.6	13.7	13.8	14.2	14.5	15.1	
1963	10	7	13.2	13.2	13.5	13.9	14.2	14.9	
1963	10	8	13.2	13.2	13.5	13.9	14.1	14.7	
1963	10	9	13.3	13.2	13.5	14.1	13.9	14.5	
1963	10	10	11.9	11.9	12.4	12.9	13.3	14.4	
1963	10	11	12.0	11.9	12.4	12.8	13.2	14.1	
1963	10	12	11.7	11.6	11.9	12.5	12.8	13.8	
1963	10	13	12.1	12.0	12.1	12.3	12.6	13.5	
1963	10	14	11.8	11.8	11.8	12.4	12.4	13.3	
1963	10	15	12.2	12.1	12.5	12.7	12.7	13.2	
1963	10	16	10.1	10.3	11.1	11.9	12.1	13.2	
1963	10	17	8.9	8.9	9.7	10.3	11.4	12.8	
1963	10	18	9.2	9.2	9.6	10.2	10.9	12.3	
1963	10	19	10.1	10.0	10.1	10.5	10.9	12.0	
1963	10	20	10.9	11.0	11.1	11.2	11.3	12.0	
1963	10	21	9.8	9.8	10.0	10.6	10.9	12.1	
1963	10	22	9.5	9.6	10.1	10.3	10.7	11.7	
1963	10	23	9.5	9.5	9.3	10.0	10.4	11.5	
1963	10	24	10.3	10.3	10.7	10.9	11.1	11.5	
1963	10	25	10.1	10.0	10.4	10.7	10.9	11.7	
1963	10	26	9.2	9.2	9.8	10.3	10.6	11.6	
1963	10	27	9.3	9.3	9.6	9.8	10.4	11.5	
1963	10	28	8.5	8.7	9.1	9.8	10.1	11.3	
1963	10	29	8.6	8.6	9.1	9.6	9.9	11.2	
1963	10	30	8.9	8.8	9.3	9.7	10.0	11.1	
1963	10	31	9.0	9.0	9.4	9.8	9.7	11.0	
1963	11	1	8.8	8.8	9.2	9.6	9.9	11.1	
1963	11	2	11.4	11.3	11.0	10.6	10.4	11.0	
1963	11	3	11.7	11.6	11.4	11.1	10.8	11.0	
1963	11	4	13.0	12.9	12.5	12.0	11.5	11.5	
1963	11	5	11.3	11.3	11.8	11.8	11.6	11.7	
1963	11	6	11.9	11.9	12.2	12.0	11.7	11.9	
1963	11	7	11.0	10.9	11.4	11.6	11.6	12.0	
1963	11	8	8.9	8.9	9.7	10.4	10.8	11.8	
1963	11	9	9.2	9.2	9.5	10.2	10.4	11.4	
1963	11	10	10.0	9.9	9.9	10.0	10.1	11.2	
1963	11	11	12.1	12.1	11.7	11.3	10.9	11.2	
1963	11	12	12.3	12.2	12.2	11.8	11.5	11.6	
1963	11	13	10.8	10.7	11.2	11.4	11.4	11.8	
1963	11	14	9.2	9.2	10.1	10.7	10.9	11.6	
1963	11	15	10.1	10.0	10.1	10.4	10.5	11.4	
1963	11	16	13.1	12.9	12.4	11.6	11.2	11.3	
1963	11	17	10.0	10.0	11.2	11.6	11.5	11.8	
1963	11	18	8.2	8.1	8.9	10.1	10.5	11.5	
1963	11	19	7.4	7.4	8.1	8.9	9.5	11.0	
1963	11	20	8.9	8.8	9.0	9.3	9.6	10.7	
1963	11	21	6.0	6.0	7.5	8.7	9.3	10.5	
1963	11	22	4.0	4.0	5.2	6.2	7.7	9.9	
1963	11	23	4.0	4.0	5.0	6.0	6.9	9.2	
1963	11	24	3.4	3.5	4.4	5.5	6.4	8.8	
1963	11	25	5.2	5.1	5.4	5.8	6.4	8.3	
1963	11	26	6.9	7.8	7.6	7.4	7.4	8.4	
1963	11	27	8.2	8.1	8.1	7.8	8.1	8.8	
1963	11	28	7.6	7.6	7.8	8.2	8.3	9.1	
1963	11	29	6.6	6.5	7.1	7.7	8.0	9.0	
1963	11	30	5.5	5.5	6.3	7.1	7.6	8.9	
1964	4	1	11.1	10.5	9.6	8.1	7.2	6.5	
1964	4	2	11.0	10.4	9.7	8.7	7.9	7.1	
1964	4	3	12.9	12.4	10.9	9.4	8.4	7.5	
1964	4	4	13.0	12.5	11.5	10.2	9.4	8.3	
1964	4	5	10.3	10.1	10.4	9.9	9.3	8.5	
1964	4	6	10.2	10.2	10.3	9.6	9.0	8.5	
1964	4	7	10.4	10.1	9.4	9.0	8.4	8.5	
1964	4	8	6.9	6.8	7.3	8.0	8.0	8.2	
1964	4	9	9.2	8.8	9.0	7.5	7.4	7.5	
1964	4	10	11.8	11.1	9.9	9.0	8.0	7.7	
1964	4	11	11.7	11.2	10.3	9.4	8.7	8.2	
1964	4	12	13.1	12.9	11.7	10.3	9.5	8.7	
1964	4	13	13.2	12.8	13.9	10.6	9.8	9.1	
1964	4	14	10.7	10.9	11.4	10.8	10.1	9.5	
1964	4	15	13.6	13.4	12.1	10.9	10.1	9.5	
1964	4	16	14.3	13.6	12.2	11.1	10.3	9.6	
1964	4	17	13.9	13.4	12.3	11.3	10.6	9.9	
1964	4	18	14.6	13.9	12.4	11.4	10.6	10.0	
1964	4	19	16.0	15.2	13.7	12.4	11.3	10.2	
1964	4	20	13.3	13.2	12.6	12.1	11.5	10.6	
1964	4	21	11.6	11.4	11.6	11.5	10.9	10.5	
1964	4	22	14.6	14.4	13.7	12.1	11.2	10.4	
1964	4	23	13.7	13.6	12.7	12.0	11.2	10.4	
1964	4	24	9.2	9.7	10.4	10.6	10.7	10.8	
1964	4	25	8.8	8.9	9.4	9.7	10.0	10.1	
1964	4	26	12.1	12.1	11.4	10.4	10.1	9.7	
1964	4	27	13.0	12.6	11.6	10.8	10.0	9.9	
1964	4	28	14.4	14.0	12.7	11.4	10.7	10.1	
1964	4	29	15.3	14.3	13.0	12.1	11.2	10.4	
1964	4	30	11.2	10.7	11.1	11.6	11.0	10.6	
1964	5	1	14.5	14.3	13.0	12.1	11.0	10.3	
1964	5	2	14.2	16.2	12.8	12.0	11.3	10.6	
1964	5	3	15.3	14.8	13.6	12.1	11.6	10.9	
1964	5	4	16.1	15.3	14.4	13.2	12.2	11.2	
1964	5	5	13.6	15.0	12.9	13.0	12.1	11.3	
1964	5	6	16.6	16.0	14.4	11.9	12.0	11.2	
1964	5	7	16.2	15.8	14.7	13.8	12.6	11.5	
1964	5	8	18.3	17.5	15.8	14.1	12.1	11.7	
1964	5	9	14.7	14.6	14.6	13.9	13.2	12.1	
1964	5	10	16.0	15.7	14.8	13.8	12.9	12.1	
1964	5	11	16.5	14.2	14.7	13.8	12.9	12.0	
1964	5	12	18.5	17.8	17.0	14.6	13.5	12.2	
1964	5	13	19.5	19.0	17.4	15.4	14.3	12.6	
1964	5	14	19.9	18.6	17.3	15.4	14.7	13.1	
1964	5	15	17.1	17.3	16.7	15.8	14.9	13.5	
1964	5	16	16.8	16.4	15.4	14.7	14.0	13.3	
1964	5	17	16.6	16.1	15.3	14.4	13.8	13.1	
1964	5	18	17.7	17.1	16.1	14.7	14.0	13.1	
1964	5	19	18.5	17.2	15.8	15.1	14.5	13.5	
1964	5	20	15.6	15.6	15.3	14.9	14.4	13.7	
1964	5	21	18.4	18.5	16.9	15.4	14.5	14.4	
1964	5	22	17.3	16.8	16.0	15.2	14.6	13.9	
1964	5	23	18.4	17.8	16.5	15.5	14.5	14.0	
1964	5	24	19.4	19.1	17.5	16.0	15.2	14.2	
1964	5	25	18.2	18.2	19.2	16.7	15.9	14.6	
1964	5	26	16.2	15.9	15.8	16.0	15.7	15.0	
1964	5	27	20.2	19.3	17.6	16.2	15.4	14.9	
1964	5	28	18.4	18.1	17.2	16.3	15.6	14.9	
1964	5	29	15.6	15.6	15.7	15.6	15.5	14.9	
1964	5	30	20.5	19.7	17.8	16.2	15.4	14.8	
1964	5	31	22.0	21.1	19.1	17.2	16.0	15.1	
1964	6	1	20.4	20.2	20.3	17.5	16.7	15.5	
1964	6	2	20.0	19.5	17.8	17.3	17.0	16.3	
1964	6	3	21.3	20.6	19.3	17.9	17.1	15.9	
1964	6	4	22.8	21.8	20.0	18.3	17.4	16.1	
1964	6	5	23.1	22.5	21.1	19.2	18.1	16.8	
1964	6	6	24.9	24.1	22.0	19.8	18.2	16.8	
1964	6	7	24.3	23.5	22.0	20.3	19.2	17.2	
1964	6	8	18.8	19.0	19.4	19.2	18.7	17.4	
1964	6	9	18.1	19.6	18.6	18.0	17.7	17.0	
1964	6	10	20.8	19.1	18.0	17.4	17.2	16.5	
1964	6	11	23.3	22.6	21.9	18.4	17.5	16.3	
1964	6	12	23.4	22.5	20.8	19.1	18.6	16.6	
1964	6	13	25.0	23.9	21.6	19.7	18.7	17.0	
1964	6	14	20.1	20.3	20.4	19.4	18.8	17.3	
1964	6	15	19.5	20.1	19.9	18.9	18.3	17.2	
1964	6	16	17.6	17.7	17.9	17.9	17.5	17.0	
1964	6	17	20.4	20.1	19.3	18.4	17.6	16.7	
1964	6	18	20.6	20.3	19.8	18.8	18.1	17.1	
1964	6	19	22.5	22.3	20.8	19.2	18.2	17.1	
1964	6	20	24.1	23.1	21.2	19.6	18.7	17.3	
1964	6	21	23.4	22.4	21.4	19.9	19.1	17.6	
1964	6	22	22.3	22.6	21.7	20.2	19.7	18.1	
1964	6	23	23.8	23.1	21.8	20.5	19.7	18.4	
1964	6	24	24.2	23.5	22.0	20.6	19.8	18.5	
1964	6	25	18.0	18.6	19.2	19.2	19.1	18.6	
1964	6	26	22.8	22.5	21.0	19.6	18.9	18.2	
1964	6	27	24.7	23.6	21.8	20.3	19.7	18.4	
1964	6	28	24.1	23.2	21.8	20.8	19.9	18.7	
1964	6	29	24.6	23.8	22.3	21.0	20.0	18.9	
1964	6	30	21.3	21.4	21.1	20.7	20.0	19.3	
1964	7	1	20.4	19.9	19.3	19.1	19.2	18.7	
1964	7	2	21.7	21.3	20.4	19.6	19.4	18.4	
1964	7	3	22.0	21.0	19.8	19.2	19.3	18.4	
1964	7	4	23.5	23.0	21.5	19.9	19.6	18.4	
1964	7	5	21.1	21.1	20.7	19.5	19.6	18.7	
1964	7	6	23.6	23.0	21.8	20.3	19.9	18.7	
1964	7	7	23.3	22.8	21.8	20.6	20.7	18.8	
1964	7	8	23.7	23.3	21.8	20.5	20.1	18.6	
1964	7	9	23.9	23.3	22.0	20.9	20.3	19.0	
1964	7	10	16.2	16.4	17.7	18.9	18.6	18.8	
1964	7	11	19.7	19.3	18.3	17.8	18.0	17.9	
1964	7	12	18.3	18.4	18.2	17.7	17.8	17.6	
1964	7	13	22.4	21.5	20.0	18.6	18.5	17.2	
1964	7	14	21.7	21.6	21.0	19.6	19.2	19.0	
1964	7	15	21.1	20.9	20.6	20.2	19.4	18.2	
1964	7	16	23.3	22.6	21.2	19.8	19.4	18.2	
1964	7	17	24.1	23.0	21.5	20.6	19.9	18.6	
1964	7	18	24.2	23.5	22.1	21.0	20.3	18.9	
1964	7	19	26.0	25.3	23.5	21.6	20.8	19.1	
1964	7	20	26.0	25.5	23.7	22.1	20.6	19.4	
1964	7	21	26.3	25.2	23.7	22.1	21.4	19.7	
1964	7	22	23.7	24.0	23.1	22.5	21.3	19.6	
1964	7	23	21.0	21.0	21.2	21.2	20.1	19.6	
1964	7	24	21.9	21.9	21.6	20.9	20.4	19.3	
1964	7	25	21.3	20.9	20.3	20.0	20.0	19.3	
1964	7	26	22.6	22.4	21.2	20.2	20.0	19.0	
1964	7	27	23.0	22.9	22.1	20.7	20.1	19.0	
1964	7	28	23.2	22.5	21.6	20.6	20.2	19.0	
1964	7	29	22.9	22.0	21.2	20.6	20.0	19.2	
1964	7	30	22.7	22.2	21.6	20.7	20.2	19.3	
1964	7	31	24.9	24.4	22.6	21.3	20.8	19.4	
1964	8	1	22.2	22.0	21.3	20.7			
1964	8	2	20.1	20.3	20.2	19.7			
1964	8	3	20.2	20.7	20.3	19.5			
1964	8	4	22.1	21.7	20.7	19.7			
1964	8	5	23.8	23.4	21.6	20.6			
1964	8	6	23.6	23.2	22.1	20.9			
1964	8	7	24.5	23.6	22.1	20.9			
1964	8	8	24.0	23.3	22.3	21.1			
1964	8	9	18.2	18.6	19.2	19.6			
1964	8	10	19.8	20.3	19.4	19.0			
1964	8	11	20.5	20.1	19.5	19.0			
1964	8	12	20.9	20.7	19.7	18.9			
1964	8	13	22.1	21.8	20.5	19.5			
1964	8	14	20.7	20.1	20.1	19.6			
1964	8	15	19.3	19.2	19.0	18.7			
1964	8	16	21.1	21.2	20.5	19.4			
1964	8	17	23.0	22.4	21.1	19.9			
1964	8	18	20.7	20.9	20.5	19.7			
1964	8	19	22.0	22.2	21.0	20.0			
1964	8	20	19.5	19.4	19.5	19.3			
1964	8	21	21.6	20.2	20.3	19.8			
1964	8	22	18.8	18.9	18.9	19.4			
1964	8	23	20.1	20.1	19.6	18.8			
1964	8	24	19.3	19.2	19.2	18.1			
1964	8	25	18.2	18.0	18.0	17.4			
1964	8	26	19.9	19.6	18.7	17.8			
1964	8	27	20.5	20.3	19.3	18.3			
1964	8	28	21.1	20.6	19.5	18.8			
1964	8	29	21.3	20.9	19.7	19.0			
1964	8	30	18.8	18.9	19.0	18.9			
1964	8	31	18.0	17.7	17.5	17.8			
1964	9	1	15.9	16.3	17.0	17.0	17.1	17.5	
1964	9	2	15.2	15.4	15.6	16.1	16.5	17.0	
1964	9	3	17.6	17.6	16.9	16.5	16.4	16.6	
1964	9	4	19.8	18.7	17.8	17.3	17.1	16.8	
1964	9	5	19.2	18.7	17.7	17.6	17.2	17.0	
1964	9	6	17.9	17.6	17.6	17.2	17.3	17.0	
1964	9	7	18.7	18.8	18.2	17.2	17.2	17.0	
1964	9	8	18.7	18.6	17.8	17.3	17.1	17.1	
1964	9	9	20.0	19.3	18.5	17.8	17.4	17.2	
1964	9	10	19.5	19.2	18.6	17.8	17.6	17.1	
1964	9	11	20.1	19.7	18.7	18.1	17.7	17.1	
1964	9	12	20.3	19.9	19.3	18.4	18.1	17.2	
1964	9	13	18.4	18.2	18.4	18.1	17.9	17.4	
1964	9	14	18.2	18.5	18.3	17.9	17.6	17.3	
1964	9	15	19.6	19.5	19.0	18.1	17.6	17.2	
1964	9	16	19.2	19.0	18.7	18.1	17.8	17.2	
1964	9	17	18.5	17.9	18.2	18.0	17.8	17.3	
1964	9	18	16.6	16.7	16.9	17.0	16.7	17.1	
1964	9	19	18.6	18.5	17.5	16.8	16.6	16.7	
1964	9	20	16.8	16.8	16.6	17.0	16.4	16.6	
1964	9	21	15.1	15.4	15.8	16.0	16.2	16.4	
1964	9	22	11.6	12.6	13.6	14.6	14.8	15.8	
1964	9	23	12.0	12.7	12.9	13.8	14.1	15.2	
1964	9	24	14.3	14.8	15.0	14.9	14.7	15.0	
1964	9	25	14.1	14.5	14.8	14.7	14.7	15.1	
1964	9	26	14.5	14.7	14.7	14.6	14.5	15.0	
1964	9	27	14.9	15.0	14.9	14.6	14.6	14.8	
1964	9	28	15.2	15.2	15.1	14.8	14.8	14.9	
1964	9	29	15.4	15.6	15.7	15.3	15.0	14.9	
1964	9	30	15.0	15.1	14.5	14.2	14.7	14.9	
1964	10	1	15.5	15.4	15.1	14.9	14.6	14.6	
1964	10	2	16.5	16.4	15.9	15.3	15.0	14.9	
1964	10	3	16.6	16.4	15.9	15.6	15.3	15.1	
1964	10	4	12.1	12.7	13.6	14.3	14.6	14.9	
1964	10	5	11.4	11.8	12.7	13.2	13.3	14.4	
1964	10	6	11.7	12.1	12.8	12.9	13.2	14.1	
1964	10	7	11.2	12.0	12.1	12.7	12.8	13.7	
1964	10	8	12.0	12.0	12.2	12.5	12.7	13.4	
1964	10	9	11.3	11.6	12.3	12.7	12.7	13.3	
1964	10	10	12.6	13.0	12.7	12.5	12.4	13.0	
1964	10	11	10.6	11.1	11.9	12.6	12.6	13.1	
1964	10	12	11.8	12.0	12.1	12.4	12.1	13.0	
1964	10	13	13.3	12.7	12.7	12.4	12.4	13.0	
1964	10	14	9.1	9.5	11.3	11.6	11.8	12.8	
1964	10	15	9.5	9.6	10.0	10.7	11.0	12.3	
1964	10	16	10.8	11.0	11.2	11.2	11.2	12.7	
1964	10	17	10.7	11.0	11.4	11.4	11.5	12.1	
1964	10	18	9.5	9.9	10.2	10.8	11.0	12.0	
1964	10	19	8.4	8.5	8.9	9.8	10.3	11.7	
1964	10	20	9.1	9.7	10.0	10.2	10.4	11.5	
1964	10	21	8.0	7.9	8.7	9.5	10.0	11.2	
1964	10	22	7.9	8.1	8.5	9.4	9.8	11.1	
1964	10	23	8.5	8.6	9.2	9.3	9.7	10.9	
1964	10	24	9.8	9.8	9.8	9.8	9.9	10.8	
1964	10	25	8.4	8.6	8.6	9.7	9.9	10.8	
1964	10	26	7.6	7.8	8.4	8.7	9.4	10.6	
1964	10	27	8.6	8.7	8.8	9.2	9.4	10.4	
1964	10	28	9.7	9.6	9.6	9.7	9.7	10.4	
1964	10	29	10.3	10.5	10.4	10.3	10.1	10.7	
1964	10	30	10.1	10.2	10.3	10.4	10.3	10.8	
1964	10	31	10.1	10.1	10.2	10.2	10.2	10.9	
1964	11	1	8.4	8.8	9.5	10.1	10.2	10.9	
1964	11	2	6.9	7.1	7.7	8.6	9.1	10.6	
1964	11	3	7.3	8.1	8.3	8.8	9.2	10.3	
1964	11	4	7.7	7.8	8.2	8.7	8.9	10.2	
1964	11	5	8.0	8.1	8.3	8.1	8.9	10.1	
1964	11	6	8.8	8.7	8.7	9.0	9.2	10.1	
1964	11	7	7.7	7.9	8.6	9.1	9.0	10.0	
1964	11	8	5.0	5.4	6.5	7.5	8.2	9.8	
1964	11	9	5.2	5.3	6.0	6.8	7.4	9.4	
1964	11	10	5.4	5.6	6.3	6.9	7.3	8.9	
1964	11	11	6.8	6.8	7.2	7.5	7.6	8.9	
1964	11	12	7.5	7.5	7.6	7.8	8.2	8.9	
1964	11	13	6.5	7.0	7.2	7.7	7.9	9.0	
1964	11	14	5.9	6.1	6.6	7.1	7.6	8.7	
1964	11	15	6.6	6.7	6.9	7.1	7.4	8.6	
1964	11	16	6.1	6.2	6.8	7.1	7.8	8.7	
1964	11	17	5.6	5.7	6.1	6.8	7.3	8.6	
1964	11	18	5.7	5.8	5.8	6.4	7.0	8.4	
1964	11	19	3.8	4.2	5.4	5.7	6.5	8.1	
1964	11	20	5.4	5.5	5.7	6.0	6.4	7.8	
1964	11	21	5.7	5.7	6.1	6.3	6.4	7.7	
1964	11	22	3.5	3.8	4.6	5.4	6.0	7.5	
1964	11	23	4.3	4.7	5.4	5.7	6.0	7.5	
1964	11	24	4.8	4.8	4.3	4.9	5.5	7.1	
1964	11	25	5.6	5.4	5.1	5.3	5.8	7.1	
1964	11	26	3.4	3.8	4.4	5.0	5.5	7.0	
1964	11	27	4.8	4.7	4.8	4.9	5.3	6.8	
1964	11	28	5.6	5.6	5.8	5.4	5.9	6.9	
1964	11	29	7.5	7.4	6.9	6.7	6.6	7.1	
1964	11	30	5.6	5.9	6.5	6.8	6.9	7.5	
1965	4	1	7.3	8.2	8.7	8.4	7.9	7.5	
1965	4	2	8.1	8.7	8.5	8.0	7.6	7.4	
1965	4	3	9.2	9.6	9.3	8.5	7.5	7.5	
1965	4	4	10.5	10.4	9.8	8.9	8.3	7.7	
1965	4	5	10.5	10.8	10.4	9.4	8.7	7.9	
1965	4	6	12.1	11.7	10.8	9.7	9.0	8.2	
1965	4	7	11.5	11.5	11.0	10.0	9.3	8.5	
1965	4	8	8.9	9.0	9.0	9.0	9.1	8.7	
1965	4	9	10.0	9.7	9.6	9.3	8.9	8.6	
1965	4	10	12.5	11.2	10.7	9.6	9.0	8.4	
1965	4	11	13.5	13.3	12.3	10.7	9.7	8.8	
1965	4	12	12.4	12.0	11.6	10.9	10.1	9.3	
1965	4	13	10.7	10.9	11.0	10.6	9.9	9.3	
1965	4	14	8.7	9.0	9.4	9.7	9.5	9.4	
1965	4	15	8.3	8.5	8.8	9.0	8.9	9.0	
1965	4	16	11.2	10.8	10.3	9.4	8.9	8.7	
1965	4	17	11.6	11.2	10.9	10.1	9.6	9.0	
1965	4	18	9.7	10.0	10.3	10.1	9.6	9.3	
1965	4	19	10.0	9.9	9.7	9.4	9.0	9.0	
1965	4	20	7.4	7.7	8.3	8.9	8.8	9.0	
1965	4	21	6.4	6.6	6.8	7.3	7.7	8.5	
1965	4	22	6.2	5.3	5.7	6.3	7.1	7.9	
1965	4	23	8.7	8.8	8.8	7.8	7.3	7.8	
1965	4	24	10.7	10.6	10.1	9.0	8.3	8.0	
1965	4	25	10.8	11.0	10.6	9.5	8.9	8.5	
1965	4	26	11.2	11.3	11.0	10.0	9.4	8.9	
1965	4	27	6.4	6.8	7.8	8.7	8.8	9.0	
1965	4	28	7.1	7.5	8.0	8.0	7.9	8.4	
1965	4	29	9.2	9.2	9.3	8.6	8.2	8.4	
1965	4	30	10.1	10.4	10.2	9.2	8.5	8.4	
1965	5	1	12.4	11.8	11.1	10.0	9.2	8.8	
1965	5	2	13.0	12.6	11.4	10.6	9.8	9.3	
1965	5	3	13.7	13.5	12.5	11.2	10.3	9.3	
1965	5	4	15.2	14.7	13.7	12.2	11.2	10.0	
1965	5	5	11.3	11.1	11.7	11.7	11.2	10.4	
1965	5	6	13.7	13.4	12.9	11.9	11.0	10.3	
1965	5	7	13.9	13.4	12.6	11.9	11.2	10.5	
1965	5	8	13.4	13.4	12.9	12.3	11.4	10.7	
1965	5	9	14.5	14.6	13.9	12.7	11.9	10.9	
1965	5	10	15.7	15.1	14.6	13.5	12.5	11.2	
1965	5	11	13.9	13.6	13.5	13.0	12.4	11.4	
1965	5	12	13.7	13.7	13.2	12.7	12.1	11.4	
1965	5	13	12.1	12.3	12.5	12.2	11.7	11.2	
1965	5	14	15.4	14.5	13.4	12.3	11.6	11.2	
1965	5	15	16.9	16.1	15.0	13.6	12.5	11.4	
1965	5	16	18.2	17.3	16.4	14.8	13.5	11.9	
1965	5	17	18.1	17.6	16.9	16.7	14.2	12.5	
1965	5	18	18.7	18.4	17.2	17.1	14.5	12.9	
1965	5	19	18.9	18.0	17.2	16.0	15.0	13.4	
1965	5	20	13.8	14.7	14.8	14.5	14.1	13.3	
1965	5	21	11.9	12.1	12.5	13.1	12.9	12.9	
1965	5	22	10.1	10.5	11.0	11.7	11.7	12.3	
1965	5	23	14.2	14.0	12.9	12.0	11.8	11.6	
1965	5	24	14.8	14.5	13.9	12.9	12.3	11.7	
1965	5	25	17.6	16.7	15.7	14.0	13.2	12.1	
1965	5	26	17.1	17.2	16.3	14.8	13.9	12.5	
1965	5	27	12.7	13.1	13.6	13.9	13.6	12.9	
1965	5	28	13.7	13.4	13.4	13.2	13.1	12.5	
1965	5	29	13.5	13.5	13.4	13.2	12.7	12.4	
1965	5	30	16.8	16.2	15.4	14.2	13.7	12.5	
1965	5	31	13.2	13.4	13.6	13.7	13.3	12.8	
1965	6	1	15.0	14.4	13.8	13.3	12.9	12.4	
1965	6	2	16.4	15.7	14.9	14.0	13.4	12.5	
1965	6	3	15.2	14.9	14.6	14.0	13.5	12.7	
1965	6	4	15.5	15.1	14.6	14.1	13.6	12.8	
1965	6	5	17.1	16.4	15.6	14.3	13.6	12.9	
1965	6	6	16.6	16.4	15.9	14.9	14.2	13.1	
1965	6	7	18.3	17.9	16.8	15.7	14.8	13.4	
1965	6	8	15.5	15.9	15.8	15.3	14.8	13.9	
1965	6	9	15.9	15.9	15.2	14.7	14.4	13.8	
1965	6	10	14.9	14.6	14.4	14.1	13.9	13.6	
1965	6	11	16.8	16.5	15.7	14.7	14.1	13.5	
1965	6	12	19.0	18.6	17.4	14.9	14.5	13.7	
1965	6	13	19.3	19.0	17.7	16.1	15.4	14.2	
1965	6	14	19.5	18.9	17.8	16.6	15.9	14.6	
1965	6	15	20.6	19.8	18.4	16.8	16.2	14.8	
1965	6	16	21.6	21.1	19.8	17.7	16.8	15.1	
1965	6	17	14.6	15.3	16.3	16.7	16.5	15.6	
1965	6	18	20.6	19.9	18.4	16.7	15.8	15.2	
1965	6	19	21.3	20.2	19.0	18.4	17.0	15.3	
1965	6	20	22.5	21.8	20.7	18.7	17.5	15.9	
1965	6	21	23.6	22.8	21.6	20.0	18.1	16.3	
1965	6	22	23.8	23.5	22.2	19.9	19.0	16.9	
1965	6	23	24.1	23.6	22.2	20.3	19.2	17.2	
1965	6	24	24.9	24.2	22.5	20.5	19.4	17.5	
1965	6	25	25.6	24.6	23.2	21.2	19.9	17.8	
1965	6	26	26.7	25.9	24.4	22.1	20.6	18.1	
1965	6	27	26.3	25.7	24.3	22.3	21.1	18.6	
1965	6	28	21.0	22.7	22.3	21.3	20.9	19.0	
1965	6	29	22.2	21.9	21.3	20.3	19.3	18.5	
1965	6	30	21.6	21.6	21.3	21.0	19.7	18.4	
1965	7	1	24.1	23.6	22.5	21.1	20.1	18.4	
1965	7	2	24.4	24.1	23.0	21.5	20.5	18.7	
1965	7	3	21.5	21.6	21.7	20.9	20.2	18.9	
1965	7	4	18.6	19.2	19.7	19.7	19.2	18.4	
1965	7	5	15.3	15.7	16.5	17.7	17.7	17.9	
1965	7	6	19.0	18.9	18.2	17.7	17.1	17.1	
1965	7	7	19.5	18.9	18.5	17.7	17.4	17.0	
1965	7	8	19.6	19.2	18.9	18.4	18.0	17.1	
1965	7	9	18.1	18.4	18.5	17.8	17.5	17.1	
1965	7	10	17.0	17.7	18.4	18.0	17.6	17.0	
1965	7	11	20.1	19.7	18.7	17.6	17.3	16.9	
1965	7	12	20.8	20.3	19.4	18.2	17.7	16.9	
1965	7	13	22.7	22.4	21.1	19.3	18.4	17.1	
1965	7	14	23.1	22.8	22.4	20.3	19.3	17.4	
1965	7	15	23.1	22.8	22.0	20.4	19.4	17.7	
1965	7	16	24.0	23.6	22.6	21.0	19.8	18.1	
1965	7	17	20.6	21.0	20.4	20.4	19.6	18.2	
1965	7	18	22.0	21.9	20.7	19.8	19.0	17.9	
1965	7	19	22.3	21.9	21.2	20.0	19.2	18.0	
1965	7	20	23.0	22.4	21.8	20.3	19.4	18.1	
1965	7	21	20.1	20.4	20.4	19.8	19.2	18.2	
1965	7	22	22.5	21.9	21.2	19.8	19.0	17.9	
1965	7	23	23.2	21.6	22.0	20.5	19.5	18.1	
1965	7	24	22.5	22.2	21.5	20.3	19.7	18.4	
1965	7	25	23.2	23.0	22.3	20.8	19.6	18.5	
1965	7	26	21.0	20.8	21.4	20.9	20.1	18.9	
1965	7	27	20.8	21.0	20.7	19.9	19.5	18.7	
1965	7	28	21.1	21.2	20.8	19.9	19.4	18.6	
1965	7	29	20.8	20.9	20.7	19.8	19.3	18.5	
1965	7	30	21.4	20.8	20.1	19.4	19.1	18.5	
1965	7	31	21.5	21.5	21.2	19.8	19.2	18.5	
1965	8	1	16.3	17.0	17.7	18.4	18.5	18.4	
1965	8	2	18.1	18.2	18.0	17.5	17.4	17.7	
1965	8	3	21.1	20.0	19.3	18.2	17.7	17.5	
1965	8	4	20.5	20.4	19.9	18.6	18.2	17.5	
1965	8	5	21.7	22.0	20.9	19.5	18.6	17.8	
1965	8	6	23.4	23.2	22.0	20.2	19.3	18.0	
1965	8	7	23.6	23.5	22.3	20.7	19.7	18.3	
1965	8	8	23.4	23.5	22.4	20.9	19.9	18.5	
1965	8	9	23.8	23.6	22.5	20.9	20.1	18.6	
1965	8	10	20.7	20.8	21.0	20.5	19.5	18.9	
1965	8	11	18.4	18.8	19.1	18.7	18.8	18.6	
1965	8	12	19.1	19.1	18.9	18.6	18.2	18.2	
1965	8	13	19.6	19.4	19.0	18.3	17.9	17.9	
1965	8	14	19.1	18.9	18.8	18.3	17.9	17.8	
1965	8	15	20.0	20.4	20.0	18.9	18.2	17.7	
1965	8	16	19.4	19.1	18.7	18.1	17.8	17.7	
1965	8	17	19.8	19.7	19.2	18.5	17.9	17.5	
1965	8	18	20.8	20.2	19.8	18.8	18.3	17.6	
1965	8	19	20.8	20.6	20.1	19.1	18.4	17.6	
1965	8	20	19.5	19.6	19.0	18.6	18.2	17.6	
1965	8	21	20.5	20.7	19.9	19.0	18.2	17.6	
1965	8	22	21.2	20.9	20.3	19.2	18.4	17.7	
1965	8	23	19.0	18.8	18.8	18.5	18.2	17.8	
1965	8	24	17.7	17.8	17.8	18.1	17.4	17.5	
1965	8	25	16.1	16.3	16.6	16.9	16.8	17.2	
1965	8	26	17.3	17.2	17.2	16.8	16.5	16.7	
1965	8	27	17.1	17.2	17.1	16.6	16.5	16.5	
1965	8	28	16.8	17.0	17.5	17.1	16.7	16.6	
1965	8	29	17.3	17.2	17.0	16.5	16.4	16.5	
1965	8	30	16.6	17.0	17.0	16.2	16.2	16.3	
1965	8	31	18.4	17.1	16.7	16.5	16.2	16.3	
1965	9	1	16.3	16.5	16.9	16.6	16.3	16.3	
1965	9	2	16.0	16.0	16.1	16.2	16.0	16.2	
1965	9	3	15.9	16.0	16.2	16.5	16.0	16.0	
1965	9	4	16.5	16.9	16.8	16.2	15.8	16.0	
1965	9	5	17.1	17.6	17.5	16.7	16.1	16.0	
1965	9	6	16.7	16.5	16.5	16.4	16.4	16.1	
1965	9	7	16.4	16.7	16.8	16.4	16.0	16.0	
1965	9	8	17.1	16.7	16.5	16.3	15.8	15.9	
1965	9	9	18.4	18.1	17.6	16.7	16.4	15.9	
1965	9	10	18.7	18.6	18.4	17.8	16.8	16.1	
1965	9	11	17.9	18.0	18.2	17.6	16.9	16.4	
1965	9	12	16.4	16.3	16.2	16.3	16.2	16.2	
1965	9	13	16.5	16.8	16.8	16.3	16.1	16.0	
1965	9	14	15.6	16.3	16.7	16.4	16.0	16.0	
1965	9	15	17.0	16.8	17.1	16.5	15.9	15.8	
1965	9	16	17.5	17.7	17.4	16.6	16.1	15.7	
1965	9	17	17.3	17.2	17.1	16.3	16.1	15.8	
1965	9	18	17.6	17.5	17.2	16.2	15.9	15.7	
1965	9	19	12.3	13.1	13.9	15.0	15.1	15.6	
1965	9	20	12.2	12.3	12.9	13.9	13.9	15.0	
1965	9	21	13.7	14.0	14.1	14.0	13.9	14.5	
1965	9	22	15.2	14.8	14.6	14.2	13.9	14.4	
1965	9	23	16.3	16.2	15.8	15.3	14.6	14.5	
1965	9	24	16.5	16.0	15.6	15.1	14.7	14.7	
1965	9	25	16.3	16.3	16.1	15.5	15.0	14.8	
1965	9	26	14.5	14.1	14.2	14.5	14.5	14.8	
1965	9	27	14.2	14.5	14.6	14.6	14.3	14.6	
1965	9	28	15.1	15.1	15.0	14.9	14.6	14.6	
1965	9	29	14.7	15.1	15.2	14.8	14.4	14.6	
1965	9	30	15.2	15.1	15.1	14.8	14.4	14.6	
1965	10	1	15.6	15.0	15.0	14.6	14.3	14.5	
1965	10	2	16.1	15.4	15.3	14.8	14.5	14.5	
1965	10	3	15.4	15.0	14.9	14.6	14.3	14.4	
1965	10	4	16.1	15.6	15.5	14.9	14.5	14.4	
1965	10	5	15.6	15.5	15.3	14.8	14.3	14.4	
1965	10	6	13.7	13.8	13.9	14.2	14.1	14.3	
1965	10	7	14.5	14.3	14.3	14.0	13.7	14.1	
1965	10	8	14.2	14.1	14.2	14.0	13.8	14.1	
1965	10	9	12.9	12.7	13.0	13.2	13.2	13.9	
1965	10	10	10.6	11.4	12.3	12.9	12.9	13.6	
1965	10	11	9.5	9.6	10.3	11.2	11.7	13.2	
1965	10	12	9.7	9.6	10.1	10.9	11.1	12.6	
1965	10	13	8.9	8.9	9.5	10.3	10.7	12.3	
1965	10	14	8.3	8.5	9.2	9.4	10.1	11.8	
1965	10	15	9.3	9.0	9.2	9.6	9.9	11.4	
1965	10	16	9.3	8.9	9.0	9.3	9.7	11.2	
1965	10	17	8.7	8.9	9.4	9.9	10.0	11.2	
1965	10	18	8.5	8.3	8.7	9.2	9.4	10.9	
1965	10	19	9.1	8.9	8.8	9.1	9.3	10.7	
1965	10	20	9.2	9.3	9.6	10.1	9.6	10.8	
1965	10	21	7.8	8.4	9.0	9.5	9.6	10.7	
1965	10	22	7.0	7.0	7.3	8.3	8.8	10.6	
1965	10	23	5.3	5.9	6.9	8.0	8.4	10.2	
1965	10	24	4.5	4.8	5.7	6.5	7.6	9.8	
1965	10	25	4.6	4.5	5.1	6.3	7.1	9.2	
1965	10	26	4.5	4.6	5.0	6.0	6.8	8.9	
1965	10	27	4.6	4.8	5.3	5.9	6.9	8.6	
1965	10	28	5.0	5.1	5.5	6.2	6.8	8.4	
1965	10	29	5.9	6.0	6.2	6.9	6.8	8.4	
1965	10	30	7.9	8.0	8.0	7.8	7.5	8.6	
1965	10	31	8.0	8.0	8.1	8.0	7.9	8.8	
1965	11	1	9.4	9.1	9.0	8.7	8.4	9.0	
1965	11	2	10.4	10.3	10.2	9.7	9.1	9.3	
1965	11	3	9.2	9.3	9.5	9.5	9.3	9.6	
1965	11	4	8.2	8.3	8.5	8.9	8.9	9.7	
1965	11	5	7.0	7.2	7.7	8.3	8.4	9.3	
1965	11	6	6.2	6.5	7.4	8.0	8.1	9.4	
1965	11	7	5.9	6.3	6.5	7.3	7.6	9.1	
1965	11	8	6.1	6.2	6.6	7.0	7.3	8.9	
1965	11	9	6.5	6.5	6.8	7.3	7.4	8.6	
1965	11	10	5.9	6.0	6.4	6.9	7.1	8.6	
1965	11	11	6.7	6.7	6.9	7.2	7.2	8.5	
1965	11	12	4.6	5.0	6.1	6.9	7.1	8.5	
1965	11	13	3.8	4.1	4.8	5.8	6.4	8.2	
1965	11	14	2.4	2.6	3.6	4.7	5.7	7.8	
1965	11	15	3.1	3.2	3.9	4.6	5.4	7.4	
1965	11	16	2.2	2.4	3.4	4.4	5.2	7.2	
1965	11	17	1.7	2.0	2.8	4.0	4.8	7.0	
1965	11	18	2.7	2.7	3.3	4.0	4.6	6.7	
1965	11	19	3.4	3.4	4.1	4.4	4.8	6.4	
1965	11	20	5.0	5.1	5.1	5.0	5.3	6.5	
1965	11	21	7.0	6.7	6.6	6.3	6.1	6.7	
1965	11	22	3.9	4.3	4.9	5.9	6.1	6.9	
1965	11	23	1.9	2.2	3.1	4.3	5.2	6.8	
1965	11	24	0.3	0.6	1.7	3.1	3.7	6.1	
1965	11	25	-0.4	0.0	1.1	2.4	2.8	5.8	
1965	11	26	0.1	0.3	1.1	2.3	2.6	5.6	
1965	11	27	2.2	1.9	1.9	2.4	2.9	5.3	
1965	11	28	2.5	2.4	3.1	3.4	3.8	5.4	
1965	11	29	2.1	2.1	2.8	3.1	3.7	5.3	
1965	11	30	4.9	5.0	4.9	4.3	4.3	5.2	
