leto	mesec	dan	Padavine	Evapotranspiracija
1961	1	1	0	0.8
1961	1	2	28.5	0.5
1961	1	3	0.8	0.6
1961	1	4	14.5	1.1
1961	1	5	13.1	0.5
1961	1	6	0.2	0.4
1961	1	7	3.6	0.8
1961	1	8	4.2	0.6
1961	1	9	0	0.7
1961	1	10	0	0.9
1961	1	11	0.2	1
1961	1	12	12.6	1.6
1961	1	13	0.1	2.4
1961	1	14	0	1.8
1961	1	15	0	2.4
1961	1	16	0	2.5
1961	1	17	0	2.9
1961	1	18	0	2.7
1961	1	19	0	1.3
1961	1	20	0	0.9
1961	1	21	0	1
1961	1	22	0	0.6
1961	1	23	0	0.4
1961	1	24	3	0.4
1961	1	25	3.1	0.6
1961	1	26	0.1	2.2
1961	1	27	0	2.2
1961	1	28	0	1.6
1961	1	29	0	0.6
1961	1	30	0	0.6
1961	1	31	0	0.5
1961	2	1	9.8	0.6
1961	2	2	7.8	1.8
1961	2	3	6	0.9
1961	2	4	0	1.6
1961	2	5	0	2.2
1961	2	6	0	1.5
1961	2	7	0	0.9
1961	2	8	6.7	0.8
1961	2	9	0	2
1961	2	10	0	1
1961	2	11	0	1.1
1961	2	12	0	1.5
1961	2	13	0	2.2
1961	2	14	0	1.8
1961	2	15	0	1.3
1961	2	16	0	0.9
1961	2	17	0	3.8
1961	2	18	0	1.5
1961	2	19	0	1
1961	2	20	0	2.9
1961	2	21	0	1.9
1961	2	22	0	2.2
1961	2	23	0	1.7
1961	2	24	0	1.2
1961	2	25	0	1.7
1961	2	26	0	1.4
1961	2	27	0	1.2
1961	2	28	0	1
1961	3	1	5.4	1.9
1961	3	2	2.2	3.3
1961	3	3	0	3.1
1961	3	4	0	3
1961	3	5	0	3.4
1961	3	6	0	2.8
1961	3	7	0	3.2
1961	3	8	0	3.4
1961	3	9	0	2.8
1961	3	10	0	1.8
1961	3	11	0	1.6
1961	3	12	0	2.8
1961	3	13	0	2
1961	3	14	0	1.8
1961	3	15	0	2.5
1961	3	16	0	2.9
1961	3	17	0	2.5
1961	3	18	0	3.6
1961	3	19	0	2.6
1961	3	20	21.2	2.4
1961	3	21	0	1.7
1961	3	22	0	4.1
1961	3	23	0	2.5
1961	3	24	0	2.5
1961	3	25	0	2.8
1961	3	26	0	2.6
1961	3	27	0	2.6
1961	3	28	0	4
1961	3	29	0	3.1
1961	3	30	0	3
1961	3	31	0	2.8
1961	4	1	0	2
1961	4	2	0	1.3
1961	4	3	6.1	1.6
1961	4	4	0	2.2
1961	4	5	0	2.7
1961	4	6	0	3
1961	4	7	0	3.5
1961	4	8	0	3
1961	4	9	0	3.9
1961	4	10	0	4.9
1961	4	11	0	4.2
1961	4	12	0	3.5
1961	4	13	0	4.2
1961	4	14	0	4
1961	4	15	0	2.2
1961	4	16	27	3.5
1961	4	17	12.5	2.4
1961	4	18	16.3	2.4
1961	4	19	3.2	2.3
1961	4	20	2.6	3.3
1961	4	21	0	4.1
1961	4	22	0	1.9
1961	4	23	13.5	2
1961	4	24	4.7	3.1
1961	4	25	0	4.1
1961	4	26	0	2
1961	4	27	26.7	2.8
1961	4	28	0	3.5
1961	4	29	6	1.9
1961	4	30	6.3	2.8
1961	5	1	0.1	3.2
1961	5	2	0.1	4.1
1961	5	3	0	3.9
1961	5	4	0	4.1
1961	5	5	0	3.7
1961	5	6	0	3.7
1961	5	7	6	4.6
1961	5	8	0	3.4
1961	5	9	0	4.8
1961	5	10	2	4.6
1961	5	11	0	3.9
1961	5	12	0	4.3
1961	5	13	1.4	3.9
1961	5	14	0	3.7
1961	5	15	0	2.8
1961	5	16	35.8	3.7
1961	5	17	0	5.6
1961	5	18	0	4.7
1961	5	19	0	4
1961	5	20	0	4.2
1961	5	21	0	2.1
1961	5	22	6.4	3
1961	5	23	0.2	2.8
1961	5	24	5.6	3.5
1961	5	25	0.8	4.6
1961	5	26	0	2.9
1961	5	27	3	3.9
1961	5	28	14.2	3.9
1961	5	29	17.9	3.6
1961	5	30	5.1	5
1961	5	31	0	3.4
1961	6	1	0	3.5
1961	6	2	0	4.4
1961	6	3	0	2.3
1961	6	4	1.2	3.4
1961	6	5	0.3	3.5
1961	6	6	0	3
1961	6	7	3.4	2.2
1961	6	8	27.8	2.8
1961	6	9	4.6	4
1961	6	10	0	2.3
1961	6	11	22.2	4.1
1961	6	12	0	3.7
1961	6	13	0	4.8
1961	6	14	0.1	3.4
1961	6	15	0.8	5.4
1961	6	16	0	5.7
1961	6	17	0	5.1
1961	6	18	0	6.1
1961	6	19	0	5.5
1961	6	20	0	4.7
1961	6	21	0	5.3
1961	6	22	8.1	5.1
1961	6	23	0	5.3
1961	6	24	0	5.7
1961	6	25	0	5.3
1961	6	26	0	5.4
1961	6	27	0	6
1961	6	28	0	5.6
1961	6	29	7.1	6.6
1961	6	30	0	5.9
1961	7	1	0	5.4
1961	7	2	0	6.4
1961	7	3	0	5.9
1961	7	4	0	6.1
1961	7	5	19.8	4.7
1961	7	6	4.6	4.8
1961	7	7	0	5.5
1961	7	8	0	5.4
1961	7	9	0	5.3
1961	7	10	0	5.2
1961	7	11	0	4.2
1961	7	12	71.2	4.4
1961	7	13	0	5.8
1961	7	14	3.3	5.6
1961	7	15	0	5.8
1961	7	16	0	6.4
1961	7	17	0	5.2
1961	7	18	0	6.1
1961	7	19	0	4.5
1961	7	20	8.3	4.4
1961	7	21	9.7	5
1961	7	22	0	4.5
1961	7	23	25.8	2.4
1961	7	24	3	5.3
1961	7	25	0	5.5
1961	7	26	0	5.2
1961	7	27	0	5
1961	7	28	0	4.8
1961	7	29	2.6	3
1961	7	30	56.2	3.9
1961	7	31	0.5	4.7
1961	8	1	0	4.7
1961	8	2	0	4
1961	8	3	0	5.7
1961	8	4	0	6
1961	8	5	0	6.2
1961	8	6	0	4.9
1961	8	7	0	5
1961	8	8	0	4.8
1961	8	9	0	5
1961	8	10	0	5.1
1961	8	11	0	4.8
1961	8	12	0	4.4
1961	8	13	0.6	7.1
1961	8	14	0	5.1
1961	8	15	0	4.7
1961	8	16	0.9	4
1961	8	17	1.1	3.3
1961	8	18	0	4.8
1961	8	19	0	5.9
1961	8	20	0.9	4.2
1961	8	21	0	4.9
1961	8	22	0	4.3
1961	8	23	14.4	4.5
1961	8	24	0	4.7
1961	8	25	0	3.9
1961	8	26	0	4.5
1961	8	27	0	4.5
1961	8	28	0	5.1
1961	8	29	0	5.4
1961	8	30	0	4.6
1961	8	31	0	7.1
1961	9	1	0	6.5
1961	9	2	0	4.6
1961	9	3	0	4.6
1961	9	4	0	4
1961	9	5	0	3.7
1961	9	6	8.1	3.3
1961	9	7	3.4	4.6
1961	9	8	0	3.5
1961	9	9	11.3	4.5
1961	9	10	0	4
1961	9	11	0	3.2
1961	9	12	0	3.1
1961	9	13	0	3.2
1961	9	14	0	3.3
1961	9	15	0	3.1
1961	9	16	0	3.8
1961	9	17	0	3.6
1961	9	18	0	4.2
1961	9	19	0	3.2
1961	9	20	0	3.5
1961	9	21	0	3.9
1961	9	22	0	6.1
1961	9	23	0	5.5
1961	9	24	0	3.6
1961	9	25	0	2.9
1961	9	26	0	2.6
1961	9	27	0	3
1961	9	28	0	3
1961	9	29	0	2.5
1961	9	30	0	2.9
1961	10	1	0	2.3
1961	10	2	0	3
1961	10	3	0	3.9
1961	10	4	0	4.2
1961	10	5	0	3.7
1961	10	6	0	2.6
1961	10	7	10.1	2.5
1961	10	8	27.1	1.5
1961	10	9	1.4	4.4
1961	10	10	0	3.3
1961	10	11	0	3.3
1961	10	12	0	3.5
1961	10	13	0	2.2
1961	10	14	0	2.7
1961	10	15	0	2.1
1961	10	16	0	1
1961	10	17	0	1.3
1961	10	18	29.2	1.5
1961	10	19	42.7	1.7
1961	10	20	4	1.4
1961	10	21	0	2.3
1961	10	22	0	1.8
1961	10	23	0	1.6
1961	10	24	0	1.7
1961	10	25	0	1.3
1961	10	26	0	1
1961	10	27	0	1.3
1961	10	28	0	2
1961	10	29	9.7	0.8
1961	10	30	3.9	0.8
1961	10	31	20.7	1.3
1961	11	1	0	1.6
1961	11	2	0	1.6
1961	11	3	0	0.9
1961	11	4	4.8	1.4
1961	11	5	41.1	3.6
1961	11	6	0	2.8
1961	11	7	0	1.5
1961	11	8	1.8	1.3
1961	11	9	0	1.2
1961	11	10	6.5	2.6
1961	11	11	0	2
1961	11	12	1.9	1.8
1961	11	13	13.3	1.6
1961	11	14	5.9	1
1961	11	15	10.4	1.2
1961	11	16	0	0.6
1961	11	17	0	1.2
1961	11	18	0	0.8
1961	11	19	0	1.5
1961	11	20	0	3
1961	11	21	0	1.5
1961	11	22	0	0.7
1961	11	23	0	0.4
1961	11	24	0.2	0.4
1961	11	25	2.4	0.5
1961	11	26	0.4	0.5
1961	11	27	13.6	0.7
1961	11	28	26.6	0.5
1961	11	29	0	0.4
1961	11	30	16.7	0.7
1961	12	1	0	0.5
1961	12	2	0	0.4
1961	12	3	0.6	0.4
1961	12	4	4.7	0.4
1961	12	5	0	0.4
1961	12	6	0.1	2.1
1961	12	7	32.5	2.2
1961	12	8	0	2.5
1961	12	9	0	2.5
1961	12	10	0	0.9
1961	12	11	0	1.1
1961	12	12	0	0.6
1961	12	13	0	0.4
1961	12	14	0	2
1961	12	15	0	2.5
1961	12	16	0	2.4
1961	12	17	0	1.6
1961	12	18	0	2.2
1961	12	19	0	2.7
1961	12	20	0	1.8
1961	12	21	0	0.7
1961	12	22	0	1
1961	12	23	0	0.9
1961	12	24	1.9	1.8
1961	12	25	0	1.2
1961	12	26	0	0.5
1961	12	27	12.7	0.3
1961	12	28	10.4	0.3
1961	12	29	11	0.3
1961	12	30	0	0.6
1961	12	31	0	1.2
1962	1	1	12.6	1.2
1962	1	2	5.1	1.9
1962	1	3	0.1	2.6
1962	1	4	6.4	1.7
1962	1	5	0	1.6
1962	1	6	0	0.6
1962	1	7	0	2.3
1962	1	8	0	1.5
1962	1	9	0	0.5
1962	1	10	0.3	0.4
1962	1	11	11.9	0.3
1962	1	12	13.2	2
1962	1	13	6.6	1.1
1962	1	14	5.5	1.3
1962	1	15	0	2.4
1962	1	16	0	0.4
1962	1	17	0	0.7
1962	1	18	0	0.3
1962	1	19	0	0.5
1962	1	20	0	0.4
1962	1	21	0	0.3
1962	1	22	0	0.4
1962	1	23	25.5	2.1
1962	1	24	0	0.6
1962	1	25	0	1
1962	1	26	0	0.5
1962	1	27	0	0.8
1962	1	28	0	1.6
1962	1	29	0	2.9
1962	1	30	0	2.4
1962	1	31	0	2.6
1962	2	1	0	2.2
1962	2	2	0	2
1962	2	3	0	1
1962	2	4	0	1
1962	2	5	0	1.1
1962	2	6	0	1.6
1962	2	7	0	1.6
1962	2	8	0	0.7
1962	2	9	4.7	2.1
1962	2	10	0	3.1
1962	2	11	0	2
1962	2	12	0	2
1962	2	13	0	0.7
1962	2	14	17.7	2.5
1962	2	15	0	2.4
1962	2	16	0	2.2
1962	2	17	0	1.8
1962	2	18	0	2.4
1962	2	19	0	1.6
1962	2	20	0	1.3
1962	2	21	0	1.3
1962	2	22	0	3
1962	2	23	0	2.5
1962	2	24	0	2.4
1962	2	25	0	1.6
1962	2	26	0	1
1962	2	27	7	0.8
1962	2	28	0	1
1962	3	1	1.6	2
1962	3	2	0	1.5
1962	3	3	2.7	0.8
1962	3	4	2.6	1.3
1962	3	5	22	1.5
1962	3	6	19	1.6
1962	3	7	7	3.1
1962	3	8	0	3.6
1962	3	9	0	1.9
1962	3	10	0.6	0.7
1962	3	11	20.3	0.7
1962	3	12	13.9	0.9
1962	3	13	0	2.1
1962	3	14	0	2.6
1962	3	15	0	2
1962	3	16	0	2.4
1962	3	17	0	2.5
1962	3	18	0	2.1
1962	3	19	0	3.1
1962	3	20	0	2.3
1962	3	21	0	2.1
1962	3	22	0	2.3
1962	3	23	0	1.4
1962	3	24	2.6	3
1962	3	25	0	3.1
1962	3	26	0	2.4
1962	3	27	0	1.9
1962	3	28	2.2	2.3
1962	3	29	0	2.7
1962	3	30	0	1.7
1962	3	31	3.3	2.2
1962	4	1	1.8	2.9
1962	4	2	0	2.4
1962	4	3	7.8	2.5
1962	4	4	0.2	1.8
1962	4	5	26.5	1.1
1962	4	6	18.5	2.6
1962	4	7	0	3.8
1962	4	8	0	4.5
1962	4	9	0	3.5
1962	4	10	30.9	2.7
1962	4	11	0	2.3
1962	4	12	1	1.6
1962	4	13	0	3
1962	4	14	13.6	1.8
1962	4	15	4.6	1.9
1962	4	16	16.5	2.9
1962	4	17	0	1.8
1962	4	18	0	2.4
1962	4	19	0	3.1
1962	4	20	0	3.5
1962	4	21	0	3.6
1962	4	22	0	6.1
1962	4	23	0	4
1962	4	24	0	6
1962	4	25	0	5.5
1962	4	26	0	5.3
1962	4	27	0	5
1962	4	28	6.5	3.1
1962	4	29	0	6.3
1962	4	30	0	4.4
1962	5	1	0	3.9
1962	5	2	0	3.5
1962	5	3	0	2.7
1962	5	4	0	1.8
1962	5	5	21	3.7
1962	5	6	0	4.3
1962	5	7	0	3.8
1962	5	8	0	4.5
1962	5	9	0	3.2
1962	5	10	0	5.8
1962	5	11	1.2	4.9
1962	5	12	2.2	3.5
1962	5	13	14	2.8
1962	5	14	12.7	3.6
1962	5	15	21.3	3.5
1962	5	16	0.3	4
1962	5	17	0	5.2
1962	5	18	0	3.1
1962	5	19	0	2.1
1962	5	20	10.2	1.9
1962	5	21	26.7	4.1
1962	5	22	0	4.5
1962	5	23	0	5
1962	5	24	0	5.1
1962	5	25	2.4	3
1962	5	26	4.9	4
1962	5	27	0.9	2.7
1962	5	28	0	4.1
1962	5	29	0	3.7
1962	5	30	0	4.5
1962	5	31	0	4.8
1962	6	1	0	2.9
1962	6	2	4.6	2.5
1962	6	3	28.9	6.1
1962	6	4	0	5.6
1962	6	5	0	6.1
1962	6	6	0	5.2
1962	6	7	0	3.9
1962	6	8	0	3.3
1962	6	9	0	3.1
1962	6	10	0	4.7
1962	6	11	0	4.2
1962	6	12	6.4	2.2
1962	6	13	4.4	4.5
1962	6	14	0	3.6
1962	6	15	0	4.6
1962	6	16	0.2	4.3
1962	6	17	0	4
1962	6	18	0	5.3
1962	6	19	0	4.6
1962	6	20	0	5.7
1962	6	21	0	6.4
1962	6	22	0	6.4
1962	6	23	0	6.6
1962	6	24	0	5.6
1962	6	25	0	6.5
1962	6	26	0.5	3.7
1962	6	27	0.1	4
1962	6	28	2.6	5.9
1962	6	29	0	5.6
1962	6	30	0	6.3
1962	7	1	0	5.3
1962	7	2	0	5.1
1962	7	3	0	5.4
1962	7	4	0.5	2.7
1962	7	5	34.3	3
1962	7	6	1.2	3.8
1962	7	7	0.6	5.6
1962	7	8	0	5.5
1962	7	9	0	5.3
1962	7	10	0	5.1
1962	7	11	0	5.5
1962	7	12	0	4.8
1962	7	13	0	4.3
1962	7	14	0	5.8
1962	7	15	0	4.3
1962	7	16	17.3	4.8
1962	7	17	25.2	3.2
1962	7	18	4.3	5.2
1962	7	19	0.3	4.6
1962	7	20	0	4.9
1962	7	21	0	5.5
1962	7	22	0	4
1962	7	23	0	5.9
1962	7	24	0	7.2
1962	7	25	0	6.4
1962	7	26	0	5.4
1962	7	27	0	8
1962	7	28	0	6.1
1962	7	29	6.6	5.9
1962	7	30	0	6.5
1962	7	31	0	6.5
1962	8	1	0	5.4
1962	8	2	0	5.7
1962	8	3	0	5.9
1962	8	4	0	5.3
1962	8	5	0	5.6
1962	8	6	0	6
1962	8	7	0	6.6
1962	8	8	0	6.3
1962	8	9	0	7.6
1962	8	10	0	7.2
1962	8	11	0	6.1
1962	8	12	0	5.8
1962	8	13	0	5.6
1962	8	14	0	6.1
1962	8	15	0	5.1
1962	8	16	0	5.5
1962	8	17	0	5.8
1962	8	18	0	5.5
1962	8	19	0	7.2
1962	8	20	0	6
1962	8	21	0	6
1962	8	22	0.4	4.9
1962	8	23	0	6
1962	8	24	0	4.7
1962	8	25	0	5.2
1962	8	26	0	7
1962	8	27	0	4.6
1962	8	28	0	4.9
1962	8	29	0	5.6
1962	8	30	0	7.3
1962	8	31	0	5
1962	9	1	0	8.4
1962	9	2	0	5.6
1962	9	3	0	4.8
1962	9	4	0	3.9
1962	9	5	0	4.1
1962	9	6	1.8	4.9
1962	9	7	0	5.7
1962	9	8	0	4
1962	9	9	16.6	6
1962	9	10	0	4.1
1962	9	11	0	3.5
1962	9	12	0	3.5
1962	9	13	0	4.3
1962	9	14	3.2	6.3
1962	9	15	0	4.6
1962	9	16	0	3.6
1962	9	17	14.6	2
1962	9	18	15	3.6
1962	9	19	0.8	4.1
1962	9	20	0	3.6
1962	9	21	0	4.9
1962	9	22	0	3.4
1962	9	23	0	2.7
1962	9	24	0	5
1962	9	25	0	4.3
1962	9	26	0	3.6
1962	9	27	0	1.8
1962	9	28	1.3	2.6
1962	9	29	0	2.3
1962	9	30	0	2.6
1962	10	1	0	3.1
1962	10	2	0	3
1962	10	3	0	3.9
1962	10	4	0	3.8
1962	10	5	0	3.8
1962	10	6	0	2.4
1962	10	7	0	4.1
1962	10	8	0	5
1962	10	9	0	5.4
1962	10	10	0	3.5
1962	10	11	0	3.2
1962	10	12	0	2.7
1962	10	13	0	1.3
1962	10	14	23.9	1.6
1962	10	15	0	2.7
1962	10	16	0	4.1
1962	10	17	0	3.7
1962	10	18	0	3.6
1962	10	19	0	2.4
1962	10	20	0	4.7
1962	10	21	0	4.3
1962	10	22	0	4
1962	10	23	0	2.1
1962	10	24	0	1.7
1962	10	25	0	1.3
1962	10	26	0	1.1
1962	10	27	0	1.1
1962	10	28	0	0.9
1962	10	29	18.1	2
1962	10	30	5	3.4
1962	10	31	2.4	1.1
1962	11	1	11.5	2.4
1962	11	2	2.6	2.1
1962	11	3	0	1.5
1962	11	4	0	1.1
1962	11	5	0	1.9
1962	11	6	3.9	1.4
1962	11	7	2.6	1
1962	11	8	0	1.5
1962	11	9	34.9	1.1
1962	11	10	17	0.9
1962	11	11	8.3	1
1962	11	12	4	1
1962	11	13	1.6	1
1962	11	14	0	0.9
1962	11	15	13.2	0.7
1962	11	16	41.9	2.5
1962	11	17	0	1
1962	11	18	8.4	0.6
1962	11	19	9.9	0.5
1962	11	20	8.6	1.5
1962	11	21	0	0.9
1962	11	22	1.9	0.4
1962	11	23	47.7	2.4
1962	11	24	0	1.1
1962	11	25	0.1	0.7
1962	11	26	0	1.1
1962	11	27	1.7	1
1962	11	28	0	1.5
1962	11	29	0	2
1962	11	30	0	0.5
1962	12	1	0	2.5
1962	12	2	0	2.3
1962	12	3	0	2.4
1962	12	4	0	2.5
1962	12	5	0	2.4
1962	12	6	0	3
1962	12	7	0	2
1962	12	8	0	2.3
1962	12	9	0	0.8
1962	12	10	0	0.8
1962	12	11	0	0.7
1962	12	12	0	1.3
1962	12	13	19.5	0.5
1962	12	14	16.2	1
1962	12	15	0.5	0.8
1962	12	16	0	0.6
1962	12	17	0	1.2
1962	12	18	0	0.2
1962	12	19	0	0.4
1962	12	20	0	2.4
1962	12	21	0	2
1962	12	22	0	2.2
1962	12	23	0	2.6
1962	12	24	0	1.7
1962	12	25	0	1.5
1962	12	26	0	1.5
1962	12	27	0	1.2
1962	12	28	0	0.4
1962	12	29	0	0.3
1962	12	30	10.9	0.3
1962	12	31	12.4	0.4
1963	1	1	2	0.5
1963	1	2	6.8	0.3
1963	1	3	1.8	0.6
1963	1	4	20.6	1.4
1963	1	5	0	0.6
1963	1	6	44.2	0.8
1963	1	7	3.9	0.5
1963	1	8	6.9	0.7
1963	1	9	0	0.6
1963	1	10	0	0.5
1963	1	11	15.5	0.8
1963	1	12	9.5	0.8
1963	1	13	0.5	1.4
1963	1	14	0	1.1
1963	1	15	0	1.1
1963	1	16	0	0.7
1963	1	17	0	1.7
1963	1	18	0	1.3
1963	1	19	0	1
1963	1	20	0.1	1.8
1963	1	21	0	2.2
1963	1	22	0	1.5
1963	1	23	0	1.7
1963	1	24	0	1.6
1963	1	25	0	1
1963	1	26	0	0.3
1963	1	27	0	2.6
1963	1	28	0	1.5
1963	1	29	0	1.7
1963	1	30	0	1.5
1963	1	31	0	0.9
1963	2	1	0	1.7
1963	2	2	0	1.5
1963	2	3	5.9	0.4
1963	2	4	13.9	0.6
1963	2	5	0	1.2
1963	2	6	0	0.7
1963	2	7	0	0.6
1963	2	8	0	0.7
1963	2	9	0	0.5
1963	2	10	0	0.4
1963	2	11	0	1.1
1963	2	12	16	0.6
1963	2	13	4.2	0.6
1963	2	14	3.4	1.7
1963	2	15	0	0.9
1963	2	16	0	0.8
1963	2	17	9.7	0.7
1963	2	18	0.2	0.7
1963	2	19	2.1	1.6
1963	2	20	35.5	0.8
1963	2	21	0.5	2.4
1963	2	22	0	2.8
1963	2	23	0	2.4
1963	2	24	0	2.1
1963	2	25	0	2.1
1963	2	26	0	3.7
1963	2	27	0	2.9
1963	2	28	0	2.9
1963	3	1	0	2.9
1963	3	2	0	3.3
1963	3	3	0	1.9
1963	3	4	0	1.9
1963	3	5	0	1.8
1963	3	6	0	1.9
1963	3	7	0	1.1
1963	3	8	0	0.8
1963	3	9	0	1.1
1963	3	10	0.4	1
1963	3	11	32.9	0.9
1963	3	12	9.4	1.8
1963	3	13	2.4	1.6
1963	3	14	0	2.7
1963	3	15	0	1.7
1963	3	16	0	2.4
1963	3	17	0	1.3
1963	3	18	0	1.1
1963	3	19	2.7	1
1963	3	20	0.2	1
1963	3	21	11.1	1.2
1963	3	22	11.8	1.3
1963	3	23	3.3	4.2
1963	3	24	0	3.8
1963	3	25	0	2.7
1963	3	26	0	2
1963	3	27	0	1.3
1963	3	28	1.6	2.3
1963	3	29	0	3.2
1963	3	30	0	1.8
1963	3	31	7.7	1.1
1963	4	1	10.8	3.6
1963	4	2	0	3.1
1963	4	3	0	4
1963	4	4	0	2.5
1963	4	5	0	1.9
1963	4	6	0	3.5
1963	4	7	20.8	2.2
1963	4	8	0.3	2.6
1963	4	9	0	2.3
1963	4	10	0	2.2
1963	4	11	0	4
1963	4	12	6.4	1.9
1963	4	13	0	2.4
1963	4	14	0	3
1963	4	15	1.3	3.6
1963	4	16	0	3.3
1963	4	17	0	3.2
1963	4	18	0	2.3
1963	4	19	0.5	2.3
1963	4	20	2.1	2.7
1963	4	21	2.5	3.6
1963	4	22	0	3.7
1963	4	23	0	3.7
1963	4	24	15.8	2.2
1963	4	25	10.4	4.1
1963	4	26	0.2	4.3
1963	4	27	0	4.6
1963	4	28	0	3.7
1963	4	29	0	4.9
1963	4	30	0	4.2
1963	5	1	0	3.2
1963	5	2	0	3.3
1963	5	3	0	3.4
1963	5	4	15.1	1.6
1963	5	5	17.9	3.5
1963	5	6	0	3.7
1963	5	7	0	4.5
1963	5	8	0	5.1
1963	5	9	0	4.5
1963	5	10	0	4.6
1963	5	11	0	4.3
1963	5	12	0	4.9
1963	5	13	0	3.8
1963	5	14	0	4.7
1963	5	15	0.6	3.6
1963	5	16	0.2	4
1963	5	17	0	6.3
1963	5	18	0	4.8
1963	5	19	0	3.9
1963	5	20	14.9	2.4
1963	5	21	7.3	4.9
1963	5	22	0	4.7
1963	5	23	0	4.7
1963	5	24	0	4.1
1963	5	25	0	3.3
1963	5	26	0	5.9
1963	5	27	0	4.7
1963	5	28	0.1	3.8
1963	5	29	14	5.2
1963	5	30	0	6.1
1963	5	31	9.3	2.3
1963	6	1	11.8	3.6
1963	6	2	0	3.5
1963	6	3	0	3.8
1963	6	4	0	2.9
1963	6	5	5.8	3
1963	6	6	48.4	2.9
1963	6	7	23.9	4
1963	6	8	1.4	4.8
1963	6	9	0	5
1963	6	10	9.9	3.9
1963	6	11	7.2	3.5
1963	6	12	0.9	3.6
1963	6	13	0	4.9
1963	6	14	0	3.2
1963	6	15	36.9	3.8
1963	6	16	4.9	4.4
1963	6	17	0	5.9
1963	6	18	0	5
1963	6	19	0	2.9
1963	6	20	0	3.3
1963	6	21	0	4.6
1963	6	22	0	5.2
1963	6	23	0	5.9
1963	6	24	0	5.2
1963	6	25	0	6.1
1963	6	26	13.9	5.2
1963	6	27	0	5.7
1963	6	28	0	5.9
1963	6	29	0	5.6
1963	6	30	0	6
1963	7	1	0	5.9
1963	7	2	0	5.8
1963	7	3	0.6	7
1963	7	4	0	5.4
1963	7	5	0	6
1963	7	6	0	5.8
1963	7	7	0	5.7
1963	7	8	0	3.4
1963	7	9	26.9	5.6
1963	7	10	0	3.6
1963	7	11	16.2	4.3
1963	7	12	60.2	4
1963	7	13	0	5.2
1963	7	14	7.8	2.2
1963	7	15	67.4	5.7
1963	7	16	0	5.3
1963	7	17	0	5.2
1963	7	18	0	5.2
1963	7	19	0	4.3
1963	7	20	4.6	5.9
1963	7	21	0	5
1963	7	22	0	5.7
1963	7	23	0	4.9
1963	7	24	0	5.5
1963	7	25	10.5	6.4
1963	7	26	0	5.5
1963	7	27	0	5.9
1963	7	28	0	4.6
1963	7	29	0	5.8
1963	7	30	0	5.2
1963	7	31	0	5.2
1963	8	1	0	5.5
1963	8	2	0	4.9
1963	8	3	0	5.1
1963	8	4	0	5.3
1963	8	5	0	4.1
1963	8	6	8.9	5.4
1963	8	7	0	4.2
1963	8	8	26.7	4.3
1963	8	9	12.3	2.5
1963	8	10	7	4.7
1963	8	11	0	5.1
1963	8	12	0	5
1963	8	13	14.8	3.9
1963	8	14	43.3	3.9
1963	8	15	21.6	4.4
1963	8	16	12.2	3.7
1963	8	17	0	3
1963	8	18	37.5	4.7
1963	8	19	0	4.3
1963	8	20	0	4.8
1963	8	21	0	4.1
1963	8	22	8.2	4
1963	8	23	0	4.8
1963	8	24	0	4.1
1963	8	25	0	3.3
1963	8	26	0	4.1
1963	8	27	0	3.7
1963	8	28	0	4.6
1963	8	29	8.1	2
1963	8	30	20.3	2.2
1963	8	31	0	3.6
1963	9	1	0	3.4
1963	9	2	0	3.1
1963	9	3	0	3.4
1963	9	4	45.5	2.1
1963	9	5	9.1	4.3
1963	9	6	3.9	3.7
1963	9	7	3.9	2.7
1963	9	8	4.9	2.6
1963	9	9	12.4	2.4
1963	9	10	20.3	2.2
1963	9	11	0	3
1963	9	12	0	2.4
1963	9	13	0	3
1963	9	14	0	3.9
1963	9	15	0	4
1963	9	16	0	3.3
1963	9	17	0	2.8
1963	9	18	0	1.8
1963	9	19	0.1	1.9
1963	9	20	0	1.7
1963	9	21	3.5	2.6
1963	9	22	0	3
1963	9	23	0	3.3
1963	9	24	0	2.7
1963	9	25	5.8	1.3
1963	9	26	25.5	3.1
1963	9	27	0	2.6
1963	9	28	0	2.4
1963	9	29	0	3.1
1963	9	30	0	2.6
1963	10	1	0	1.6
1963	10	2	0	2.2
1963	10	3	0	1.3
1963	10	4	4.8	1.6
1963	10	5	34	1.4
1963	10	6	8.3	1.4
1963	10	7	0	1.8
1963	10	8	15.5	2.2
1963	10	9	0.1	3.6
1963	10	10	0	4.3
1963	10	11	0	3.1
1963	10	12	0	2
1963	10	13	0	1.9
1963	10	14	0	1.3
1963	10	15	0	3.2
1963	10	16	0	2
1963	10	17	0	1.8
1963	10	18	0	1.4
1963	10	19	0	2.5
1963	10	20	0	1.7
1963	10	21	0	1.3
1963	10	22	0	1.1
1963	10	23	0	1.2
1963	10	24	0	3.3
1963	10	25	0	2.4
1963	10	26	0	2.3
1963	10	27	0	2.5
1963	10	28	0	3
1963	10	29	0	2.6
1963	10	30	0	1.9
1963	10	31	0	1.2
1963	11	1	0.3	1.2
1963	11	2	34.7	0.9
1963	11	3	0.2	2.4
1963	11	4	0	2.3
1963	11	5	0	1
1963	11	6	0.6	1.7
1963	11	7	27.2	2.4
1963	11	8	0.5	1.4
1963	11	9	0	0.7
1963	11	10	0	0.5
1963	11	11	4	1.6
1963	11	12	0	0.7
1963	11	13	3.4	0.9
1963	11	14	0	0.5
1963	11	15	0	0.4
1963	11	16	26.8	2
1963	11	17	1	1.7
1963	11	18	0	1
1963	11	19	0	0.5
1963	11	20	0	0.5
1963	11	21	0.7	1.9
1963	11	22	0	1.8
1963	11	23	0	0.6
1963	11	24	0	0.9
1963	11	25	0	0.5
1963	11	26	6.3	1.2
1963	11	27	20.5	1.4
1963	11	28	4.2	1.5
1963	11	29	0.5	1.6
1963	11	30	0	1.4
1963	12	1	0	1.5
1963	12	2	0	1.1
1963	12	3	1.1	0.3
1963	12	4	1	0.7
1963	12	5	4	1.1
1963	12	6	0.8	2.3
1963	12	7	0	1.5
1963	12	8	0	1.9
1963	12	9	0	0.2
1963	12	10	0	0.4
1963	12	11	0	0.7
1963	12	12	0	1
1963	12	13	0	2.6
1963	12	14	0	1.2
1963	12	15	1.1	0.6
1963	12	16	0	0.7
1963	12	17	2.7	1.2
1963	12	18	0	0.8
1963	12	19	0	0.3
1963	12	20	1.9	0.3
1963	12	21	7.5	1.9
1963	12	22	0	2.6
1963	12	23	0	1.8
1963	12	24	0	1.6
1963	12	25	13.5	0.3
1963	12	26	10.1	0.3
1963	12	27	0.1	0.5
1963	12	28	0	0.2
1963	12	29	0	0.3
1963	12	30	0	0.2
1963	12	31	0	0.3
1964	1	1	0	0.3
1964	1	2	0	1.6
1964	1	3	0	2
1964	1	4	0	2.3
1964	1	5	0	1.2
1964	1	6	0	3.2
1964	1	7	0	3.1
1964	1	8	0	1.5
1964	1	9	0	1
1964	1	10	0	0.5
1964	1	11	0	0.8
1964	1	12	0	0.7
1964	1	13	0	0.3
1964	1	14	0.2	0.3
1964	1	15	0.2	0.9
1964	1	16	0	2.5
1964	1	17	0	1.6
1964	1	18	0	0.3
1964	1	19	0	0.6
1964	1	20	0	0.3
1964	1	21	0	0.5
1964	1	22	0	0.4
1964	1	23	0	0.6
1964	1	24	0	0.3
1964	1	25	0	0.3
1964	1	26	0	0.3
1964	1	27	0	0.5
1964	1	28	0	0.4
1964	1	29	0	2.5
1964	1	30	0	2.2
1964	1	31	0	2.5
1964	2	1	0	0.6
1964	2	2	0	0.9
1964	2	3	0	0.6
1964	2	4	0	0.6
1964	2	5	0	0.5
1964	2	6	0	1.6
1964	2	7	0	2.1
1964	2	8	0	0.7
1964	2	9	0	0.8
1964	2	10	0	1
1964	2	11	0	1
1964	2	12	0	0.7
1964	2	13	0	0.5
1964	2	14	0	1.4
1964	2	15	0.3	0.8
1964	2	16	0.6	0.7
1964	2	17	0	0.8
1964	2	18	6.8	0.6
1964	2	19	2.7	0.7
1964	2	20	0.1	3.8
1964	2	21	0	2.9
1964	2	22	0	2.7
1964	2	23	0	1.7
1964	2	24	0	0.6
1964	2	25	2.3	0.6
1964	2	26	4.3	0.9
1964	2	27	3.3	0.6
1964	2	28	2.7	0.8
1964	2	29	0.8	0.7
1964	3	1	3.9	3.7
1964	3	2	0	2
1964	3	3	0	1.6
1964	3	4	0	1.5
1964	3	5	0	2.7
1964	3	6	0.6	1.1
1964	3	7	0	2.5
1964	3	8	0	2.4
1964	3	9	0	2
1964	3	10	0	1.4
1964	3	11	0.1	1
1964	3	12	0	0.9
1964	3	13	0.5	1.5
1964	3	14	9.4	1.1
1964	3	15	1.5	0.8
1964	3	16	26	3.6
1964	3	17	0	2.3
1964	3	18	0	0.9
1964	3	19	4	1.5
1964	3	20	0.3	0.9
1964	3	21	20.7	1.1
1964	3	22	11.2	1.4
1964	3	23	0.4	2.3
1964	3	24	1	2.2
1964	3	25	0	1.9
1964	3	26	0	1.3
1964	3	27	17	1.1
1964	3	28	20.3	1.9
1964	3	29	7.5	2.4
1964	3	30	0.9	1.3
1964	3	31	0.3	1.6
1964	4	1	7.7	1.9
1964	4	2	0	2.3
1964	4	3	0	1.7
1964	4	4	1.8	1.7
1964	4	5	5.5	1.2
1964	4	6	2.3	2.5
1964	4	7	0	2.9
1964	4	8	12.2	3.2
1964	4	9	0.4	2.8
1964	4	10	0	2.8
1964	4	11	0	2.1
1964	4	12	0	3.5
1964	4	13	0	3.4
1964	4	14	0	3.1
1964	4	15	0.5	3.8
1964	4	16	0	3.9
1964	4	17	0	2.8
1964	4	18	0	2.6
1964	4	19	0	4.3
1964	4	20	0	2.9
1964	4	21	4.5	1.4
1964	4	22	8	3.1
1964	4	23	0	3.4
1964	4	24	0.2	1.7
1964	4	25	12.6	2.7
1964	4	26	0	5.1
1964	4	27	0	5.1
1964	4	28	0	4
1964	4	29	0	3.2
1964	4	30	1	3
1964	5	1	24.6	3.4
1964	5	2	0	3.4
1964	5	3	0	2.8
1964	5	4	0	3.4
1964	5	5	0	3
1964	5	6	4.8	3.7
1964	5	7	0	3.5
1964	5	8	0	3.8
1964	5	9	0	2.7
1964	5	10	5.3	4.8
1964	5	11	0	4.9
1964	5	12	0	4.2
1964	5	13	0	4.7
1964	5	14	0	4.1
1964	5	15	3	5.6
1964	5	16	0	5.9
1964	5	17	0	4.9
1964	5	18	0	4.4
1964	5	19	0	2.6
1964	5	20	0	2.4
1964	5	21	4.1	4.9
1964	5	22	0	4.4
1964	5	23	0	5
1964	5	24	0	4.8
1964	5	25	0	3.9
1964	5	26	6.5	2.4
1964	5	27	22.1	4.3
1964	5	28	0	2.1
1964	5	29	15.9	3
1964	5	30	4.3	3.3
1964	5	31	0.8	5
1964	6	1	0	4.7
1964	6	2	0	4.7
1964	6	3	12.3	5.6
1964	6	4	0	5.4
1964	6	5	0	5.3
1964	6	6	0	5.4
1964	6	7	0	5.6
1964	6	8	0	4.1
1964	6	9	13.3	6.4
1964	6	10	0	6.6
1964	6	11	0	5.8
1964	6	12	0	6.4
1964	6	13	0	6.3
1964	6	14	0	6.1
1964	6	15	0	4.6
1964	6	16	0	6.1
1964	6	17	0	5.5
1964	6	18	0	3.7
1964	6	19	8.8	4.7
1964	6	20	5	4.4
1964	6	21	10.2	4.9
1964	6	22	3.4	4.8
1964	6	23	0	4.9
1964	6	24	0	6.3
1964	6	25	0	5.4
1964	6	26	0	5.1
1964	6	27	0.5	4.2
1964	6	28	0	5.1
1964	6	29	0	5.8
1964	6	30	1.2	8.2
1964	7	1	0	4.6
1964	7	2	0	5.9
1964	7	3	0	4.9
1964	7	4	0	5.2
1964	7	5	27	2.5
1964	7	6	6.7	4.8
1964	7	7	0	5.8
1964	7	8	0	5.4
1964	7	9	0	5.3
1964	7	10	0	2.2
1964	7	11	30.2	5.5
1964	7	12	0	6.6
1964	7	13	0	5.2
1964	7	14	0	5.2
1964	7	15	0.4	6.7
1964	7	16	0	5.8
1964	7	17	0	4.9
1964	7	18	0	5.6
1964	7	19	0	5.6
1964	7	20	0	6.5
1964	7	21	0	5.6
1964	7	22	0	5.4
1964	7	23	1.6	4.3
1964	7	24	0.8	7.6
1964	7	25	0	6.7
1964	7	26	0	6.2
1964	7	27	0	5.9
1964	7	28	0	4
1964	7	29	0	3.3
1964	7	30	0	5.8
1964	7	31	0	5.9
1964	8	1	0	4.1
1964	8	2	0	4.1
1964	8	3	0.8	7.8
1964	8	4	0	5.2
1964	8	5	0	5.1
1964	8	6	0	5.1
1964	8	7	0	5.7
1964	8	8	0	5.9
1964	8	9	6	2.4
1964	8	10	45.5	4.7
1964	8	11	0	4.3
1964	8	12	0	5.4
1964	8	13	5.2	3.9
1964	8	14	0	4.1
1964	8	15	0.5	1.9
1964	8	16	4.2	4.2
1964	8	17	0	4.5
1964	8	18	0	4.8
1964	8	19	0.3	4.8
1964	8	20	0	3.3
1964	8	21	0	4.1
1964	8	22	0	2.4
1964	8	23	55.1	4.7
1964	8	24	0	6.6
1964	8	25	0	5.1
1964	8	26	0	4.6
1964	8	27	0	4.8
1964	8	28	0	4.7
1964	8	29	0	3.9
1964	8	30	0	4.9
1964	8	31	1.9	5.4
1964	9	1	0	6.1
1964	9	2	0	4.9
1964	9	3	0	4.6
1964	9	4	0	3.5
1964	9	5	0	3.1
1964	9	6	4.6	1.9
1964	9	7	37.2	3.2
1964	9	8	0.1	3.2
1964	9	9	0	3.3
1964	9	10	0	2.7
1964	9	11	0	2.9
1964	9	12	0	2.8
1964	9	13	0	3
1964	9	14	0	3
1964	9	15	0	2.7
1964	9	16	0	2.3
1964	9	17	0	3.3
1964	9	18	2.9	4
1964	9	19	5	3.2
1964	9	20	0	2.1
1964	9	21	31.7	3.5
1964	9	22	4.8	3.2
1964	9	23	0	3.6
1964	9	24	0	3
1964	9	25	0	3.2
1964	9	26	0	2.8
1964	9	27	0	2
1964	9	28	1	1.3
1964	9	29	0	2.4
1964	9	30	0	1.9
1964	10	1	0	2.4
1964	10	2	0	1.5
1964	10	3	0.1	2.2
1964	10	4	0.1	3.8
1964	10	5	0	3
1964	10	6	0	3.5
1964	10	7	0	2.6
1964	10	8	0	2.1
1964	10	9	37.3	1.8
1964	10	10	3.1	3.2
1964	10	11	0	2.1
1964	10	12	4	1.4
1964	10	13	13.4	1.6
1964	10	14	13	1.2
1964	10	15	18.3	1.4
1964	10	16	15.6	1.7
1964	10	17	0.2	1.5
1964	10	18	0	2.5
1964	10	19	0	3
1964	10	20	0	3
1964	10	21	0	1.2
1964	10	22	0.4	0.7
1964	10	23	3.4	0.8
1964	10	24	34.2	0.9
1964	10	25	114.2	1.6
1964	10	26	22.7	3.5
1964	10	27	0.5	2.5
1964	10	28	0	2.4
1964	10	29	0.4	2.2
1964	10	30	0	1.9
1964	10	31	0	2.3
1964	11	1	0	2.8
1964	11	2	0	2.5
1964	11	3	0	2.2
1964	11	4	0	1.4
1964	11	5	0	1.1
1964	11	6	0	2.1
1964	11	7	0	2.3
1964	11	8	0	2.5
1964	11	9	11.7	1.9
1964	11	10	0.4	0.9
1964	11	11	6.6	0.5
1964	11	12	1.4	1.9
1964	11	13	0	1
1964	11	14	0	0.9
1964	11	15	0	0.6
1964	11	16	2	1
1964	11	17	0	0.8
1964	11	18	0	0.6
1964	11	19	0	0.9
1964	11	20	0	0.7
1964	11	21	0	0.9
1964	11	22	0	0.6
1964	11	23	0	0.3
1964	11	24	0	0.8
1964	11	25	0	0.3
1964	11	26	0	0.5
1964	11	27	0.7	0.4
1964	11	28	0.2	0.4
1964	11	29	6.1	2.8
1964	11	30	22.4	0.9
1964	12	1	3.3	0.7
1964	12	2	9	1.1
1964	12	3	0.2	0.6
1964	12	4	0.9	0.9
1964	12	5	0	0.6
1964	12	6	0	1
1964	12	7	0	0.8
1964	12	8	0	0.6
1964	12	9	0	0.1
1964	12	10	0	0.1
1964	12	11	0	0.2
1964	12	12	0	0.4
1964	12	13	0	0.3
1964	12	14	0	0.6
1964	12	15	0	0.4
1964	12	16	27.8	0.8
1964	12	17	32.4	0.4
1964	12	18	7.9	0.3
1964	12	19	9.6	1.2
1964	12	20	8.7	1.5
1964	12	21	11.6	1.1
1964	12	22	0	1.3
1964	12	23	0	1.5
1964	12	24	0	0.4
1964	12	25	0	0.5
1964	12	26	5.4	1
1964	12	27	7.3	1.5
1964	12	28	2.7	1
1964	12	29	21.4	0.4
1964	12	30	2.7	1.1
1964	12	31	0.1	0.4
1965	1	1	0	0.4
1965	1	2	2	0.4
1965	1	3	37.2	1.8
1965	1	4	0.1	2.1
1965	1	5	0	1.6
1965	1	6	0	0.2
1965	1	7	0	0.7
1965	1	8	0	0.6
1965	1	9	0	0.4
1965	1	10	4.2	0.4
1965	1	11	0	0.1
1965	1	12	0	0.7
1965	1	13	0	0.4
1965	1	14	4.2	0.3
1965	1	15	29.1	1.3
1965	1	16	21.3	1
1965	1	17	3	0.4
1965	1	18	5.9	0.7
1965	1	19	0.6	0.6
1965	1	20	7	1.4
1965	1	21	0	1.1
1965	1	22	0	2
1965	1	23	0	1.9
1965	1	24	0	2
1965	1	25	0	1.7
1965	1	26	0	0.8
1965	1	27	4.4	0.4
1965	1	28	1.8	1.3
1965	1	29	5.5	0.7
1965	1	30	4.3	0.4
1965	1	31	0.5	0.4
1965	2	1	1.2	0.4
1965	2	2	1.3	2.4
1965	2	3	0	0.7
1965	2	4	0	1.3
1965	2	5	0	0.8
1965	2	6	0	1.7
1965	2	7	0	0.7
1965	2	8	0	1.3
1965	2	9	0	2.6
1965	2	10	0	2.1
1965	2	11	0	2.4
1965	2	12	0	2.5
1965	2	13	0	1.2
1965	2	14	0	0.7
1965	2	15	0	2.8
1965	2	16	0	2
1965	2	17	0	1.6
1965	2	18	0	0.9
1965	2	19	0	1.7
1965	2	20	0	2.2
1965	2	21	0	1.3
1965	2	22	0	1.3
1965	2	23	0	1
1965	2	24	0	0.7
1965	2	25	0	2
1965	2	26	0	1
1965	2	27	2.5	1.5
1965	2	28	0	1.4
1965	3	1	2.9	1.1
1965	3	2	30.2	1.3
1965	3	3	16.2	2.5
1965	3	4	0.4	1.3
1965	3	5	4.4	1.6
1965	3	6	8.1	1.2
1965	3	7	0	2.5
1965	3	8	0	2.8
1965	3	9	0	2.5
1965	3	10	0	2.5
1965	3	11	0	1.5
1965	3	12	0	1.4
1965	3	13	0	1
1965	3	14	0	1
1965	3	15	0	1.1
1965	3	16	0	1
1965	3	17	4.6	0.9
1965	3	18	1.2	1.3
1965	3	19	0.1	1.5
1965	3	20	0	3.2
1965	3	21	0	1.6
1965	3	22	0	1.5
1965	3	23	2.1	1.8
1965	3	24	9.1	2.2
1965	3	25	2.6	2.3
1965	3	26	6.5	1.5
1965	3	27	0	3
1965	3	28	0	3.6
1965	3	29	0	2.7
1965	3	30	0	2.7
1965	3	31	0.5	5.3
1965	4	1	0	3.2
1965	4	2	0	2.9
1965	4	3	0	2.5
1965	4	4	0	2
1965	4	5	0	2.5
1965	4	6	0	1.8
1965	4	7	0	2.2
1965	4	8	0	1.4
1965	4	9	1.1	2.2
1965	4	10	1.8	2.6
1965	4	11	0	1.7
1965	4	12	0	3.2
1965	4	13	0.4	3.3
1965	4	14	0.4	3.2
1965	4	15	0	3.3
1965	4	16	0	2.1
1965	4	17	0	3.4
1965	4	18	0	1.9
1965	4	19	3.9	2.7
1965	4	20	5.1	1.3
1965	4	21	14.9	1.7
1965	4	22	9.8	1.5
1965	4	23	0	1.8
1965	4	24	0	2.7
1965	4	25	0	2.4
1965	4	26	9.8	2.9
1965	4	27	0	1.7
1965	4	28	22.8	2.1
1965	4	29	7.2	2.5
1965	4	30	0.2	3.4
1965	5	1	0	3.3
1965	5	2	0	2.9
1965	5	3	0	3.4
1965	5	4	0	3.3
1965	5	5	15.4	1.9
1965	5	6	1.6	3.5
1965	5	7	2.5	4.4
1965	5	8	0	3.7
1965	5	9	0	3
1965	5	10	0	4.6
1965	5	11	2.5	4.4
1965	5	12	0	6
1965	5	13	0	5.6
1965	5	14	0	4.6
1965	5	15	0	4.1
1965	5	16	0	4.1
1965	5	17	0	3.9
1965	5	18	0	4.4
1965	5	19	0.8	5.6
1965	5	20	0.1	3.6
1965	5	21	0.1	3.9
1965	5	22	0	3.8
1965	5	23	7.8	1.8
1965	5	24	3.7	2.8
1965	5	25	0	4.2
1965	5	26	0	4.2
1965	5	27	0	2.8
1965	5	28	2.6	2.2
1965	5	29	50.1	2.9
1965	5	30	5.7	3.9
1965	5	31	6.8	2.2
1965	6	1	18.8	4.7
1965	6	2	0	4
1965	6	3	0	1.9
1965	6	4	13.1	2.2
1965	6	5	3.3	2.3
1965	6	6	23.5	2.8
1965	6	7	0.9	4.4
1965	6	8	0.1	3.2
1965	6	9	12.3	2.3
1965	6	10	5.2	2.3
1965	6	11	3.4	3.1
1965	6	12	0	4.5
1965	6	13	0	4.1
1965	6	14	0	4.3
1965	6	15	2.4	4.8
1965	6	16	0	4.8
1965	6	17	0	4.1
1965	6	18	5.6	5.1
1965	6	19	0	5.4
1965	6	20	0	4.6
1965	6	21	0	5.5
1965	6	22	0	5.2
1965	6	23	0	6.2
1965	6	24	0	5.8
1965	6	25	0	5.9
1965	6	26	0	5.8
1965	6	27	0	6
1965	6	28	0	7.2
1965	6	29	0	5.9
1965	6	30	0	6.3
1965	7	1	0	5.4
1965	7	2	4.9	5.5
1965	7	3	0	4
1965	7	4	2.7	4.5
1965	7	5	61.4	3.4
1965	7	6	9.8	5.3
1965	7	7	0	5
1965	7	8	0	5
1965	7	9	28	5.2
1965	7	10	0.1	5.8
1965	7	11	0	5.3
1965	7	12	0	4.9
1965	7	13	0	5.3
1965	7	14	0	5.2
1965	7	15	0	5.3
1965	7	16	0.2	4.8
1965	7	17	0	4.7
1965	7	18	23.3	5
1965	7	19	0	5.1
1965	7	20	0	4.9
1965	7	21	0.9	3.8
1965	7	22	0	4.4
1965	7	23	17.8	4.9
1965	7	24	0	4.9
1965	7	25	0	5.2
1965	7	26	0	5.9
1965	7	27	3.7	5.7
1965	7	28	0	4.8
1965	7	29	0	4.4
1965	7	30	0	4.5
1965	7	31	0	4.4
1965	8	1	0	5.4
1965	8	2	13.8	4.6
1965	8	3	0	4.6
1965	8	4	0	4.9
1965	8	5	0	4.9
1965	8	6	0	4.9
1965	8	7	0	5
1965	8	8	0	5
1965	8	9	0	4.8
1965	8	10	0.3	4.9
1965	8	11	0.9	7.4
1965	8	12	0	4.9
1965	8	13	0	4.2
1965	8	14	0	2.2
1965	8	15	4.3	4.6
1965	8	16	0	4.2
1965	8	17	0	3.8
1965	8	18	0	3.1
1965	8	19	4.4	5.4
1965	8	20	0	5.3
1965	8	21	0	5.2
1965	8	22	0	4.8
1965	8	23	0	3.4
1965	8	24	31.3	3
1965	8	25	12.2	2.5
1965	8	26	10.3	2.6
1965	8	27	4.8	3.5
1965	8	28	6.6	2.9
1965	8	29	8	3.8
1965	8	30	0	2.7
1965	8	31	1.1	2.5
1965	9	1	39.7	2.5
1965	9	2	12.3	3
1965	9	3	60.4	1.5
1965	9	4	6.8	3.4
1965	9	5	16.1	2.6
1965	9	6	39.4	2.4
1965	9	7	4.3	3.3
1965	9	8	0	3.3
1965	9	9	0	3.2
1965	9	10	0	4.5
1965	9	11	2	3.6
1965	9	12	0	4.2
1965	9	13	39.8	2.9
1965	9	14	0	3.2
1965	9	15	0	2.9
1965	9	16	0	3.5
1965	9	17	0	3.4
1965	9	18	0	3.1
1965	9	19	0	1.6
1965	9	20	22.9	1.5
1965	9	21	0	4.9
1965	9	22	0	4.3
1965	9	23	0	2.5
1965	9	24	0	1.8
1965	9	25	5.8	2.2
1965	9	26	2	1.8
1965	9	27	35.2	1.6
1965	9	28	36.4	3
1965	9	29	6.9	3
1965	9	30	0	2.5
1965	10	1	0	2.2
1965	10	2	0	2.1
1965	10	3	0	1.9
1965	10	4	0	1.6
1965	10	5	0	1.4
1965	10	6	0	2.3
1965	10	7	0	2.6
1965	10	8	0	1.7
1965	10	9	0	1.7
1965	10	10	0	4.5
1965	10	11	0	3.3
1965	10	12	0	3
1965	10	13	0	2.2
1965	10	14	0	1.2
1965	10	15	0	1.5
1965	10	16	0	0.8
1965	10	17	0	2.7
1965	10	18	0	1.6
1965	10	19	0	2.7
1965	10	20	0	3.1
1965	10	21	0	3.3
1965	10	22	0	2.9
1965	10	23	0	1.9
1965	10	24	0	0.9
1965	10	25	0	1.3
1965	10	26	0	1.2
1965	10	27	0	1.4
1965	10	28	0	1
1965	10	29	0	0.6
1965	10	30	0	0.8
1965	10	31	0	0.7
1965	11	1	0.1	0.6
1965	11	2	0.1	0.6
1965	11	3	0	0.8
1965	11	4	0	0.8
1965	11	5	19.3	0.9
1965	11	6	6.4	3.1
1965	11	7	0	1
1965	11	8	0	0.5
1965	11	9	0	0.5
1965	11	10	0.3	0.7
1965	11	11	16.4	0.6
1965	11	12	0	0.8
1965	11	13	19	1.2
1965	11	14	7.2	0.8
1965	11	15	4.6	1
1965	11	16	0	2
1965	11	17	0	0.5
1965	11	18	30.3	0.4
1965	11	19	0.2	0.6
1965	11	20	10.9	0.9
1965	11	21	4.1	1.6
1965	11	22	3.8	1.6
1965	11	23	3.7	2
1965	11	24	0.1	2.1
1965	11	25	0	0.7
1965	11	26	0.3	0.3
1965	11	27	14.6	0.7
1965	11	28	13.6	1.1
1965	11	29	0.1	1.9
1965	11	30	0.1	2.2
1965	12	1	0	0.9
1965	12	2	0	0.8
1965	12	3	0.1	0.4
1965	12	4	4.6	0.2
1965	12	5	0	0.5
1965	12	6	0.1	0.5
1965	12	7	0.4	0.5
1965	12	8	5	1.2
1965	12	9	41.8	0.7
1965	12	10	6.1	0.3
1965	12	11	25.2	1.6
1965	12	12	0	0.6
1965	12	13	0	0.7
1965	12	14	0	0.1
1965	12	15	0	0.6
1965	12	16	0	0.4
1965	12	17	0.5	0.3
1965	12	18	1.1	0.3
1965	12	19	0	0.3
1965	12	20	0	0.4
1965	12	21	2.9	0.4
1965	12	22	0	1.6
1965	12	23	0	0.4
1965	12	24	5	0.5
1965	12	25	7.9	0.4
1965	12	26	6.3	0.2
1965	12	27	0	0.5
1965	12	28	4.2	0.5
1965	12	29	0.1	1.1
1965	12	30	0	0.6
1965	12	31	1.6	0.5
1966	1	1	0	0.1
1966	1	2	0.2	0.2
1966	1	3	0	0.4
1966	1	4	0	1.2
1966	1	5	0	2.9
1966	1	6	0	3.2
1966	1	7	0	1.3
1966	1	8	0	0.3
1966	1	9	0	0.6
1966	1	10	0	1.1
1966	1	11	0	0.3
1966	1	12	11.9	0.8
1966	1	13	0	1.4
1966	1	14	0	0.5
1966	1	15	0	0.8
1966	1	16	0	0.9
1966	1	17	0	0.7
1966	1	18	0.5	1.3
1966	1	19	0	0.9
1966	1	20	0	0.6
1966	1	21	0	0.3
1966	1	22	1.6	0.4
1966	1	23	24.5	0.4
1966	1	24	1.8	0.3
1966	1	25	0	0.3
1966	1	26	0	1.1
1966	1	27	0.4	1.4
1966	1	28	0	0.5
1966	1	29	0	0.4
1966	1	30	0.2	0.4
1966	1	31	0.1	0.7
1966	2	1	0	0.4
1966	2	2	0	0.5
1966	2	3	0	0.5
1966	2	4	0.2	0.5
1966	2	5	0.2	0.5
1966	2	6	0	0.5
1966	2	7	0.6	0.5
1966	2	8	4.6	0.6
1966	2	9	0.9	0.5
1966	2	10	0.2	0.5
1966	2	11	0.8	0.9
1966	2	12	10.9	0.8
1966	2	13	6.6	1.1
1966	2	14	4.6	0.8
1966	2	15	0.6	1.9
1966	2	16	0	1.1
1966	2	17	1.9	0.7
1966	2	18	3.4	0.6
1966	2	19	0	0.6
1966	2	20	6.4	0.8
1966	2	21	0	2.7
1966	2	22	0.1	3.4
1966	2	23	7.3	0.8
1966	2	24	15.3	1.3
1966	2	25	0	1.4
1966	2	26	0	2
1966	2	27	0	1
1966	2	28	0	1
1966	3	1	0.6	1.2
1966	3	2	2.8	3.8
1966	3	3	0	2.3
1966	3	4	0	1.6
1966	3	5	0.1	3.3
1966	3	6	0	3.9
1966	3	7	0	4.5
1966	3	8	0	3.3
1966	3	9	0	2.1
1966	3	10	0	1.5
1966	3	11	0.4	1.7
1966	3	12	1.2	1
1966	3	13	24.2	1.5
1966	3	14	0	3
1966	3	15	0	1.9
1966	3	16	0	3
1966	3	17	0	2.3
1966	3	18	0	2.3
1966	3	19	0	4
1966	3	20	0	4.5
1966	3	21	0	2
1966	3	22	0	2
1966	3	23	0	1.5
1966	3	24	0	2
1966	3	25	3.4	2.1
1966	3	26	0.1	3
1966	3	27	0	2.6
1966	3	28	0	3.2
1966	3	29	0	3.5
1966	3	30	0	3.4
1966	3	31	0	3
1966	4	1	0	2.5
1966	4	2	0	2.7
1966	4	3	0	1.9
1966	4	4	0	2.7
1966	4	5	0	3.5
1966	4	6	0	2.8
1966	4	7	0	3.1
1966	4	8	0.9	1.6
1966	4	9	1.5	3.2
1966	4	10	6.4	1.8
1966	4	11	7.5	1.9
1966	4	12	12	1.7
1966	4	13	5.1	3
1966	4	14	0	3.1
1966	4	15	0	1.9
1966	4	16	2.3	1.7
1966	4	17	19.6	2.6
1966	4	18	0	3.4
1966	4	19	0	4.1
1966	4	20	0	3.3
1966	4	21	2	1.5
1966	4	22	24.4	4.4
1966	4	23	0	4.6
1966	4	24	0	3.4
1966	4	25	0.1	1.9
1966	4	26	0.3	4.3
1966	4	27	0	4
1966	4	28	0	4.5
1966	4	29	0.1	5.8
1966	4	30	0	7.2
1966	5	1	0	6.1
1966	5	2	0	4.8
1966	5	3	0	4.7
1966	5	4	0	4.2
1966	5	5	0	5.3
1966	5	6	0	3.3
1966	5	7	4.5	3.1
1966	5	8	15	1.8
1966	5	9	12.9	3.2
1966	5	10	3.2	2
1966	5	11	15.4	3.1
1966	5	12	1.1	4.4
1966	5	13	0	4
1966	5	14	0	5.3
1966	5	15	0	4.8
1966	5	16	0	5.5
1966	5	17	0	5.2
1966	5	18	0	5
1966	5	19	0	2.4
1966	5	20	0	4.2
1966	5	21	0	3.8
1966	5	22	0	4.8
1966	5	23	0	4.5
1966	5	24	0	5
1966	5	25	6.9	3.9
1966	5	26	20.5	4.7
1966	5	27	0.2	4
1966	5	28	1.6	3.2
1966	5	29	8.3	4.4
1966	5	30	0	4.4
1966	5	31	0	4.6
1966	6	1	0	4.2
1966	6	2	0	5.2
1966	6	3	0	5.4
1966	6	4	0	4.9
1966	6	5	0	4.8
1966	6	6	0	3.7
1966	6	7	0	4.6
1966	6	8	0	3.5
1966	6	9	0	4.4
1966	6	10	0	5.7
1966	6	11	0	5.7
1966	6	12	0	5.2
1966	6	13	0	6.2
1966	6	14	11.8	2.5
1966	6	15	26.4	3.5
1966	6	16	3.8	2.8
1966	6	17	1.2	4.8
1966	6	18	0	6.6
1966	6	19	0	5.7
1966	6	20	10.8	4.6
1966	6	21	44.4	5.1
1966	6	22	0	5.2
1966	6	23	0	5.6
1966	6	24	0	5.6
1966	6	25	0	5.9
1966	6	26	0	5.5
1966	6	27	0.5	4.3
1966	6	28	0	6.3
1966	6	29	23.9	5.4
1966	6	30	0	4.4
1966	7	1	0	5.1
1966	7	2	0	5.8
1966	7	3	0	5.3
1966	7	4	0	5.7
1966	7	5	0	6.6
1966	7	6	0	5.8
1966	7	7	3.1	5.6
1966	7	8	18.1	6.1
1966	7	9	0	4.8
1966	7	10	0	5.7
1966	7	11	0	5.3
1966	7	12	0	4
1966	7	13	0	5.6
1966	7	14	0	4.5
1966	7	15	0	3.6
1966	7	16	2.2	6
1966	7	17	0	3.8
1966	7	18	28.8	3.9
1966	7	19	28.2	2.4
1966	7	20	28	4
1966	7	21	0	4.1
1966	7	22	0	2.8
1966	7	23	0.3	3.5
1966	7	24	0	2.7
1966	7	25	0	3.9
1966	7	26	2.3	2.3
1966	7	27	0.8	3.9
1966	7	28	7	1.9
1966	7	29	8.8	4.2
1966	7	30	0	4.9
1966	7	31	0	4.5
1966	8	1	8.4	4.7
1966	8	2	0	4.3
1966	8	3	0	4.4
1966	8	4	0	5.8
1966	8	5	0	5.3
1966	8	6	0	5.9
1966	8	7	0	5.6
1966	8	8	0	4.5
1966	8	9	47.8	4.8
1966	8	10	0	4.9
1966	8	11	0	5.1
1966	8	12	0	4.9
1966	8	13	0	5
1966	8	14	0	4.8
1966	8	15	0	5.7
1966	8	16	0	5.2
1966	8	17	6.2	2.8
1966	8	18	13.2	2.8
1966	8	19	0.1	2.5
1966	8	20	2.2	3.2
1966	8	21	13.8	2.2
1966	8	22	19.4	3.1
1966	8	23	1.9	2.9
1966	8	24	7.1	1.7
1966	8	25	73.6	1.6
1966	8	26	8.4	3.3
1966	8	27	0.1	3.5
1966	8	28	0	4.4
1966	8	29	0	3.2
1966	8	30	0	2.8
1966	8	31	5.5	3.2
1966	9	1	0.1	4
1966	9	2	0	4.1
1966	9	3	0	3
1966	9	4	0	3.5
1966	9	5	0	2.1
1966	9	6	0	3.5
1966	9	7	0	3.7
1966	9	8	0	3.4
1966	9	9	0	3.3
1966	9	10	0	3.2
1966	9	11	0	3.2
1966	9	12	0	3.3
1966	9	13	0	3
1966	9	14	17.7	3.8
1966	9	15	0	3.9
1966	9	16	2.6	3.7
1966	9	17	17.6	3.4
1966	9	18	0	2.5
1966	9	19	3.2	5.2
1966	9	20	0	4.4
1966	9	21	0	3.6
1966	9	22	0	3.3
1966	9	23	0	2.9
1966	9	24	0.1	2.4
1966	9	25	0	2.7
1966	9	26	0	2.5
1966	9	27	0	2.2
1966	9	28	0	1.6
1966	9	29	0	2.1
1966	9	30	23.4	1.5
1966	10	1	9.3	2.2
1966	10	2	0.8	1.4
1966	10	3	1.9	2.3
1966	10	4	0	2.5
1966	10	5	0	1.5
1966	10	6	9	2.2
1966	10	7	0	2.7
1966	10	8	1.5	1.1
1966	10	9	1.7	2.6
1966	10	10	0.8	1.7
1966	10	11	0	1.6
1966	10	12	1.3	1.8
1966	10	13	21.8	1.9
1966	10	14	2.4	1.7
1966	10	15	0	1.3
1966	10	16	0	1.8
1966	10	17	11.1	0.9
1966	10	18	19.6	1.2
1966	10	19	0.1	2.8
1966	10	20	5.4	1.9
1966	10	21	0.1	1.8
1966	10	22	1.5	1.8
1966	10	23	0	1
1966	10	24	0	0.8
1966	10	25	5.1	1
1966	10	26	20	1.2
1966	10	27	15.4	1.5
1966	10	28	7.2	2
1966	10	29	13.7	0.9
1966	10	30	3.5	1.9
1966	10	31	0.1	2.1
1966	11	1	0	1.5
1966	11	2	0	1.1
1966	11	3	0	2.2
1966	11	4	19	3.3
1966	11	5	16.9	1.7
1966	11	6	0	1.2
1966	11	7	0	0.5
1966	11	8	0	0.5
1966	11	9	0	0.7
1966	11	10	0.4	0.5
1966	11	11	0	1.5
1966	11	12	6.1	1.8
1966	11	13	0	1.8
1966	11	14	0	1.1
1966	11	15	0	0.6
1966	11	16	0	0.9
1966	11	17	13.7	2.5
1966	11	18	0.1	1.8
1966	11	19	0	1.3
1966	11	20	3.8	0.6
1966	11	21	18.4	0.4
1966	11	22	2.3	0.4
1966	11	23	8	0.4
1966	11	24	9.2	0.4
1966	11	25	27.3	1.7
1966	11	26	0	1
1966	11	27	0	1.6
1966	11	28	0	1.3
1966	11	29	0	1.5
1966	11	30	14.7	1.2
1966	12	1	5.1	0.3
1966	12	2	7.4	1.5
1966	12	3	16.2	0.6
1966	12	4	8.4	0.9
1966	12	5	0	2.1
1966	12	6	0.3	1.8
1966	12	7	0	2.2
1966	12	8	0	2
1966	12	9	0	0.6
1966	12	10	0.2	1.1
1966	12	11	0	0.4
1966	12	12	0	0.5
1966	12	13	10.3	0.7
1966	12	14	0	0.2
1966	12	15	0	2
1966	12	16	0	0.2
1966	12	17	0	0.6
1966	12	18	0	0.3
1966	12	19	0	0.5
1966	12	20	0	0.6
1966	12	21	0.1	1.9
1966	12	22	0	2.1
1966	12	23	0	1
1966	12	24	0	0.5
1966	12	25	0	1.4
1966	12	26	0	0.5
1966	12	27	0.1	0.3
1966	12	28	1.9	0.9
1966	12	29	23.8	0.6
1966	12	30	0	0.6
1966	12	31	0	1.6
1967	1	1	0	0.4
1967	1	2	0	0.3
1967	1	3	9.9	1.8
1967	1	4	0.1	1.3
1967	1	5	0	0.4
1967	1	6	10.2	1.2
1967	1	7	0	0.6
1967	1	8	0	0.6
1967	1	9	0	0.9
1967	1	10	0	0.3
1967	1	11	0	0.5
1967	1	12	0	0.5
1967	1	13	0	0.1
1967	1	14	0	0.3
1967	1	15	0	0.3
1967	1	16	0	0.4
1967	1	17	0	0.5
1967	1	18	0	0.2
1967	1	19	0	0.3
1967	1	20	4.8	0.4
1967	1	21	0.6	0.4
1967	1	22	0.1	0.4
1967	1	23	10	0.4
1967	1	24	7.4	0.4
1967	1	25	15.5	0.3
1967	1	26	0	0.5
1967	1	27	0	0.4
1967	1	28	0	0.4
1967	1	29	1	0.4
1967	1	30	0.9	0.4
1967	1	31	0.1	0.5
1967	2	1	0	0.4
1967	2	2	0	0.4
1967	2	3	0	0.5
1967	2	4	0	0.5
1967	2	5	0.1	1.1
1967	2	6	0	2.2
1967	2	7	0	2.6
1967	2	8	0	1.4
1967	2	9	0	2.9
1967	2	10	0	2.6
1967	2	11	0	1.8
1967	2	12	0	2.1
1967	2	13	0	2.1
1967	2	14	0	2.3
1967	2	15	0	2
1967	2	16	0	1.3
1967	2	17	0	1.6
1967	2	18	17.3	1.3
1967	2	19	7.8	0.8
1967	2	20	0	0.9
1967	2	21	1.6	0.7
1967	2	22	0	0.9
1967	2	23	0	0.9
1967	2	24	0.5	1.8
1967	2	25	0	0.7
1967	2	26	0	0.8
1967	2	27	0.8	0.8
1967	2	28	10.5	0.8
1967	3	1	0.1	1.3
1967	3	2	2.2	2.2
1967	3	3	0	1.1
1967	3	4	0	1.9
1967	3	5	0	0.7
1967	3	6	0	0.8
1967	3	7	0	1.7
1967	3	8	1.9	0.8
1967	3	9	6.3	1.8
1967	3	10	1.1	2.1
1967	3	11	0	1.7
1967	3	12	0.2	1.4
1967	3	13	0	1.3
1967	3	14	0	5.8
1967	3	15	0	3.3
1967	3	16	0	3
1967	3	17	0	3.2
1967	3	18	0	1.8
1967	3	19	0	2.4
1967	3	20	0	2.7
1967	3	21	0	3.4
1967	3	22	0	2.1
1967	3	23	0	2.1
1967	3	24	0	3.7
1967	3	25	0	2.8
1967	3	26	0	2.1
1967	3	27	0.6	1.7
1967	3	28	0	2.3
1967	3	29	3.9	2.5
1967	3	30	5.9	2.4
1967	3	31	0	2.1
1967	4	1	7	2.3
1967	4	2	0	2.9
1967	4	3	0	2.1
1967	4	4	0.2	2.1
1967	4	5	0	2.3
1967	4	6	0	1.7
1967	4	7	36.9	2
1967	4	8	3.9	1.2
1967	4	9	11.1	2.1
1967	4	10	12.4	2.6
1967	4	11	0	2.9
1967	4	12	0	3.2
1967	4	13	0	4.9
1967	4	14	0	3.3
1967	4	15	0	2.5
1967	4	16	0	3.7
1967	4	17	0	3.8
1967	4	18	0	3.3
1967	4	19	0	5.3
1967	4	20	0	3.2
1967	4	21	0	2.8
1967	4	22	29.4	2.4
1967	4	23	0.8	3.8
1967	4	24	0	3
1967	4	25	0	4
1967	4	26	0	4.6
1967	4	27	0	4
1967	4	28	0	4.7
1967	4	29	0	4.9
1967	4	30	0	4.2
1967	5	1	0	3.2
1967	5	2	2.1	3.3
1967	5	3	1.3	2.6
1967	5	4	1.1	3.8
1967	5	5	0.3	2.6
1967	5	6	0	3.8
1967	5	7	0	3.7
1967	5	8	0	4.3
1967	5	9	0	4
1967	5	10	0.9	4.8
1967	5	11	0.6	5
1967	5	12	0	4.5
1967	5	13	0	4.7
1967	5	14	0	4.9
1967	5	15	0	3.1
1967	5	16	0.3	2.2
1967	5	17	26.8	3.5
1967	5	18	4.7	3.9
1967	5	19	0	3.2
1967	5	20	0.5	6.1
1967	5	21	0	6.5
1967	5	22	0	5.7
1967	5	23	0	4.5
1967	5	24	14.7	4
1967	5	25	0	2.5
1967	5	26	0	4.4
1967	5	27	0	4.7
1967	5	28	0	4.8
1967	5	29	0	4.5
1967	5	30	0	5
1967	5	31	21	2.5
1967	6	1	2.5	3.2
1967	6	2	0.5	4.3
1967	6	3	0	5.1
1967	6	4	0	3
1967	6	5	0	3.9
1967	6	6	0	4.7
1967	6	7	0	5
1967	6	8	0.6	3.1
1967	6	9	0.1	2
1967	6	10	70	2.6
1967	6	11	15.2	2.6
1967	6	12	0	3.9
1967	6	13	2.9	3
1967	6	14	0	4
1967	6	15	0.3	3
1967	6	16	11.5	3.8
1967	6	17	0	4.9
1967	6	18	0	3.5
1967	6	19	0.2	2.7
1967	6	20	0.7	3.7
1967	6	21	6.4	4.9
1967	6	22	0	6
1967	6	23	0	5.6
1967	6	24	0	5.3
1967	6	25	0	5.3
1967	6	26	0	5.3
1967	6	27	0	6.3
1967	6	28	0	5
1967	6	29	0	5.7
1967	6	30	0	6.2
1967	7	1	0	6.6
1967	7	2	0	6.1
1967	7	3	0	5.3
1967	7	4	0	3.4
1967	7	5	24	5.6
1967	7	6	0	5.8
1967	7	7	0	3.8
1967	7	8	0.1	4
1967	7	9	25.3	4.2
1967	7	10	0.8	4.3
1967	7	11	0	6.8
1967	7	12	0	5.9
1967	7	13	0	6
1967	7	14	0	5.9
1967	7	15	0	5.1
1967	7	16	0	5.4
1967	7	17	0	5.8
1967	7	18	0	5.3
1967	7	19	0	5.8
1967	7	20	0	5.5
1967	7	21	0	4.5
1967	7	22	0	5.9
1967	7	23	0	6.1
1967	7	24	0	5.5
1967	7	25	0	6.7
1967	7	26	35.8	4.3
1967	7	27	2.3	5.4
1967	7	28	0	3.1
1967	7	29	0	5.2
1967	7	30	0	5.9
1967	7	31	0	5.4
1967	8	1	0	4.9
1967	8	2	0	5.5
1967	8	3	0	5.4
1967	8	4	0	6
1967	8	5	0	5.9
1967	8	6	6.7	6.2
1967	8	7	0.2	4.6
1967	8	8	0	4.9
1967	8	9	0	4.9
1967	8	10	0	4
1967	8	11	2.7	4.8
1967	8	12	0	6.2
1967	8	13	3.7	4
1967	8	14	1.1	5.6
1967	8	15	0	4.6
1967	8	16	0	4.5
1967	8	17	0	4.3
1967	8	18	0	6.2
1967	8	19	0	5.8
1967	8	20	0	6.8
1967	8	21	0	6.7
1967	8	22	0	5.7
1967	8	23	0	5
1967	8	24	0	4
1967	8	25	19.2	2.7
1967	8	26	2.6	3.6
1967	8	27	0.8	4.3
1967	8	28	0	3.1
1967	8	29	0	4
1967	8	30	0	3.6
1967	8	31	0	3.8
1967	9	1	0.3	3.1
1967	9	2	0	3.4
1967	9	3	0	3.5
1967	9	4	0	4.1
1967	9	5	39.6	4.4
1967	9	6	0	4.2
1967	9	7	0	3.9
1967	9	8	0.2	2.5
1967	9	9	7.9	2.7
1967	9	10	2.9	2.5
1967	9	11	9.7	2.1
1967	9	12	5.9	3
1967	9	13	0.6	2.9
1967	9	14	2.5	2.2
1967	9	15	11.3	1.7
1967	9	16	3	1.5
1967	9	17	0.3	1.7
1967	9	18	0	2.4
1967	9	19	0	2.3
1967	9	20	14.7	1.9
1967	9	21	1.2	2.7
1967	9	22	0	2.3
1967	9	23	2.4	3
1967	9	24	0	2.5
1967	9	25	0	2.3
1967	9	26	0	1.9
1967	9	27	0	1.8
1967	9	28	0	1.9
1967	9	29	0	2.9
1967	9	30	0	2.5
1967	10	1	0	2.2
1967	10	2	0	1.9
1967	10	3	2	2.4
1967	10	4	0	2.8
1967	10	5	2.3	2.5
1967	10	6	1.3	1.3
1967	10	7	0	2.2
1967	10	8	0	1.8
1967	10	9	0	1.5
1967	10	10	0	1.6
1967	10	11	0	1.5
1967	10	12	0	1.4
1967	10	13	0	1
1967	10	14	0	1.4
1967	10	15	0	1.2
1967	10	16	0	1
1967	10	17	0	1.6
1967	10	18	0	1.4
1967	10	19	0.4	2.9
1967	10	20	0	1.3
1967	10	21	0	1.5
1967	10	22	0	1.2
1967	10	23	0	1.3
1967	10	24	0	0.9
1967	10	25	0	1.1
1967	10	26	0	1
1967	10	27	0	1.1
1967	10	28	0	0.6
1967	10	29	49.5	1.4
1967	10	30	8	1.9
1967	10	31	0	0.9
1967	11	1	9.1	1.2
1967	11	2	4.1	1.6
1967	11	3	2.1	1
1967	11	4	27.5	0.9
1967	11	5	0.8	1.7
1967	11	6	87.2	0.9
1967	11	7	1.1	1.2
1967	11	8	0	1.4
1967	11	9	21.9	0.5
1967	11	10	1.7	0.6
1967	11	11	3	2.4
1967	11	12	0	1.3
1967	11	13	0	0.6
1967	11	14	0	0.6
1967	11	15	0	0.6
1967	11	16	4.6	2.3
1967	11	17	0.8	0.6
1967	11	18	0	1.3
1967	11	19	0	1.5
1967	11	20	0	2.6
1967	11	21	0	0.5
1967	11	22	0	0.9
1967	11	23	0	0.2
1967	11	24	0	1.6
1967	11	25	0	1.4
1967	11	26	0	0.3
1967	11	27	0.6	1
1967	11	28	20.5	1.8
1967	11	29	3.3	0.9
1967	11	30	0.5	2.4
1967	12	1	3.1	3.3
1967	12	2	0	3.5
1967	12	3	0	0.4
1967	12	4	0	1.1
1967	12	5	0	0.2
1967	12	6	0	0.2
1967	12	7	0	1.4
1967	12	8	0	2.2
1967	12	9	0	1.6
1967	12	10	0	1
1967	12	11	0.2	1.3
1967	12	12	0.1	2.2
1967	12	13	0	3.2
1967	12	14	0	1.8
1967	12	15	0	1.3
1967	12	16	0	0.7
1967	12	17	0	0.9
1967	12	18	0	0.7
1967	12	19	0	0.5
1967	12	20	0	2.9
1967	12	21	0	0
1967	12	22	0	0.2
1967	12	23	0	0.3
1967	12	24	1	0.4
1967	12	25	7.4	0.4
1967	12	26	4.5	0.6
1967	12	27	5.6	3.2
1967	12	28	0.3	2.2
1967	12	29	0	0.4
1967	12	30	19	0.5
1967	12	31	2.3	0.6
1968	1	1	1.5	0.4
1968	1	2	11.2	0.8
1968	1	3	0	1.5
1968	1	4	0	0.6
1968	1	5	0	0.2
1968	1	6	0	0.4
1968	1	7	1.3	0.5
1968	1	8	25.3	1.6
1968	1	9	0	0.8
1968	1	10	0	1.2
1968	1	11	0	1
1968	1	12	0	1.2
1968	1	13	0	1.2
1968	1	14	0	0.9
1968	1	15	0	0.3
1968	1	16	0.2	0.3
1968	1	17	0.3	0.3
1968	1	18	13	0.6
1968	1	19	1.1	2.4
1968	1	20	0	2.7
1968	1	21	0	2.1
1968	1	22	0	0.5
1968	1	23	0	0.6
1968	1	24	0	1.6
1968	1	25	2.9	1.3
1968	1	26	0	1.1
1968	1	27	0	0.7
1968	1	28	0	0.6
1968	1	29	0	0.7
1968	1	30	0	0.3
1968	1	31	0.1	0.4
1968	2	1	0	0.5
1968	2	2	0.2	0.4
1968	2	3	0.1	0.8
1968	2	4	7.4	0.6
1968	2	5	35	0.5
1968	2	6	3.3	0.5
1968	2	7	5.7	1.2
1968	2	8	6.3	1
1968	2	9	1.6	0.9
1968	2	10	9.2	0.6
1968	2	11	0.4	0.9
1968	2	12	0	0.5
1968	2	13	0	0.7
1968	2	14	2.5	0.6
1968	2	15	9.3	0.6
1968	2	16	7.7	0.5
1968	2	17	2.1	2.4
1968	2	18	0	1.6
1968	2	19	0	1.5
1968	2	20	0	0.8
1968	2	21	1.4	0.9
1968	2	22	28.7	1.2
1968	2	23	16.2	1.1
1968	2	24	6.1	2.2
1968	2	25	10	0.9
1968	2	26	0	1.6
1968	2	27	0	3.1
1968	2	28	0	2.9
1968	2	29	0	2
1968	3	1	0	2.8
1968	3	2	0	2.7
1968	3	3	0	1.6
1968	3	4	0	1.3
1968	3	5	0	1.3
1968	3	6	0	1.1
1968	3	7	0.1	2.8
1968	3	8	0	2.1
1968	3	9	0	1.4
1968	3	10	0	1
1968	3	11	0	1.6
1968	3	12	0	3.3
1968	3	13	0	2.4
1968	3	14	0	0.9
1968	3	15	1.1	2.2
1968	3	16	0.9	1.7
1968	3	17	1	1.8
1968	3	18	0	3.1
1968	3	19	0	2.8
1968	3	20	0	2.2
1968	3	21	0	1.6
1968	3	22	2.3	3.5
1968	3	23	0	3.2
1968	3	24	0	2.3
1968	3	25	0	2.9
1968	3	26	0	4.8
1968	3	27	0	4
1968	3	28	0	3.6
1968	3	29	0	2.8
1968	3	30	0	2.9
1968	3	31	0	2.7
1968	4	1	0	2.8
1968	4	2	0	2.9
1968	4	3	0.2	2.3
1968	4	4	0	3.6
1968	4	5	0	1.9
1968	4	6	0	3.1
1968	4	7	0.3	1.7
1968	4	8	12.5	3.4
1968	4	9	0	3.6
1968	4	10	0	4
1968	4	11	0	3.4
1968	4	12	0	4.1
1968	4	13	0	3.1
1968	4	14	0	3.2
1968	4	15	0	1.4
1968	4	16	1.2	3.5
1968	4	17	0	2.7
1968	4	18	0	3.5
1968	4	19	0	3.7
1968	4	20	0	3.9
1968	4	21	0	4.6
1968	4	22	0	4.9
1968	4	23	0	4
1968	4	24	0	3.7
1968	4	25	0	4.5
1968	4	26	0	5.4
1968	4	27	0	4.5
1968	4	28	6.4	1.6
1968	4	29	30.4	3
1968	4	30	10.1	2.4
1968	5	1	8.3	4.1
1968	5	2	0	4.5
1968	5	3	0	3.9
1968	5	4	0	3
1968	5	5	0.2	3.5
1968	5	6	0	3
1968	5	7	5.1	5.1
1968	5	8	0	4.6
1968	5	9	0	4
1968	5	10	0	3.8
1968	5	11	0	3.7
1968	5	12	1.9	4.9
1968	5	13	7.5	3.8
1968	5	14	0.1	7
1968	5	15	0	5.1
1968	5	16	0	4.6
1968	5	17	0	5
1968	5	18	4.3	3.6
1968	5	19	0	3.2
1968	5	20	0	2.8
1968	5	21	8.7	1.8
1968	5	22	58.4	3.7
1968	5	23	0	4.3
1968	5	24	0	2.8
1968	5	25	0.1	4
1968	5	26	2.2	2.9
1968	5	27	0.3	4.9
1968	5	28	0.1	3.5
1968	5	29	5.6	3.8
1968	5	30	1.9	3.2
1968	5	31	0.3	3.1
1968	6	1	0	2.7
1968	6	2	3.5	3.3
1968	6	3	2.1	5
1968	6	4	0	2.5
1968	6	5	2.2	2.4
1968	6	6	76.9	2.8
1968	6	7	5	4
1968	6	8	12.2	3.9
1968	6	9	0	2.5
1968	6	10	22.6	4.2
1968	6	11	0.3	4.3
1968	6	12	0	4.7
1968	6	13	0.1	5.7
1968	6	14	0	3.7
1968	6	15	6.4	2.9
1968	6	16	2.6	3.7
1968	6	17	0	4.7
1968	6	18	0	4.1
1968	6	19	34.8	4.2
1968	6	20	2.8	4.7
1968	6	21	0	4.4
1968	6	22	7.4	4.6
1968	6	23	0	5.3
1968	6	24	0.2	5.1
1968	6	25	0	6.1
1968	6	26	0	5.5
1968	6	27	0	5.7
1968	6	28	0	5.6
1968	6	29	0	4
1968	6	30	0	6.3
1968	7	1	0	6.2
1968	7	2	0	6.1
1968	7	3	0	5.8
1968	7	4	0	5.6
1968	7	5	0	7.1
1968	7	6	0	6.4
1968	7	7	0.1	5.6
1968	7	8	0	5.7
1968	7	9	0	5.7
1968	7	10	0	7.2
1968	7	11	0	7.4
1968	7	12	0	7.6
1968	7	13	3.9	6.1
1968	7	14	0	5.4
1968	7	15	0	6.7
1968	7	16	0	4.9
1968	7	17	2.8	4
1968	7	18	10.2	2.6
1968	7	19	0	5.3
1968	7	20	0	6.2
1968	7	21	3.2	3.2
1968	7	22	7.9	5.2
1968	7	23	0	4.7
1968	7	24	23	2
1968	7	25	7.6	3.4
1968	7	26	0.9	5
1968	7	27	0	5.8
1968	7	28	0	5.3
1968	7	29	0	4.8
1968	7	30	0	4.9
1968	7	31	0	4.7
1968	8	1	0	5.1
1968	8	2	0	5.2
1968	8	3	20	4.1
1968	8	4	1.5	4
1968	8	5	0	4.4
1968	8	6	0	3.2
1968	8	7	0.7	2.5
1968	8	8	7.9	4.2
1968	8	9	14.7	2.9
1968	8	10	7.9	4.2
1968	8	11	33.4	3.7
1968	8	12	0	2.9
1968	8	13	0	4.6
1968	8	14	0.5	2.5
1968	8	15	12.8	4.4
1968	8	16	0	4.5
1968	8	17	0	5.3
1968	8	18	0.1	3.3
1968	8	19	23.8	4.5
1968	8	20	0	4.5
1968	8	21	0	3.8
1968	8	22	0	3.8
1968	8	23	13.6	2.4
1968	8	24	0	5.5
1968	8	25	0	3.6
1968	8	26	0	3.6
1968	8	27	0	3.7
1968	8	28	0	3.7
1968	8	29	0.5	2.3
1968	8	30	6.7	3.1
1968	8	31	0	3.2
1968	9	1	11.1	3.3
1968	9	2	0	3.4
1968	9	3	0	3.2
1968	9	4	0	3.2
1968	9	5	20.9	1.5
1968	9	6	1	3.2
1968	9	7	0	4.1
1968	9	8	0	4.6
1968	9	9	0	4.9
1968	9	10	0	3.1
1968	9	11	0	2.8
1968	9	12	12.1	2.4
1968	9	13	3.5	2.5
1968	9	14	1.3	1.6
1968	9	15	7	2.6
1968	9	16	1.7	2.5
1968	9	17	6.9	2.8
1968	9	18	0	1.2
1968	9	19	6.7	1.5
1968	9	20	0.4	2.6
1968	9	21	0	2.2
1968	9	22	4	3.4
1968	9	23	3.9	2.1
1968	9	24	0	2.2
1968	9	25	17.6	2.6
1968	9	26	0	2.2
1968	9	27	0	2.7
1968	9	28	0	2.1
1968	9	29	0	1.8
1968	9	30	9.1	1.7
1968	10	1	16.6	1.4
1968	10	2	0	2.2
1968	10	3	0	0.9
1968	10	4	0	2
1968	10	5	0	1.9
1968	10	6	0	1.9
1968	10	7	0	1.7
1968	10	8	0	2.2
1968	10	9	0	2.1
1968	10	10	9.8	1.5
1968	10	11	0	1.4
1968	10	12	0	1.6
1968	10	13	0	1.3
1968	10	14	0	0.8
1968	10	15	0	1.1
1968	10	16	0	3.2
1968	10	17	0	2.3
1968	10	18	0	1.1
1968	10	19	0	2.7
1968	10	20	0	3.1
1968	10	21	0	3.7
1968	10	22	0	3.3
1968	10	23	0	2.1
1968	10	24	0	2.1
1968	10	25	0	0.7
1968	10	26	0.1	1.7
1968	10	27	0	1.9
1968	10	28	0	1.1
1968	10	29	0	0.7
1968	10	30	0	0.7
1968	10	31	0	0.6
1968	11	1	0	0.7
1968	11	2	1.2	2
1968	11	3	6.5	2.5
1968	11	4	9.3	1.1
1968	11	5	7.4	1.2
1968	11	6	2.8	0.8
1968	11	7	0.2	0.6
1968	11	8	2	1.3
1968	11	9	8.2	0.8
1968	11	10	8.1	0.8
1968	11	11	0	1.3
1968	11	12	0	2.9
1968	11	13	0	2.1
1968	11	14	0	1.9
1968	11	15	0	1.3
1968	11	16	14.8	0.9
1968	11	17	22.1	1.2
1968	11	18	11.2	2.1
1968	11	19	7.5	1.3
1968	11	20	0	0.6
1968	11	21	0.3	1.8
1968	11	22	0	2.1
1968	11	23	0	0.7
1968	11	24	0	0.2
1968	11	25	0	0.3
1968	11	26	0	0.2
1968	11	27	0	1.4
1968	11	28	0	0.4
1968	11	29	0	0.2
1968	11	30	0	0.4
1968	12	1	0	1.5
1968	12	2	0	2.1
1968	12	3	0	1.5
1968	12	4	0	1.4
1968	12	5	0	0.1
1968	12	6	0	0.3
1968	12	7	0	0.3
1968	12	8	1.4	0.5
1968	12	9	2.9	1.9
1968	12	10	1.8	2.3
1968	12	11	0	1.7
1968	12	12	0	1.6
1968	12	13	0	1.6
1968	12	14	0	1.1
1968	12	15	0	0.5
1968	12	16	0.5	0.3
1968	12	17	14.2	0.5
1968	12	18	25.4	0.3
1968	12	19	42.4	0.5
1968	12	20	0	0.9
1968	12	21	0	0.1
1968	12	22	0	0.1
1968	12	23	0	0.5
1968	12	24	0	0.8
1968	12	25	0	0.2
1968	12	26	3.7	0.9
1968	12	27	0	0.7
1968	12	28	0	0.6
1968	12	29	0	0.5
1968	12	30	0	0.9
1968	12	31	0	1.2
1969	1	1	0	2
1969	1	2	0	1
1969	1	3	0	1.8
1969	1	4	0	1.8
1969	1	5	0	1.4
1969	1	6	0	0.3
1969	1	7	0	0.4
1969	1	8	0	0.3
1969	1	9	7.9	1.2
1969	1	10	0.1	1.3
1969	1	11	0	1.3
1969	1	12	0	0.8
1969	1	13	4.6	0.5
1969	1	14	6.8	1.6
1969	1	15	5.6	0.6
1969	1	16	0	0.3
1969	1	17	1.9	2
1969	1	18	0	0.2
1969	1	19	0.5	1.1
1969	1	20	0	0.5
1969	1	21	0	1.7
1969	1	22	0	1.7
1969	1	23	0	0.3
1969	1	24	0	0.5
1969	1	25	0	0.6
1969	1	26	0	0.4
1969	1	27	0	0.3
1969	1	28	0	0.4
1969	1	29	5.7	0.4
1969	1	30	15.1	0.4
1969	1	31	0	0.4
1969	2	1	0	0.4
1969	2	2	0.1	0.4
1969	2	3	11.7	0.5
1969	2	4	11.5	2.1
1969	2	5	0.3	2.6
1969	2	6	0	1.6
1969	2	7	0	1.2
1969	2	8	0.8	0.5
1969	2	9	19.7	0.8
1969	2	10	0	1.8
1969	2	11	0	0.5
1969	2	12	0	0.4
1969	2	13	3.7	0.5
1969	2	14	0.3	0.5
1969	2	15	8.6	0.9
1969	2	16	0.4	0.6
1969	2	17	2.4	1
1969	2	18	3.5	0.6
1969	2	19	10.1	0.6
1969	2	20	19.8	0.9
1969	2	21	12.6	0.6
1969	2	22	0	0.6
1969	2	23	0	0.7
1969	2	24	3.3	1.2
1969	2	25	7.8	0.8
1969	2	26	0	1.2
1969	2	27	0.6	0.9
1969	2	28	0	1.8
1969	3	1	0	2.4
1969	3	2	0	0.8
1969	3	3	0	0.9
1969	3	4	0	2.7
1969	3	5	0	2.9
1969	3	6	0	3
1969	3	7	0	1.8
1969	3	8	0	2.5
1969	3	9	0	1.6
1969	3	10	0	1.7
1969	3	11	0	1
1969	3	12	0.8	1
1969	3	13	3.4	1.1
1969	3	14	8.6	1
1969	3	15	11.5	0.9
1969	3	16	12.9	1
1969	3	17	0.2	1.1
1969	3	18	0.4	2.7
1969	3	19	0	2.6
1969	3	20	0	2.8
1969	3	21	0	3.4
1969	3	22	0	2.8
1969	3	23	0	1
1969	3	24	13.7	1
1969	3	25	6.7	1.7
1969	3	26	6.8	1.6
1969	3	27	0.1	1.9
1969	3	28	0	3.7
1969	3	29	0	2.1
1969	3	30	0	2.2
1969	3	31	0	2.3
1969	4	1	0	2.1
1969	4	2	1.7	2
1969	4	3	4.1	2.4
1969	4	4	0.2	3.1
1969	4	5	0.8	3.3
1969	4	6	0	3.7
1969	4	7	0	3.6
1969	4	8	0	3.6
1969	4	9	0	5.7
1969	4	10	0	3.7
1969	4	11	0	2.6
1969	4	12	0	2.1
1969	4	13	0	2.3
1969	4	14	30.4	2.3
1969	4	15	0	3.3
1969	4	16	0	3.6
1969	4	17	0	3.7
1969	4	18	0	3.2
1969	4	19	0	2.3
1969	4	20	0	2.2
1969	4	21	0	2.3
1969	4	22	0.9	1.7
1969	4	23	8.6	2.1
1969	4	24	3.6	3.3
1969	4	25	0	3.6
1969	4	26	0	3.6
1969	4	27	0	3.9
1969	4	28	0	3.3
1969	4	29	0	3.7
1969	4	30	0	2.5
1969	5	1	6.1	2.1
1969	5	2	6.2	3.3
1969	5	3	0	3.7
1969	5	4	0	3.5
1969	5	5	0	3.6
1969	5	6	0	2.9
1969	5	7	13.8	1.7
1969	5	8	14.8	2.5
1969	5	9	3.3	2.2
1969	5	10	11.3	3.6
1969	5	11	0	4.3
1969	5	12	0	4.7
1969	5	13	0	4.6
1969	5	14	0	4.5
1969	5	15	0	4.5
1969	5	16	0	5.1
1969	5	17	0	4.2
1969	5	18	0.5	3.4
1969	5	19	1.3	2.2
1969	5	20	44.7	4.2
1969	5	21	0	5.6
1969	5	22	0	5.1
1969	5	23	0	4.8
1969	5	24	0	5
1969	5	25	0	3.7
1969	5	26	0	2.8
1969	5	27	0	5
1969	5	28	0	4.7
1969	5	29	0	4.5
1969	5	30	0	5.6
1969	5	31	2.6	5.8
1969	6	1	0	5.3
1969	6	2	0.6	3.3
1969	6	3	0	4.9
1969	6	4	2.5	1.8
1969	6	5	27.2	3.5
1969	6	6	2.5	2.5
1969	6	7	23.3	2.7
1969	6	8	0.8	3.2
1969	6	9	0.4	4.8
1969	6	10	0	4.5
1969	6	11	0	4.2
1969	6	12	0	3.1
1969	6	13	2.3	2.8
1969	6	14	8.2	5
1969	6	15	0	4.2
1969	6	16	0	4.2
1969	6	17	0.4	4.6
1969	6	18	0	5
1969	6	19	0	3.8
1969	6	20	3.4	3.8
1969	6	21	5.3	4.9
1969	6	22	0	5.1
1969	6	23	0	4.9
1969	6	24	0.6	6
1969	6	25	0	3.8
1969	6	26	0	4.5
1969	6	27	0	6.3
1969	6	28	0	2.2
1969	6	29	0	4.2
1969	6	30	0	2.9
1969	7	1	0	5.9
1969	7	2	0	5.1
1969	7	3	0	5.3
1969	7	4	0	4.7
1969	7	5	0	5.2
1969	7	6	0	3
1969	7	7	0	4.7
1969	7	8	0	4.1
1969	7	9	4.2	5.6
1969	7	10	2.8	4
1969	7	11	0	4.3
1969	7	12	0	4.9
1969	7	13	0	4.5
1969	7	14	0	4.4
1969	7	15	0	5.3
1969	7	16	0	5.3
1969	7	17	0	5.6
1969	7	18	0	5
1969	7	19	0	5.9
1969	7	20	0	6.6
1969	7	21	0	6
1969	7	22	0	5.1
1969	7	23	0	6
1969	7	24	0	5.2
1969	7	25	0	6.1
1969	7	26	0	5.9
1969	7	27	0	5.7
1969	7	28	0	6.3
1969	7	29	0	6
1969	7	30	0	3.8
1969	7	31	0	3.2
1969	8	1	0.3	4.1
1969	8	2	0	5.8
1969	8	3	0	5.5
1969	8	4	0	6.3
1969	8	5	0	4.6
1969	8	6	8.7	5.1
1969	8	7	0	5
1969	8	8	2.3	6
1969	8	9	0	5.8
1969	8	10	0	4.8
1969	8	11	0	3.6
1969	8	12	0	4.7
1969	8	13	0.1	3.7
1969	8	14	0	4.2
1969	8	15	0.2	4.9
1969	8	16	22.3	4.1
1969	8	17	2.1	5.2
1969	8	18	0.4	4.9
1969	8	19	0.7	2.7
1969	8	20	0	4.1
1969	8	21	0	5.4
1969	8	22	1.4	2.6
1969	8	23	68.4	3.8
1969	8	24	4.9	1.9
1969	8	25	51.5	2.4
1969	8	26	13.1	2.8
1969	8	27	2	1.7
1969	8	28	13.3	5
1969	8	29	7.8	3.3
1969	8	30	0	3.6
1969	8	31	0	3.8
1969	9	1	0	2.9
1969	9	2	0	3
1969	9	3	0	3.1
1969	9	4	0	2.6
1969	9	5	0.3	3.7
1969	9	6	0	3.8
1969	9	7	0	4.1
1969	9	8	0	3.6
1969	9	9	0	1.8
1969	9	10	13.7	2.5
1969	9	11	8.3	4.8
1969	9	12	0	4.9
1969	9	13	0	2.3
1969	9	14	0	1.4
1969	9	15	61.3	1.5
1969	9	16	1	3.4
1969	9	17	9.2	1.5
1969	9	18	12.6	1.4
1969	9	19	49.7	1.8
1969	9	20	47.4	1.6
1969	9	21	0.2	2.7
1969	9	22	0	2.6
1969	9	23	0	4.6
1969	9	24	0	4
1969	9	25	0	3
1969	9	26	0	2.6
1969	9	27	0	2.5
1969	9	28	0	3.3
1969	9	29	0	2.1
1969	9	30	0	1.7
1969	10	1	0	1.7
1969	10	2	0.2	2.1
1969	10	3	0	2
1969	10	4	0	2
1969	10	5	0	2.8
1969	10	6	0	3.8
1969	10	7	0	2.1
1969	10	8	0	3.4
1969	10	9	0	3.2
1969	10	10	0	2.6
1969	10	11	0	1.7
1969	10	12	0	3.2
1969	10	13	0	3.2
1969	10	14	0	1.5
1969	10	15	0	1.6
1969	10	16	0	3.3
1969	10	17	0	3.7
1969	10	18	0	2.3
1969	10	19	0	2
1969	10	20	0	1.5
1969	10	21	0	1.2
1969	10	22	0	1.8
1969	10	23	0	1.5
1969	10	24	0	1.4
1969	10	25	0	4.4
1969	10	26	0	2.9
1969	10	27	0	1.6
1969	10	28	0	1.1
1969	10	29	0	1.5
1969	10	30	0	1.1
1969	10	31	0	1.3
1969	11	1	0	1.3
1969	11	2	0	0.8
1969	11	3	0	0.7
1969	11	4	0	0.6
1969	11	5	0	0.8
1969	11	6	0	3.8
1969	11	7	0	1
1969	11	8	39.2	0.5
1969	11	9	2.7	0.8
1969	11	10	1	1
1969	11	11	0	0.8
1969	11	12	0	1.9
1969	11	13	0.1	3.2
1969	11	14	30.2	1.1
1969	11	15	37.6	2.4
1969	11	16	3.4	1.2
1969	11	17	0	1.7
1969	11	18	12	1.2
1969	11	19	0.9	1
1969	11	20	0	0.7
1969	11	21	1.6	0.4
1969	11	22	8.7	0.5
1969	11	23	15.2	0.5
1969	11	24	1.4	1.6
1969	11	25	19.4	1.9
1969	11	26	34.2	0.7
1969	11	27	7.1	2.2
1969	11	28	0	1.2
1969	11	29	0	0.6
1969	11	30	1.4	2.5
1969	12	1	0	2.8
1969	12	2	0	1.9
1969	12	3	0	0.7
1969	12	4	0	0.6
1969	12	5	12.6	1
1969	12	6	1.3	1.7
1969	12	7	0.4	1.6
1969	12	8	0	2.4
1969	12	9	0	2.2
1969	12	10	0	2
1969	12	11	0	1.7
1969	12	12	0	0.5
1969	12	13	0	0.5
1969	12	14	6.1	0.4
1969	12	15	3.6	0.3
1969	12	16	4	0.3
1969	12	17	0	0.4
1969	12	18	0.1	0.7
1969	12	19	8.6	2.1
1969	12	20	1	1.8
1969	12	21	0	2.4
1969	12	22	0	1
1969	12	23	0	0.5
1969	12	24	0	1.3
1969	12	25	0	1.5
1969	12	26	0	1.4
1969	12	27	0	2
1969	12	28	0	1.8
1969	12	29	0	0.7
1969	12	30	0	1.1
1969	12	31	0	0.8
1970	1	1	6.1	0.4
1970	1	2	0	0.4
1970	1	3	0	0.4
1970	1	4	0	0.3
1970	1	5	17.5	0.8
1970	1	6	7.4	0.6
1970	1	7	11	1.7
1970	1	8	0	2.1
1970	1	9	0	0.6
1970	1	10	0.3	0.4
1970	1	11	8.4	0.8
1970	1	12	7.1	0.9
1970	1	13	3.4	0.4
1970	1	14	8.5	0.4
1970	1	15	0.3	0.8
1970	1	16	8.1	0.4
1970	1	17	0	0.4
1970	1	18	0	0.3
1970	1	19	0	0.2
1970	1	20	0	0.9
1970	1	21	0	1.3
1970	1	22	0	1.3
1970	1	23	0	0.1
1970	1	24	0	0.3
1970	1	25	9.5	0.4
1970	1	26	0	0.4
1970	1	27	0.6	0.4
1970	1	28	4.9	0.4
1970	1	29	0.2	1.3
1970	1	30	0	0.5
1970	1	31	3.4	1.8
1970	2	1	0	2.3
1970	2	2	0	1
1970	2	3	0	0.4
1970	2	4	0	0.4
1970	2	5	0	0.6
1970	2	6	7.9	0.7
1970	2	7	0	0.5
1970	2	8	0	0.7
1970	2	9	0	0.5
1970	2	10	0.4	0.8
1970	2	11	0.2	1.2
1970	2	12	9.5	0.9
1970	2	13	5.9	0.7
1970	2	14	0.2	1.6
1970	2	15	12.8	1.1
1970	2	16	1.2	2.4
1970	2	17	0	1.2
1970	2	18	0	0.8
1970	2	19	13.8	1.6
1970	2	20	0	1
1970	2	21	1.7	0.8
1970	2	22	0	0.9
1970	2	23	0.4	0.9
1970	2	24	0	1.4
1970	2	25	0.2	1.3
1970	2	26	0	1.6
1970	2	27	1.6	2.3
1970	2	28	0	1.4
1970	3	1	0	1.5
1970	3	2	0	1.3
1970	3	3	24	0.6
1970	3	4	33.9	0.8
1970	3	5	9.3	0.7
1970	3	6	8.5	1.3
1970	3	7	0	2.2
1970	3	8	0	1.5
1970	3	9	8.9	0.7
1970	3	10	3.3	1.8
1970	3	11	0	2.1
1970	3	12	9.2	1.1
1970	3	13	0.7	1.4
1970	3	14	0	2.7
1970	3	15	0	2.1
1970	3	16	0	3.2
1970	3	17	0	2.5
1970	3	18	0	1.3
1970	3	19	3.5	1.9
1970	3	20	9.4	2.7
1970	3	21	0	2.5
1970	3	22	0	1.8
1970	3	23	0	1.2
1970	3	24	4.6	1.5
1970	3	25	0	1.1
1970	3	26	49.2	1
1970	3	27	1.3	1.3
1970	3	28	4.7	3.1
1970	3	29	0	2.9
1970	3	30	0	3.8
1970	3	31	0	2.3
1970	4	1	3.6	3.1
1970	4	2	0.3	2.3
1970	4	3	36.9	1.8
1970	4	4	0.1	3.1
1970	4	5	0.1	1.4
1970	4	6	7.8	2.4
1970	4	7	0.9	3.1
1970	4	8	0	1.6
1970	4	9	15.5	2.2
1970	4	10	2.2	4.3
1970	4	11	0	2.9
1970	4	12	0	3.4
1970	4	13	0	2
1970	4	14	21.9	3.4
1970	4	15	1.9	4.5
1970	4	16	0	2.8
1970	4	17	0	2.1
1970	4	18	0	2.7
1970	4	19	0	3.2
1970	4	20	0	3.3
1970	4	21	1.7	1.8
1970	4	22	46	3.2
1970	4	23	0	2.9
1970	4	24	0	3
1970	4	25	0	3.4
1970	4	26	0	3
1970	4	27	2.2	4.4
1970	4	28	5.7	1.7
1970	4	29	10.8	2.2
1970	4	30	0.1	4.3
1970	5	1	0	3.5
1970	5	2	0.1	2.7
1970	5	3	0.2	3.8
1970	5	4	0	4.2
1970	5	5	0	2.6
1970	5	6	3.6	2.1
1970	5	7	13.2	1.7
1970	5	8	11.1	3
1970	5	9	2.4	3.2
1970	5	10	0	3.2
1970	5	11	5.9	4.1
1970	5	12	0	3.9
1970	5	13	0	4.1
1970	5	14	0	4.4
1970	5	15	0	2.9
1970	5	16	0.2	3.7
1970	5	17	6.7	2.3
1970	5	18	2.4	5.4
1970	5	19	0	5.4
1970	5	20	0	5.1
1970	5	21	0	4.8
1970	5	22	0.2	2.8
1970	5	23	19.9	3.7
1970	5	24	0	4.4
1970	5	25	0	3.8
1970	5	26	0	3.2
1970	5	27	0	3.3
1970	5	28	8.9	4.4
1970	5	29	0	3.9
1970	5	30	1.4	2
1970	5	31	12.2	4.3
1970	6	1	1.5	4.3
1970	6	2	0	3.8
1970	6	3	13.6	4.9
1970	6	4	0.1	4.1
1970	6	5	0	4.3
1970	6	6	13.9	2
1970	6	7	5.5	2.4
1970	6	8	3.6	4.6
1970	6	9	3.1	2.2
1970	6	10	7.2	3.6
1970	6	11	0	4.6
1970	6	12	0	4.9
1970	6	13	0	5.1
1970	6	14	0.3	4.4
1970	6	15	1.5	4
1970	6	16	0	4.9
1970	6	17	0	5.1
1970	6	18	0	3.5
1970	6	19	6.7	2.7
1970	6	20	1	4.8
1970	6	21	0	5.8
1970	6	22	0	6.4
1970	6	23	0	5.8
1970	6	24	0	4.6
1970	6	25	0	5.5
1970	6	26	0	5.6
1970	6	27	0	5.9
1970	6	28	0	5.6
1970	6	29	0.1	5
1970	6	30	0	4.9
1970	7	1	33.2	4.5
1970	7	2	0	4.4
1970	7	3	0	3.7
1970	7	4	1.6	5.1
1970	7	5	0	5.8
1970	7	6	0	5.8
1970	7	7	0	5.6
1970	7	8	0	5.5
1970	7	9	0	5.1
1970	7	10	0	5.6
1970	7	11	0	5.9
1970	7	12	0	6
1970	7	13	0	6.6
1970	7	14	0	5.2
1970	7	15	0	7.4
1970	7	16	15.9	2.7
1970	7	17	3	3.9
1970	7	18	0	4.5
1970	7	19	0	5.2
1970	7	20	0	4.2
1970	7	21	0	3.6
1970	7	22	0	5.1
1970	7	23	0	5.4
1970	7	24	0	5.9
1970	7	25	0	5
1970	7	26	2.4	5.7
1970	7	27	0	5.2
1970	7	28	0	5.5
1970	7	29	0	5.4
1970	7	30	0	7.2
1970	7	31	0	7.2
1970	8	1	0	4.1
1970	8	2	0	4.8
1970	8	3	0	4.9
1970	8	4	0	5.1
1970	8	5	0	5.1
1970	8	6	0	5.5
1970	8	7	0	5.3
1970	8	8	6.4	4.9
1970	8	9	3.8	3.3
1970	8	10	7.6	4.3
1970	8	11	14.5	3.2
1970	8	12	0	5.2
1970	8	13	0	4.7
1970	8	14	0	4.5
1970	8	15	0	3.6
1970	8	16	0	4.2
1970	8	17	0	2.9
1970	8	18	16.9	5.5
1970	8	19	0	4.3
1970	8	20	0	4.5
1970	8	21	2.2	3.6
1970	8	22	14.9	3.4
1970	8	23	0	2.2
1970	8	24	5.9	1.9
1970	8	25	1	3.4
1970	8	26	0.2	4.4
1970	8	27	0	3.8
1970	8	28	0	2.4
1970	8	29	0	2.3
1970	8	30	36.7	1.5
1970	8	31	34.6	2.2
1970	9	1	1	4
1970	9	2	0	3.3
1970	9	3	0	3.7
1970	9	4	11	3.2
1970	9	5	0	3.6
1970	9	6	0	2.7
1970	9	7	0	3.6
1970	9	8	0	2.8
1970	9	9	0	3.8
1970	9	10	0	3.5
1970	9	11	0	3.5
1970	9	12	0.1	4.7
1970	9	13	0	4
1970	9	14	0	4
1970	9	15	0	3.3
1970	9	16	0	2.5
1970	9	17	14.7	5.2
1970	9	18	0	5.3
1970	9	19	0	4.8
1970	9	20	0	3.1
1970	9	21	0	2.8
1970	9	22	0	2.6
1970	9	23	6.7	3
1970	9	24	0	3.4
1970	9	25	0	2.7
1970	9	26	0	2.3
1970	9	27	0	4.1
1970	9	28	0	3.7
1970	9	29	0	2.7
1970	9	30	0	2.3
1970	10	1	8.6	1.4
1970	10	2	2.3	3
1970	10	3	0	3.7
1970	10	4	0.5	2.3
1970	10	5	0	2.5
1970	10	6	0	2.2
1970	10	7	0	2.7
1970	10	8	0	1.5
1970	10	9	0	1.8
1970	10	10	0	1.8
1970	10	11	0	1.7
1970	10	12	0	2.7
1970	10	13	0	3.4
1970	10	14	0	2
1970	10	15	0	3.4
1970	10	16	0	3.6
1970	10	17	0	3.8
1970	10	18	0	3.2
1970	10	19	0	1.6
1970	10	20	0	2.5
1970	10	21	10.6	2
1970	10	22	4.3	3.3
1970	10	23	0	1.7
1970	10	24	0	2.6
1970	10	25	0	2
1970	10	26	0	1.9
1970	10	27	0	1
1970	10	28	0	1.2
1970	10	29	0	0.8
1970	10	30	0	0.9
1970	10	31	0	0.9
1970	11	1	0	0.6
1970	11	2	0	0.7
1970	11	3	0	1
1970	11	4	0	0.7
1970	11	5	0	0.8
1970	11	6	0.7	1.7
1970	11	7	0	1.5
1970	11	8	9.4	0.6
1970	11	9	0	0.9
1970	11	10	0	0.8
1970	11	11	0	1.7
1970	11	12	0	0.7
1970	11	13	0	1.7
1970	11	14	0	1.8
1970	11	15	21.4	0.8
1970	11	16	26.7	1.7
1970	11	17	0	1.5
1970	11	18	0	0.5
1970	11	19	6.7	1.8
1970	11	20	16.5	1
1970	11	21	1.1	0.7
1970	11	22	8.8	0.8
1970	11	23	0.4	0.5
1970	11	24	0	1.6
1970	11	25	0	0.5
1970	11	26	0	0
1970	11	27	0	1.2
1970	11	28	0	0.4
1970	11	29	0	0.4
1970	11	30	0	1.3
1970	12	1	4.6	0.6
1970	12	2	0	0.4
1970	12	3	0	0.5
1970	12	4	0	0.8
1970	12	5	0	0.4
1970	12	6	0.1	0.4
1970	12	7	0	0.7
1970	12	8	29	0.8
1970	12	9	2.3	1.1
1970	12	10	0	0.2
1970	12	11	0	0.2
1970	12	12	0	0.2
1970	12	13	0	0.2
1970	12	14	0	0.2
1970	12	15	0	2.1
1970	12	16	0	3
1970	12	17	0	0.9
1970	12	18	0	1
1970	12	19	0	0.9
1970	12	20	0	0.4
1970	12	21	0	0.2
1970	12	22	0	2.1
1970	12	23	0	2
1970	12	24	0	0.2
1970	12	25	0	1.4
1970	12	26	0	0
1970	12	27	7.3	0.6
1970	12	28	6	1.2
1970	12	29	4.2	0.5
1970	12	30	15.3	1.1
1970	12	31	5.9	0.9
1971	1	1	12.8	1
1971	1	2	3.6	0.9
1971	1	3	0	0.2
1971	1	4	0	0.8
1971	1	5	0	1.1
1971	1	6	0	1.4
1971	1	7	0	2.1
1971	1	8	0	2.3
1971	1	9	0	2.1
1971	1	10	0	3.6
1971	1	11	0	3.2
1971	1	12	0	1.3
1971	1	13	0	1.5
1971	1	14	0	2.4
1971	1	15	0.5	0.3
1971	1	16	7.5	0.4
1971	1	17	1.7	0.3
1971	1	18	0	0.5
1971	1	19	0	0.7
1971	1	20	15.1	0.7
1971	1	21	14.6	0.5
1971	1	22	11.4	1
1971	1	23	2.4	0.4
1971	1	24	0	0.4
1971	1	25	8.5	0.4
1971	1	26	4.3	0.5
1971	1	27	0	0.8
1971	1	28	10.5	0.5
1971	1	29	0	0.6
1971	1	30	0	0.4
1971	1	31	2	1.5
1971	2	1	13.4	1.2
1971	2	2	0.5	2.6
1971	2	3	0	2.3
1971	2	4	0	3.1
1971	2	5	0	2.6
1971	2	6	0	1.1
1971	2	7	0	1.4
1971	2	8	0	1.6
1971	2	9	0	1
1971	2	10	0	1
1971	2	11	0	0.9
1971	2	12	0	0.5
1971	2	13	0	0.7
1971	2	14	0	0.6
1971	2	15	9.9	0.7
1971	2	16	3.8	1.3
1971	2	17	3.2	1.7
1971	2	18	0	1.3
1971	2	19	0	1.8
1971	2	20	0	2.8
1971	2	21	0	3
1971	2	22	0	2
1971	2	23	0	2.1
1971	2	24	0.4	3.3
1971	2	25	0	2
1971	2	26	0	1.6
1971	2	27	0	2.7
1971	2	28	0	1.2
1971	3	1	0	2.1
1971	3	2	0	1.5
1971	3	3	0	2
1971	3	4	0	2.2
1971	3	5	0	2.3
1971	3	6	0	1.7
1971	3	7	0	1.4
1971	3	8	0	2.7
1971	3	9	0	1.9
1971	3	10	0	1.1
1971	3	11	0	1.7
1971	3	12	0	2.9
1971	3	13	0	1.5
1971	3	14	0	0.8
1971	3	15	9.2	1.1
1971	3	16	0.6	0.9
1971	3	17	4.4	1.4
1971	3	18	1.2	1.4
1971	3	19	0	2.5
1971	3	20	53.5	1.7
1971	3	21	1.8	2.5
1971	3	22	6.3	1.6
1971	3	23	35.9	1.2
1971	3	24	3.8	2.6
1971	3	25	0	2.3
1971	3	26	0.1	1.2
1971	3	27	13.9	2.9
1971	3	28	0	4
1971	3	29	0	4.1
1971	3	30	0	2.7
1971	3	31	0	3.3
1971	4	1	0	2.3
1971	4	2	4.3	1.5
1971	4	3	4.8	2.1
1971	4	4	1.3	2.1
1971	4	5	23.7	1.8
1971	4	6	0	2.1
1971	4	7	0	2.7
1971	4	8	0	2.9
1971	4	9	0	3.4
1971	4	10	0	3.8
1971	4	11	0	4.4
1971	4	12	0	5.5
1971	4	13	0	4.1
1971	4	14	0	3.2
1971	4	15	0	3.6
1971	4	16	0	3
1971	4	17	0	2.7
1971	4	18	4.5	2.6
1971	4	19	0	4
1971	4	20	0	3.5
1971	4	21	0	3.6
1971	4	22	0	3.7
1971	4	23	0	1.6
1971	4	24	4	2
1971	4	25	11.4	3
1971	4	26	0	4.4
1971	4	27	0	3.5
1971	4	28	0	3.4
1971	4	29	2.3	3.9
1971	4	30	0.5	1.7
1971	5	1	2.8	3
1971	5	2	1.4	2.2
1971	5	3	0	2.2
1971	5	4	12.8	3
1971	5	5	15.6	2.6
1971	5	6	5.2	3.9
1971	5	7	0	4
1971	5	8	0	4.7
1971	5	9	0	4.6
1971	5	10	0	4.3
1971	5	11	0	2.5
1971	5	12	0.4	3.8
1971	5	13	0	5.6
1971	5	14	0	4.5
1971	5	15	0	4.7
1971	5	16	0	4.9
1971	5	17	0	4.9
1971	5	18	0	4.9
1971	5	19	0	5.4
1971	5	20	0	4.9
1971	5	21	0	4.1
1971	5	22	6.6	5.4
1971	5	23	3.4	2.8
1971	5	24	17.4	2.9
1971	5	25	10.5	4.2
1971	5	26	3.1	3.9
1971	5	27	5.7	1.9
1971	5	28	3.4	3.7
1971	5	29	1.3	3.8
1971	5	30	0.2	1.9
1971	5	31	5.9	2
1971	6	1	1	5.6
1971	6	2	0	2.8
1971	6	3	0	4.8
1971	6	4	0.1	5
1971	6	5	0	3.8
1971	6	6	2.7	5
1971	6	7	2.5	2.9
1971	6	8	0.3	3.3
1971	6	9	36.8	2.5
1971	6	10	11	5.4
1971	6	11	8.7	4.5
1971	6	12	6.3	3.9
1971	6	13	9.8	4.8
1971	6	14	0	4.7
1971	6	15	0	4.5
1971	6	16	0.4	5.7
1971	6	17	0	4.6
1971	6	18	0	4.2
1971	6	19	12.7	3.4
1971	6	20	0	4.5
1971	6	21	0	4.9
1971	6	22	0	4.6
1971	6	23	0	4.8
1971	6	24	0	5.5
1971	6	25	11	4
1971	6	26	0	4.8
1971	6	27	0	5
1971	6	28	0	5.4
1971	6	29	0	6.2
1971	6	30	0	5.5
1971	7	1	1	6
1971	7	2	0	5.1
1971	7	3	0	5.4
1971	7	4	0	5
1971	7	5	0	4.7
1971	7	6	0	6.6
1971	7	7	0	7.5
1971	7	8	0	6.1
1971	7	9	0	6.7
1971	7	10	0	6.5
1971	7	11	0	6.1
1971	7	12	0	6.2
1971	7	13	0	6.4
1971	7	14	3	5.4
1971	7	15	0	4.7
1971	7	16	0	5.7
1971	7	17	0	5.2
1971	7	18	0	5.5
1971	7	19	16.3	5.2
1971	7	20	0	5.1
1971	7	21	0	5.8
1971	7	22	0	4.2
1971	7	23	0	4.8
1971	7	24	0	5.1
1971	7	25	0	5.4
1971	7	26	0	5.9
1971	7	27	0	7.4
1971	7	28	0	6.3
1971	7	29	0	6.4
1971	7	30	0	6.7
1971	7	31	0	5.4
1971	8	1	0	4.9
1971	8	2	0	5.8
1971	8	3	0	5.2
1971	8	4	0	5.1
1971	8	5	0	6
1971	8	6	0	5.8
1971	8	7	0	5.2
1971	8	8	0	6.2
1971	8	9	0.7	7.2
1971	8	10	0	5.5
1971	8	11	0	4.5
1971	8	12	0	5.2
1971	8	13	0	4.8
1971	8	14	0	5.2
1971	8	15	0	4.8
1971	8	16	0	6.8
1971	8	17	0	7.7
1971	8	18	0	6.5
1971	8	19	0	5.3
1971	8	20	0	4.6
1971	8	21	0	3.8
1971	8	22	13.1	4.2
1971	8	23	0	4.2
1971	8	24	0	4.6
1971	8	25	0	5.6
1971	8	26	0.3	3.9
1971	8	27	0	4.3
1971	8	28	6.6	4.4
1971	8	29	0	4.8
1971	8	30	0	3.8
1971	8	31	5	2.5
1971	9	1	18.1	4.7
1971	9	2	0	5.1
1971	9	3	0	5.4
1971	9	4	0	5.2
1971	9	5	0	4.4
1971	9	6	0	5.7
1971	9	7	0	6.1
1971	9	8	0	3.7
1971	9	9	12.8	2.3
1971	9	10	13.2	1.6
1971	9	11	1.8	2
1971	9	12	0	1.8
1971	9	13	25.4	4.8
1971	9	14	0	4.2
1971	9	15	0	4
1971	9	16	0	5.6
1971	9	17	0	4.3
1971	9	18	0	4.3
1971	9	19	0	2.5
1971	9	20	0	2.6
1971	9	21	0	2.7
1971	9	22	0	2.4
1971	9	23	0	2.3
1971	9	24	0	1.5
1971	9	25	0	1.6
1971	9	26	0.4	2.3
1971	9	27	0	2
1971	9	28	0	1.5
1971	9	29	11.3	2
1971	9	30	2.2	4.1
1971	10	1	0	5.5
1971	10	2	0	4
1971	10	3	0	2.1
1971	10	4	0	2
1971	10	5	0	5.2
1971	10	6	0	3.7
1971	10	7	0	2.3
1971	10	8	0	2.1
1971	10	9	0	2
1971	10	10	0	1.4
1971	10	11	0	1.7
1971	10	12	0	1.5
1971	10	13	0	1.3
1971	10	14	0.1	2.2
1971	10	15	30.9	3.2
1971	10	16	6.4	4.3
1971	10	17	0	2.9
1971	10	18	0	1.9
1971	10	19	0	1.3
1971	10	20	0	1.5
1971	10	21	0	1.4
1971	10	22	0	1.3
1971	10	23	0	1.4
1971	10	24	0	1.6
1971	10	25	0	1.2
1971	10	26	0	0.9
1971	10	27	0	5.7
1971	10	28	0	3.1
1971	10	29	0	3.2
1971	10	30	0	2.7
1971	10	31	0	2.3
1971	11	1	0	0.9
1971	11	2	0	1.5
1971	11	3	0	0.9
1971	11	4	0	0.6
1971	11	5	0	0.7
1971	11	6	0	1.5
1971	11	7	0	2.1
1971	11	8	0	1.3
1971	11	9	0.5	3.2
1971	11	10	11.6	1
1971	11	11	8.2	1
1971	11	12	14.9	0.8
1971	11	13	5.2	1.8
1971	11	14	0	1.5
1971	11	15	0	2.1
1971	11	16	0	1.5
1971	11	17	0	1.3
1971	11	18	0	0.8
1971	11	19	0	1.6
1971	11	20	6.2	3
1971	11	21	0	1.5
1971	11	22	8.1	1
1971	11	23	13.5	1.3
1971	11	24	0	0.7
1971	11	25	0	1.9
1971	11	26	0	0.4
1971	11	27	0	1.7
1971	11	28	3.7	1.3
1971	11	29	13.7	0.4
1971	11	30	1.2	0.6
1971	12	1	12.8	0.7
1971	12	2	7.8	0.8
1971	12	3	0.7	0.9
1971	12	4	0	0.6
1971	12	5	0	0.7
1971	12	6	0	0.3
1971	12	7	0	0.9
1971	12	8	0	0.6
1971	12	9	0	2.9
1971	12	10	0	0.6
1971	12	11	0	0.1
1971	12	12	0	0.3
1971	12	13	0	0.1
1971	12	14	0	0.4
1971	12	15	0	0.2
1971	12	16	0	0.3
1971	12	17	0	0.2
1971	12	18	0.2	0.2
1971	12	19	0.2	0.2
1971	12	20	0	0.4
1971	12	21	0	0.3
1971	12	22	0	0.3
1971	12	23	0.2	0.3
1971	12	24	0.1	0.2
1971	12	25	0.1	0.3
1971	12	26	0.2	0.2
1971	12	27	0	0.4
1971	12	28	0.1	0.4
1971	12	29	0.7	0.4
1971	12	30	41.3	1.3
1971	12	31	0.1	1.9
1972	1	1	8	0.9
1972	1	2	5.7	0.3
1972	1	3	0	0.8
1972	1	4	22.9	0.5
1972	1	5	0	0.3
1972	1	6	3.6	0.3
1972	1	7	0	0.3
1972	1	8	0.1	0.3
1972	1	9	0	0.5
1972	1	10	0	0.4
1972	1	11	0	0.4
1972	1	12	0	1
1972	1	13	0	1.9
1972	1	14	0	1.5
1972	1	15	0	0.5
1972	1	16	0	1.5
1972	1	17	0	0.8
1972	1	18	7	0.8
1972	1	19	3.4	1
1972	1	20	2	1.8
1972	1	21	0	1.7
1972	1	22	0	2.2
1972	1	23	0	2.2
1972	1	24	0	1.3
1972	1	25	0.1	0.5
1972	1	26	3.8	2.4
1972	1	27	0	0.5
1972	1	28	8.9	1.1
1972	1	29	0.3	1.2
1972	1	30	0.1	0.5
1972	1	31	0.9	0.7
1972	2	1	0	0.8
1972	2	2	0	0.5
1972	2	3	0	0.8
1972	2	4	0	0.4
1972	2	5	2.2	0.6
1972	2	6	7.6	0.4
1972	2	7	1.3	0.5
1972	2	8	0.1	0.5
1972	2	9	3.5	0.9
1972	2	10	6.3	0.6
1972	2	11	4.2	0.9
1972	2	12	4.6	1.3
1972	2	13	12.6	1.5
1972	2	14	0	1.5
1972	2	15	0	2.9
1972	2	16	0	1.3
1972	2	17	0	1.3
1972	2	18	0	1
1972	2	19	3	1.8
1972	2	20	17.4	1.7
1972	2	21	4.6	1.4
1972	2	22	0	1.3
1972	2	23	3.9	1.1
1972	2	24	0	2.3
1972	2	25	0	1.5
1972	2	26	8.4	2.1
1972	2	27	0	1.4
1972	2	28	1.4	0.8
1972	2	29	2.8	1
1972	3	1	0	1.1
1972	3	2	0.4	2
1972	3	3	0	2.2
1972	3	4	0	1.4
1972	3	5	2.1	1
1972	3	6	25.5	1.4
1972	3	7	1.8	1
1972	3	8	3.9	1.1
1972	3	9	28.1	1.6
1972	3	10	0.1	1.5
1972	3	11	0	2.5
1972	3	12	0	2.8
1972	3	13	0.6	2.6
1972	3	14	0	1.8
1972	3	15	0	2.5
1972	3	16	0	4.6
1972	3	17	0	5.5
1972	3	18	0	4.5
1972	3	19	0	4.5
1972	3	20	0	2.3
1972	3	21	0	2.1
1972	3	22	0	2.5
1972	3	23	0	2.4
1972	3	24	0	1.4
1972	3	25	0	2.9
1972	3	26	0	2.6
1972	3	27	0	2.9
1972	3	28	0.4	4.3
1972	3	29	0	3.2
1972	3	30	0	2.6
1972	3	31	0	2.3
1972	4	1	0	1.4
1972	4	2	0	3.2
1972	4	3	0	2.6
1972	4	4	0	1.6
1972	4	5	0	2.1
1972	4	6	9.3	3.1
1972	4	7	0	3
1972	4	8	0	2.9
1972	4	9	10.2	1.5
1972	4	10	12.1	2.1
1972	4	11	0.2	2.9
1972	4	12	5.7	1.5
1972	4	13	6.4	2.6
1972	4	14	2.6	4.7
1972	4	15	0	3.7
1972	4	16	2.1	1.6
1972	4	17	11.6	3.1
1972	4	18	3.6	1.6
1972	4	19	0.7	2.3
1972	4	20	6.5	4.3
1972	4	21	10.7	1.3
1972	4	22	11.4	1.6
1972	4	23	4.1	2.4
1972	4	24	5	1.9
1972	4	25	1.9	3.7
1972	4	26	0	4
1972	4	27	0	3.3
1972	4	28	0	4.1
1972	4	29	0	4.5
1972	4	30	0	4
1972	5	1	0	2.8
1972	5	2	0	3.4
1972	5	3	0	2.7
1972	5	4	1.8	1.8
1972	5	5	7	2.1
1972	5	6	0.2	2.6
1972	5	7	1.9	3.2
1972	5	8	0.3	4.3
1972	5	9	1	3.1
1972	5	10	0.3	3.1
1972	5	11	22.6	3.2
1972	5	12	3.9	3.8
1972	5	13	1.7	2.7
1972	5	14	16.9	3.1
1972	5	15	7.5	1.9
1972	5	16	24.4	2.2
1972	5	17	5.3	3.7
1972	5	18	0	3.6
1972	5	19	1	1.8
1972	5	20	16.4	4.5
1972	5	21	0.4	4.3
1972	5	22	0	4.4
1972	5	23	0	4.5
1972	5	24	0	4.5
1972	5	25	0	4.6
1972	5	26	0	5.1
1972	5	27	0	6.1
1972	5	28	0.4	4.9
1972	5	29	0	4.9
1972	5	30	0	5.3
1972	5	31	0	3.1
1972	6	1	0	2.9
1972	6	2	20.2	2
1972	6	3	13.2	5.5
1972	6	4	0	5.2
1972	6	5	0	5.4
1972	6	6	0	4.5
1972	6	7	0	5.4
1972	6	8	0	5.4
1972	6	9	0	6.4
1972	6	10	0	5.6
1972	6	11	0	4.5
1972	6	12	22.2	2.3
1972	6	13	15.6	4.1
1972	6	14	0	4.4
1972	6	15	0.1	4.7
1972	6	16	3.7	4.9
1972	6	17	0	3.3
1972	6	18	3.5	5.6
1972	6	19	0	5.4
1972	6	20	0	5.5
1972	6	21	0	5.2
1972	6	22	0	4.4
1972	6	23	0	4.2
1972	6	24	1.8	6
1972	6	25	0	6.5
1972	6	26	0	5.4
1972	6	27	0	4.9
1972	6	28	0	5
1972	6	29	0	5.3
1972	6	30	0	5.5
1972	7	1	0	5.5
1972	7	2	0	5.3
1972	7	3	0	5.5
1972	7	4	0	5.4
1972	7	5	0	4.9
1972	7	6	0	4.1
1972	7	7	0	5.8
1972	7	8	0	6.6
1972	7	9	0	5.6
1972	7	10	0	4.5
1972	7	11	4.5	3.9
1972	7	12	24.7	5.5
1972	7	13	8.9	2.3
1972	7	14	4.7	4.8
1972	7	15	0	5
1972	7	16	0.5	6.2
1972	7	17	0	7
1972	7	18	2.2	5.8
1972	7	19	0	5
1972	7	20	0.1	3.8
1972	7	21	0	4.8
1972	7	22	2.2	4.6
1972	7	23	1.3	5
1972	7	24	0	5.1
1972	7	25	0.2	4.5
1972	7	26	0	4.2
1972	7	27	0	2.9
1972	7	28	0.4	5.4
1972	7	29	1.6	4.4
1972	7	30	0	4.4
1972	7	31	0.1	4
1972	8	1	3.7	4.2
1972	8	2	8.1	5.3
1972	8	3	2	4.2
1972	8	4	0.2	4.5
1972	8	5	0	4.5
1972	8	6	0	4.6
1972	8	7	0	4.4
1972	8	8	0	5.2
1972	8	9	0	4.9
1972	8	10	0	4.9
1972	8	11	0	5.6
1972	8	12	0	5.4
1972	8	13	0	5.2
1972	8	14	0	6
1972	8	15	0	7
1972	8	16	0	5.4
1972	8	17	0	5.4
1972	8	18	0	3.8
1972	8	19	36.3	2.8
1972	8	20	5.5	2
1972	8	21	0	4.1
1972	8	22	0	4.1
1972	8	23	0.5	4.7
1972	8	24	0	4.3
1972	8	25	0	5.2
1972	8	26	0	4.1
1972	8	27	0	3.4
1972	8	28	0	3.6
1972	8	29	0.6	3
1972	8	30	0	4.2
1972	8	31	0.2	5.5
1972	9	1	0	3.4
1972	9	2	0	3.1
1972	9	3	0.5	4
1972	9	4	0	3.3
1972	9	5	0	3.2
1972	9	6	0	2.8
1972	9	7	4.7	1.9
1972	9	8	0.2	2.3
1972	9	9	19.2	2
1972	9	10	1.6	2.5
1972	9	11	0.3	2.8
1972	9	12	9.4	4.8
1972	9	13	0	2.7
1972	9	14	0	2.6
1972	9	15	0	3.1
1972	9	16	12.5	1.7
1972	9	17	19.5	2.9
1972	9	18	0	1.7
1972	9	19	20.7	2
1972	9	20	4.9	2.4
1972	9	21	0	2.5
1972	9	22	0	3.2
1972	9	23	0	2.8
1972	9	24	0	3.5
1972	9	25	0	2.7
1972	9	26	0	3.5
1972	9	27	0	3.4
1972	9	28	0	3
1972	9	29	0	2.4
1972	9	30	0	1.8
1972	10	1	0	1.7
1972	10	2	0	3.4
1972	10	3	0	3.2
1972	10	4	0	3
1972	10	5	0	3.3
1972	10	6	0	3.2
1972	10	7	0	2.5
1972	10	8	0.3	1.2
1972	10	9	0	0.8
1972	10	10	13.5	1.3
1972	10	11	0.1	1
1972	10	12	1	0.9
1972	10	13	0.8	0.8
1972	10	14	0	2.1
1972	10	15	0	4.1
1972	10	16	0	3.6
1972	10	17	0	2.2
1972	10	18	0	2.2
1972	10	19	0	3.5
1972	10	20	0	1.2
1972	10	21	10.6	1.6
1972	10	22	0	1.7
1972	10	23	0	1.5
1972	10	24	0	1.3
1972	10	25	0	0.9
1972	10	26	0	0.9
1972	10	27	0	1.5
1972	10	28	0	1.3
1972	10	29	7.9	0.8
1972	10	30	10.5	3.3
1972	10	31	0	1.8
1972	11	1	0	1.2
1972	11	2	0	0.6
1972	11	3	0	0.8
1972	11	4	0	1
1972	11	5	0	0.6
1972	11	6	0	0.6
1972	11	7	0	0.5
1972	11	8	0	0.6
1972	11	9	0	0.6
1972	11	10	0	0.6
1972	11	11	6.3	1.2
1972	11	12	12.5	1.8
1972	11	13	0	1.1
1972	11	14	0	1.6
1972	11	15	0.7	0.9
1972	11	16	8.2	2.2
1972	11	17	0	0.4
1972	11	18	0	2
1972	11	19	27.2	1
1972	11	20	0.9	0.5
1972	11	21	26.7	0.7
1972	11	22	0	0.4
1972	11	23	0	0.5
1972	11	24	28.6	1.9
1972	11	25	1	2.3
1972	11	26	0	0
1972	11	27	0	1.1
1972	11	28	0	1.4
1972	11	29	0	0.3
1972	11	30	2.7	0.5
1972	12	1	14.1	1
1972	12	2	10.9	0.4
1972	12	3	1.7	0.6
1972	12	4	0	0.9
1972	12	5	1.4	0.4
1972	12	6	16.3	1.6
1972	12	7	0	0.7
1972	12	8	0	0.7
1972	12	9	0	1.7
1972	12	10	23	1.4
1972	12	11	0	0.7
1972	12	12	0	1.1
1972	12	13	0	0.4
1972	12	14	0	1.2
1972	12	15	0	0.7
1972	12	16	0	1.3
1972	12	17	0	0
1972	12	18	0	0.9
1972	12	19	0	2.7
1972	12	20	0	2
1972	12	21	0	2.1
1972	12	22	0	1.6
1972	12	23	0	1.4
1972	12	24	0	0.6
1972	12	25	0	0.3
1972	12	26	0	0.3
1972	12	27	0	0.7
1972	12	28	0	2.3
1972	12	29	0	1.7
1972	12	30	0	1.8
1972	12	31	0	1.7
1973	1	1	0	1.2
1973	1	2	6.3	0.6
1973	1	3	1.7	0.3
1973	1	4	0.2	1.8
1973	1	5	1.2	2.5
1973	1	6	0	2.1
1973	1	7	0	1
1973	1	8	0	1.3
1973	1	9	0	0.4
1973	1	10	0	1.2
1973	1	11	0	0.3
1973	1	12	0	0.9
1973	1	13	0	1.3
1973	1	14	0	0.5
1973	1	15	0	0.4
1973	1	16	5.7	0.6
1973	1	17	15.9	0.6
1973	1	18	12.2	0.5
1973	1	19	2.9	0.4
1973	1	20	19.2	0.5
1973	1	21	0	0.5
1973	1	22	0.1	1.2
1973	1	23	0.1	2.3
1973	1	24	0.1	1.8
1973	1	25	0	2.3
1973	1	26	0	1.8
1973	1	27	0	0.6
1973	1	28	1.2	0.4
1973	1	29	0	1.6
1973	1	30	0	0.2
1973	1	31	0	1.5
1973	2	1	8.6	1
1973	2	2	0	2
1973	2	3	1.8	2.3
1973	2	4	0	1.2
1973	2	5	0	1.8
1973	2	6	0	0.7
1973	2	7	0	1
1973	2	8	0	0.6
1973	2	9	0	0.5
1973	2	10	0.8	0.9
1973	2	11	4.1	1.5
1973	2	12	0	2.2
1973	2	13	0	1.4
1973	2	14	22.6	0.5
1973	2	15	19.4	1
1973	2	16	0	2
1973	2	17	0	1.8
1973	2	18	0	1.3
1973	2	19	0	2.7
1973	2	20	0	3.6
1973	2	21	0	0.8
1973	2	22	0	1.1
1973	2	23	0	1.3
1973	2	24	0	2.7
1973	2	25	0	2.2
1973	2	26	0	2.3
1973	2	27	0	2.4
1973	2	28	0	2.8
1973	3	1	0	2
1973	3	2	0	1.7
1973	3	3	0	1.6
1973	3	4	0	1.4
1973	3	5	0	2.1
1973	3	6	0	1.3
1973	3	7	0	2.3
1973	3	8	0.9	3.2
1973	3	9	0	2.4
1973	3	10	0	3.6
1973	3	11	0	2.9
1973	3	12	0	2.3
1973	3	13	0	3.5
1973	3	14	0	2.9
1973	3	15	0	3
1973	3	16	0	3.2
1973	3	17	0	2.1
1973	3	18	0	1.7
1973	3	19	0	3
1973	3	20	0	2.9
1973	3	21	0	1.9
1973	3	22	0	2.8
1973	3	23	0	2.4
1973	3	24	0	2.5
1973	3	25	0	2.2
1973	3	26	0	1.5
1973	3	27	0	1.8
1973	3	28	0	4.5
1973	3	29	0	4
1973	3	30	0	3.7
1973	3	31	0	3.3
1973	4	1	0	4.3
1973	4	2	0	4.2
1973	4	3	0.1	2.1
1973	4	4	5.7	4.7
1973	4	5	0	3.9
1973	4	6	0	4.2
1973	4	7	0	3
1973	4	8	0.5	2.3
1973	4	9	9.2	2.1
1973	4	10	32.6	3.4
1973	4	11	1.9	1.8
1973	4	12	4.3	1.7
1973	4	13	12	2.5
1973	4	14	0	3.4
1973	4	15	0	3.5
1973	4	16	0	3.2
1973	4	17	0	4.5
1973	4	18	0	3.2
1973	4	19	0	2.3
1973	4	20	0.4	3.6
1973	4	21	0.6	1.9
1973	4	22	5.5	3.3
1973	4	23	0	3.3
1973	4	24	0	2.7
1973	4	25	3	1.3
1973	4	26	2.9	2
1973	4	27	0	2.8
1973	4	28	0	2.5
1973	4	29	3.2	1.7
1973	4	30	0.4	3.3
1973	5	1	0	3.3
1973	5	2	0	3.3
1973	5	3	1.4	3.4
1973	5	4	0.1	2.9
1973	5	5	0	3.5
1973	5	6	0	3.2
1973	5	7	0.5	5.5
1973	5	8	0	4.3
1973	5	9	11	4.2
1973	5	10	3.4	4.3
1973	5	11	0	3.7
1973	5	12	2.7	4.7
1973	5	13	0	5.2
1973	5	14	0	5
1973	5	15	0	4
1973	5	16	0	5.1
1973	5	17	0.8	4.4
1973	5	18	0	2.5
1973	5	19	0	3.3
1973	5	20	17	4.7
1973	5	21	0	3
1973	5	22	3.5	4.4
1973	5	23	0	4.4
1973	5	24	0	5.5
1973	5	25	0	5.1
1973	5	26	0	5.9
1973	5	27	0	5.3
1973	5	28	0.8	5.5
1973	5	29	0	5
1973	5	30	0	4.8
1973	5	31	0	4.6
1973	6	1	0	5
1973	6	2	0	4.2
1973	6	3	0	4.4
1973	6	4	0	3.5
1973	6	5	5	4.7
1973	6	6	0	2.6
1973	6	7	13.3	3.9
1973	6	8	24.7	5
1973	6	9	0.1	3
1973	6	10	0	4.7
1973	6	11	0	4.9
1973	6	12	0	5.4
1973	6	13	0	5.6
1973	6	14	0	4.7
1973	6	15	0	7.7
1973	6	16	0	5.3
1973	6	17	0	3.4
1973	6	18	0	3.1
1973	6	19	0.5	5.1
1973	6	20	0	4.8
1973	6	21	0.8	3.4
1973	6	22	4	2
1973	6	23	62.6	2.9
1973	6	24	13	3.1
1973	6	25	8.9	3.1
1973	6	26	0.1	5.9
1973	6	27	0	5.3
1973	6	28	0	5.2
1973	6	29	0	6.2
1973	6	30	2.2	6.7
1973	7	1	0	5.3
1973	7	2	0	4.8
1973	7	3	0.9	5.5
1973	7	4	0	5
1973	7	5	0	6
1973	7	6	0	4.8
1973	7	7	13.6	5.1
1973	7	8	0.2	5.8
1973	7	9	0	4.2
1973	7	10	3.5	2.7
1973	7	11	5.2	4.8
1973	7	12	0	4.2
1973	7	13	2.2	5.9
1973	7	14	0	4
1973	7	15	2.7	5.6
1973	7	16	0	5.7
1973	7	17	0	6.1
1973	7	18	0	6.8
1973	7	19	0	5.7
1973	7	20	0	5.5
1973	7	21	0	5.4
1973	7	22	0	5.2
1973	7	23	9	5.9
1973	7	24	0	4.8
1973	7	25	29.7	3
1973	7	26	0	4.8
1973	7	27	0	5.1
1973	7	28	0.1	5.4
1973	7	29	0	4.1
1973	7	30	0	5.7
1973	7	31	0	5.5
1973	8	1	3.8	5.9
1973	8	2	0	3.3
1973	8	3	0	2.9
1973	8	4	0	4.9
1973	8	5	0	4.8
1973	8	6	0	5.6
1973	8	7	0	4.9
1973	8	8	0	5.6
1973	8	9	0	6.7
1973	8	10	0	5.6
1973	8	11	0	6.2
1973	8	12	0	6.6
1973	8	13	0	6.4
1973	8	14	0.3	6.7
1973	8	15	0	4.8
1973	8	16	0	5.1
1973	8	17	0	5
1973	8	18	0	4.8
1973	8	19	0	5.3
1973	8	20	0	4.2
1973	8	21	0	4.3
1973	8	22	0	5.4
1973	8	23	0	5.4
1973	8	24	12	3.4
1973	8	25	0	3.2
1973	8	26	0	3.7
1973	8	27	0	6.1
1973	8	28	0	4.9
1973	8	29	0	2
1973	8	30	0.5	3.4
1973	8	31	0	4.1
1973	9	1	0.1	6.6
1973	9	2	0	5.6
1973	9	3	0	4
1973	9	4	0	3.9
1973	9	5	0	3.8
1973	9	6	0	3.7
1973	9	7	0	6.3
1973	9	8	0	4.3
1973	9	9	0	3.8
1973	9	10	0	4.3
1973	9	11	0	5.8
1973	9	12	0	4.5
1973	9	13	0	4.3
1973	9	14	0	4.3
1973	9	15	0	1.7
1973	9	16	0	1.5
1973	9	17	2.2	1.9
1973	9	18	0	1.6
1973	9	19	15.8	2.4
1973	9	20	0	2.7
1973	9	21	0	4.6
1973	9	22	42	1.4
1973	9	23	21.7	3
1973	9	24	3.4	1.4
1973	9	25	52.2	1.2
1973	9	26	38.6	3.8
1973	9	27	16.5	1.9
1973	9	28	8	4
1973	9	29	0	2.4
1973	9	30	0	2.4
1973	10	1	3.3	2
1973	10	2	7.1	3.1
1973	10	3	0	2.2
1973	10	4	0	4
1973	10	5	0	4
1973	10	6	0	3.1
1973	10	7	0	2.7
1973	10	8	1.9	1.9
1973	10	9	0.3	3.4
1973	10	10	0	2.4
1973	10	11	0	2
1973	10	12	0	1.6
1973	10	13	13.9	0.9
1973	10	14	2.6	1.2
1973	10	15	13.2	1.6
1973	10	16	0	2.4
1973	10	17	6.9	1.9
1973	10	18	0	2.7
1973	10	19	0	2.8
1973	10	20	0	1
1973	10	21	0	1.4
1973	10	22	0	2.9
1973	10	23	0	0.6
1973	10	24	0	3.5
1973	10	25	0	2.9
1973	10	26	0	2.7
1973	10	27	0	2.3
1973	10	28	0	3
1973	10	29	0	1.6
1973	10	30	0	1.7
1973	10	31	0	2.2
1973	11	1	0	3.1
1973	11	2	0	1.9
1973	11	3	0	1
1973	11	4	0	0.8
1973	11	5	5.6	0.7
1973	11	6	18.2	1.3
1973	11	7	44.5	3.4
1973	11	8	0	2.5
1973	11	9	0	1.9
1973	11	10	0	1.2
1973	11	11	0	0.6
1973	11	12	0	2.1
1973	11	13	0	0.7
1973	11	14	0	0.5
1973	11	15	0	1.1
1973	11	16	0	0.7
1973	11	17	0	0.7
1973	11	18	0	2.1
1973	11	19	0	1
1973	11	20	0	0.8
1973	11	21	0	1.6
1973	11	22	0	0.8
1973	11	23	0	0.6
1973	11	24	0	0.5
1973	11	25	0	0.7
1973	11	26	0	0.9
1973	11	27	0.5	1.9
1973	11	28	0	1.4
1973	11	29	0	0.8
1973	11	30	2.7	1.5
1973	12	1	0	0.9
1973	12	2	0	2.3
1973	12	3	0	1.9
1973	12	4	0	0.8
1973	12	5	0	0.7
1973	12	6	0	0.5
1973	12	7	0	0.5
1973	12	8	0	0.7
1973	12	9	3	2.4
1973	12	10	0.7	2.5
1973	12	11	0	1.6
1973	12	12	0	0.6
1973	12	13	0	0.8
1973	12	14	0	0.2
1973	12	15	0.8	1.9
1973	12	16	0	0.9
1973	12	17	0	0.8
1973	12	18	0	0.2
1973	12	19	0	0.5
1973	12	20	0	0.3
1973	12	21	0	1.6
1973	12	22	18.3	0.6
1973	12	23	0	0.7
1973	12	24	0.2	1.6
1973	12	25	1.1	1.1
1973	12	26	6.1	0.7
1973	12	27	0	0.2
1973	12	28	0	0.2
1973	12	29	0	0.3
1973	12	30	0	0
1973	12	31	0	0.3
1974	1	1	33.8	1.8
1974	1	2	0	0.6
1974	1	3	4.5	0.4
1974	1	4	2.4	0.3
1974	1	5	4.2	0.4
1974	1	6	0.3	0.3
1974	1	7	9.6	0.5
1974	1	8	0	0.4
1974	1	9	0.2	0.4
1974	1	10	1.5	1.1
1974	1	11	0	0.6
1974	1	12	0	0.3
1974	1	13	0	0.3
1974	1	14	0	1.5
1974	1	15	0	0.7
1974	1	16	0	0.5
1974	1	17	0.8	0.5
1974	1	18	1.8	0.8
1974	1	19	0	0.3
1974	1	20	0	0.3
1974	1	21	0	0.5
1974	1	22	0	0.4
1974	1	23	0	0.3
1974	1	24	0	0.4
1974	1	25	0	0.5
1974	1	26	0	0.4
1974	1	27	0	0.4
1974	1	28	0.1	0.5
1974	1	29	0	0.4
1974	1	30	0	0.5
1974	1	31	0	0.6
1974	2	1	4.9	0.6
1974	2	2	3.8	0.6
1974	2	3	1.2	1
1974	2	4	9.6	0.7
1974	2	5	0	0.8
1974	2	6	0.3	1.2
1974	2	7	12.1	1.3
1974	2	8	0	0.9
1974	2	9	0	1.6
1974	2	10	0	0.7
1974	2	11	0	0.8
1974	2	12	0	1.2
1974	2	13	0	1.5
1974	2	14	0	1.5
1974	2	15	1.7	2
1974	2	16	0	0.8
1974	2	17	6.2	0.8
1974	2	18	6.9	1.1
1974	2	19	3.5	1.2
1974	2	20	3	1.4
1974	2	21	0	2.8
1974	2	22	0	2.5
1974	2	23	0	2.6
1974	2	24	0	3.2
1974	2	25	0	3.8
1974	2	26	0	2.7
1974	2	27	0	2.3
1974	2	28	0	2.3
1974	3	1	0	1.8
1974	3	2	5.4	1.4
1974	3	3	0.1	1.9
1974	3	4	0.1	1.1
1974	3	5	20.6	1
1974	3	6	0.5	2
1974	3	7	0	3
1974	3	8	0	2.4
1974	3	9	0	2.4
1974	3	10	0	2.3
1974	3	11	0	2.8
1974	3	12	0	2.5
1974	3	13	0	1.7
1974	3	14	0	3.3
1974	3	15	0	4.4
1974	3	16	0	1.7
1974	3	17	0	1.8
1974	3	18	0	2.1
1974	3	19	0	2.5
1974	3	20	0	1.6
1974	3	21	0	2.2
1974	3	22	0	2.4
1974	3	23	0	1.4
1974	3	24	0	2.2
1974	3	25	0	2.1
1974	3	26	0	3.4
1974	3	27	0	1.4
1974	3	28	0	2
1974	3	29	0	1.3
1974	3	30	0	2.2
1974	3	31	0	4.2
1974	4	1	0	3.3
1974	4	2	0.1	3.1
1974	4	3	0	3.6
1974	4	4	0	4.2
1974	4	5	0	3.9
1974	4	6	0	4.6
1974	4	7	0	4.1
1974	4	8	0	4
1974	4	9	0	3.7
1974	4	10	0	2.7
1974	4	11	0.2	1.6
1974	4	12	1.1	1.5
1974	4	13	8.2	1.4
1974	4	14	6.5	4.3
1974	4	15	0	4.2
1974	4	16	0	4.1
1974	4	17	0	4.4
1974	4	18	0	4.1
1974	4	19	0	3.9
1974	4	20	0	3.9
1974	4	21	0	3.6
1974	4	22	0	3.7
1974	4	23	0	3.7
1974	4	24	0	4.3
1974	4	25	2.4	2.4
1974	4	26	13.6	2.4
1974	4	27	5.4	2.4
1974	4	28	4.5	1.6
1974	4	29	25.6	2
1974	4	30	3.4	3.5
1974	5	1	0.9	3.1
1974	5	2	0	2.4
1974	5	3	0.5	4
1974	5	4	1.5	1.3
1974	5	5	35.7	2.5
1974	5	6	1.1	2.2
1974	5	7	0.9	3.1
1974	5	8	9.3	1.7
1974	5	9	0.5	4.1
1974	5	10	0	4.6
1974	5	11	0	2.6
1974	5	12	5.2	2.9
1974	5	13	0	4.1
1974	5	14	0	3.5
1974	5	15	12.7	4.6
1974	5	16	0	3.9
1974	5	17	0	3.8
1974	5	18	0	4.1
1974	5	19	0	5
1974	5	20	0	5
1974	5	21	0	4.3
1974	5	22	1	4.1
1974	5	23	5.5	4
1974	5	24	0.1	1.8
1974	5	25	7.1	3.5
1974	5	26	0	4.7
1974	5	27	0	4.8
1974	5	28	0	2.8
1974	5	29	2.6	4
1974	5	30	0	4.3
1974	5	31	0	3.6
1974	6	1	3.6	2
1974	6	2	5.1	5.6
1974	6	3	0	5
1974	6	4	0	4.8
1974	6	5	0	5.1
1974	6	6	0	2.3
1974	6	7	53.2	6.2
1974	6	8	0	2.7
1974	6	9	2.3	2.5
1974	6	10	36	2.4
1974	6	11	20.8	4.2
1974	6	12	0	4.1
1974	6	13	0	3.3
1974	6	14	0	3.9
1974	6	15	0	3
1974	6	16	45.6	4.9
1974	6	17	0	4
1974	6	18	3.5	2.2
1974	6	19	9.4	3.9
1974	6	20	0	5
1974	6	21	0.1	3.4
1974	6	22	5.3	2.6
1974	6	23	0	3.2
1974	6	24	9.3	4.1
1974	6	25	5.3	4.9
1974	6	26	0	3.9
1974	6	27	0	3.7
1974	6	28	0	4
1974	6	29	6.7	2.5
1974	6	30	18.7	4.9
1974	7	1	0.2	5.4
1974	7	2	0	4.7
1974	7	3	0	4.7
1974	7	4	5.3	5.1
1974	7	5	0	5.8
1974	7	6	0	4.8
1974	7	7	18.7	4.8
1974	7	8	0.1	4.9
1974	7	9	0.2	5
1974	7	10	0	3.7
1974	7	11	0	4.6
1974	7	12	0	4.6
1974	7	13	0	5.7
1974	7	14	0	5.5
1974	7	15	0	5.5
1974	7	16	0	5.6
1974	7	17	0	5.7
1974	7	18	3	5
1974	7	19	14.1	4.4
1974	7	20	1	4.4
1974	7	21	0	4
1974	7	22	0	4.6
1974	7	23	0	4.9
1974	7	24	0	4.7
1974	7	25	0	2.5
1974	7	26	38.2	4.7
1974	7	27	0	4.9
1974	7	28	0	4.4
1974	7	29	0	5.2
1974	7	30	0	4.7
1974	7	31	0	5
1974	8	1	0	5.1
1974	8	2	0	4.9
1974	8	3	0	5
1974	8	4	0	4.9
1974	8	5	0	5
1974	8	6	0	5.7
1974	8	7	0	4.6
1974	8	8	0	4
1974	8	9	11.9	5
1974	8	10	0	4.5
1974	8	11	64.1	3.9
1974	8	12	1.5	4.7
1974	8	13	0	4.3
1974	8	14	0	4.7
1974	8	15	0	4.4
1974	8	16	0	4.9
1974	8	17	0	5
1974	8	18	0	4.4
1974	8	19	0	4.4
1974	8	20	0	5
1974	8	21	0	5
1974	8	22	0	4.3
1974	8	23	50.8	2.7
1974	8	24	0	4.4
1974	8	25	0	3.7
1974	8	26	0	4
1974	8	27	0	2.4
1974	8	28	6.1	1.8
1974	8	29	4.2	4.4
1974	8	30	0	4
1974	8	31	0	3.4
1974	9	1	6.3	2.3
1974	9	2	1.5	2.9
1974	9	3	0	3.1
1974	9	4	0	4.1
1974	9	5	0	3.4
1974	9	6	0	2.7
1974	9	7	33.5	3.8
1974	9	8	0	3.2
1974	9	9	0	2.9
1974	9	10	0	3.2
1974	9	11	0	5
1974	9	12	0	3
1974	9	13	0	2.9
1974	9	14	0	3.3
1974	9	15	0	3.2
1974	9	16	0	3.5
1974	9	17	0	3
1974	9	18	0	2.7
1974	9	19	0	2.2
1974	9	20	0.9	1.3
1974	9	21	20.6	2.5
1974	9	22	3.4	1.7
1974	9	23	43.9	2.5
1974	9	24	24.3	2
1974	9	25	24.6	3.4
1974	9	26	52.6	2
1974	9	27	0	2.8
1974	9	28	0	2.6
1974	9	29	0.6	2.2
1974	9	30	4.8	1.7
1974	10	1	13.8	2.2
1974	10	2	1	1.8
1974	10	3	3.3	1.2
1974	10	4	20.6	1.8
1974	10	5	39.7	1.9
1974	10	6	1.9	2.5
1974	10	7	0	2.3
1974	10	8	13.4	1
1974	10	9	3.4	1.5
1974	10	10	13.4	1.7
1974	10	11	0.7	0.9
1974	10	12	22.8	0.8
1974	10	13	2.5	1.6
1974	10	14	0	2.9
1974	10	15	0	3.2
1974	10	16	1.6	0.6
1974	10	17	10.9	1.4
1974	10	18	0	1.7
1974	10	19	0	0.7
1974	10	20	12.4	1
1974	10	21	34.7	1.6
1974	10	22	2	1.5
1974	10	23	0.9	1.1
1974	10	24	0	1.1
1974	10	25	0	1.1
1974	10	26	0	0.7
1974	10	27	0	1
1974	10	28	0	1.2
1974	10	29	0.3	1.5
1974	10	30	0	2.3
1974	10	31	16.7	1.3
1974	11	1	1.2	2
1974	11	2	0	1.6
1974	11	3	0	1.2
1974	11	4	0	0.9
1974	11	5	11	1.3
1974	11	6	16.1	1.3
1974	11	7	0.3	2.6
1974	11	8	0	4.1
1974	11	9	0	3.1
1974	11	10	0	0.9
1974	11	11	0	1.3
1974	11	12	0	0.9
1974	11	13	0	0.5
1974	11	14	0	0.6
1974	11	15	0	0.5
1974	11	16	0	0.5
1974	11	17	0	1.2
1974	11	18	0	0.5
1974	11	19	0.2	2.3
1974	11	20	16.2	0.3
1974	11	21	2.3	0.4
1974	11	22	1.6	0.5
1974	11	23	0	0.4
1974	11	24	0	0.4
1974	11	25	3.9	0.4
1974	11	26	33.4	1.4
1974	11	27	0	1.1
1974	11	28	0	0.6
1974	11	29	14.2	0.8
1974	11	30	0	0.4
1974	12	1	0	0.5
1974	12	2	0	0.3
1974	12	3	0	0.4
1974	12	4	0	0.2
1974	12	5	0	0.3
1974	12	6	0	0.2
1974	12	7	0	0.4
1974	12	8	0	0.4
1974	12	9	0	0.2
1974	12	10	0	0.3
1974	12	11	1.1	0.4
1974	12	12	24.5	1.9
1974	12	13	0.4	1
1974	12	14	0	1.5
1974	12	15	0	0.5
1974	12	16	0	0.9
1974	12	17	0	0.8
1974	12	18	0	0.5
1974	12	19	0	0.4
1974	12	20	0	1.1
1974	12	21	0	0.7
1974	12	22	0	0.3
1974	12	23	0	0.5
1974	12	24	0	0.4
1974	12	25	1	0.3
1974	12	26	0	0.3
1974	12	27	0	0.4
1974	12	28	1.9	0.3
1974	12	29	0	0.4
1974	12	30	1.1	2.2
1974	12	31	0.8	2.9
1975	1	1	0	1.3
